<?xml version="1.0" encoding="UTF-8"?>
<svg width="80px" height="81px" viewBox="0 0 80 81" version="1.1" xmlns="http://www.w3.org/2000/svg" xmlns:xlink="http://www.w3.org/1999/xlink">
    <!-- Generator: Sketch 49 (51002) - http://www.bohemiancoding.com/sketch -->
    <title>Artboard Copy 8</title>
    <desc>Created with Sketch.</desc>
    <defs></defs>
    <g id="Artboard-Copy-8" stroke="none" stroke-width="1" fill="none" fill-rule="evenodd">
        <g id="aws" transform="translate(0.000000, 9.000000)" fill="#FF9900" fill-rule="nonzero">
            <g id="Group" transform="translate(11.000000, 40.000000)">
                <polyline id="Shape" points="10.061198 21.91063 0.200165282 18.3728001 0.200165282 3.91921538 10.061198 7.27919181 10.061198 21.91063"></polyline>
                <polyline id="Shape" points="11.8696596 21.91063 21.7306923 18.3728001 21.7306923 3.91921538 11.8696596 7.27919181 11.8696596 21.91063"></polyline>
                <polyline id="Shape" points="1.21341685 2.83841371 11.1937311 0.0290989177 20.4476679 3.0128469 11.1937311 6.1543543 1.21341685 2.83841371"></polyline>
            </g>
            <g id="Group" transform="translate(0.000000, 20.000000)">
                <polyline id="Shape" points="10.0173124 21.7123335 0.0154077681 18.2240617 0.0154077681 3.97079965 10.0173124 7.28368813 10.0173124 21.7123335"></polyline>
                <polyline id="Shape" points="11.8516092 21.7123335 21.8539474 18.2240617 21.8539474 3.97079965 11.8516092 7.28368813 11.8516092 21.7123335"></polyline>
                <polyline id="Shape" points="1.04313436 2.90416592 11.1660245 0.134290978 20.552594 3.07659801 11.1660245 6.17489495 1.04313436 2.90416592"></polyline>
            </g>
            <g id="Group" transform="translate(23.000000, 20.000000)">
                <polyline id="Shape" points="10.088186 21.7123335 0.226725727 18.2240617 0.226725727 3.97079965 10.088186 7.28368813 10.088186 21.7123335"></polyline>
                <polyline id="Shape" points="11.8966476 21.7123335 21.7581079 18.2240617 21.7581079 3.97079965 11.8966476 7.28368813 11.8966476 21.7123335"></polyline>
                <polyline id="Shape" points="1.24040483 2.90416592 11.2207191 0.134290978 20.4746558 3.07659801 11.2207191 6.17489495 1.24040483 2.90416592"></polyline>
            </g>
            <g id="Group" transform="translate(34.000000, 0.000000)">
                <polyline id="Shape" points="10.1031595 21.8175081 0.10082128 18.3300796 0.10082128 4.07681746 10.1031595 7.38928434 10.1031595 21.8175081"></polyline>
                <polyline id="Shape" points="11.9374563 21.8175081 21.9397945 18.3300796 21.9397945 4.07681746 11.9374563 7.38928434 11.9374563 21.8175081"></polyline>
                <polyline id="Shape" points="1.12898151 3.01018372 11.2518716 0.239887191 20.6380076 3.18219422 11.2518716 6.28049116 1.12898151 3.01018372"></polyline>
            </g>
            <g id="Group" transform="translate(57.000000, 0.000000)">
                <polyline id="Shape" points="10.0038643 21.8175081 0.00152610229 18.3300796 0.00152610229 4.07681746 10.0038643 7.38928434 10.0038643 21.8175081"></polyline>
                <polyline id="Shape" points="11.8381612 21.8175081 21.8404994 18.3300796 21.8404994 4.07681746 11.8381612 7.38928434 11.8381612 21.8175081"></polyline>
                <polyline id="Shape" points="1.02968634 3.01018372 11.1525764 0.239887191 20.5382787 3.18219422 11.1525764 6.28049116 1.02968634 3.01018372"></polyline>
            </g>
        </g>
    </g>
</svg>