<?xml version="1.0" encoding="UTF-8"?>
<svg width="50px" height="50px" viewBox="0 0 50 50" version="1.1" xmlns="http://www.w3.org/2000/svg" xmlns:xlink="http://www.w3.org/1999/xlink">
    <!-- Generator: Sketch 41.2 (35397) - http://www.bohemiancoding.com/sketch -->
    <title>Database</title>
    <desc>Created with Sketch.</desc>
    <defs>
        <path d="M26.9230769,6.46153846 C26.3275385,6.46153846 25.8461538,5.97907692 25.8461538,5.38461538 C25.8461538,4.28830769 21.6644615,2.15384615 14,2.15384615 C6.33553846,2.15384615 2.15384615,4.28830769 2.15384615,5.38461538 C2.15384615,5.97907692 1.67138462,6.46153846 1.07692308,6.46153846 C0.482461538,6.46153846 0,5.97907692 0,5.38461538 C0,1.84907692 7.04307692,0 14,0 C20.9569231,0 28,1.84907692 28,5.38461538 C28,5.97907692 27.5186154,6.46153846 26.9230769,6.46153846 Z M14,33.3846154 C7.04307692,33.3846154 0,31.5344615 0,28 C0,27.4044615 0.482461538,26.9230769 1.07692308,26.9230769 C1.67138462,26.9230769 2.15384615,27.4044615 2.15384615,28 C2.15384615,29.0973846 6.33553846,31.2307692 14,31.2307692 C21.6644615,31.2307692 25.8461538,29.0973846 25.8461538,28 C25.8461538,27.4044615 26.3275385,26.9230769 26.9230769,26.9230769 C27.5186154,26.9230769 28,27.4044615 28,28 C28,31.5344615 20.9569231,33.3846154 14,33.3846154 Z M14,25.8461538 C7.04307692,25.8461538 0,23.996 0,20.4615385 C0,19.866 0.482461538,19.3846154 1.07692308,19.3846154 C1.67138462,19.3846154 2.15384615,19.866 2.15384615,20.4615385 C2.15384615,21.5589231 6.33553846,23.6923077 14,23.6923077 C21.6644615,23.6923077 25.8461538,21.5589231 25.8461538,20.4615385 C25.8461538,19.866 26.3275385,19.3846154 26.9230769,19.3846154 C27.5186154,19.3846154 28,19.866 28,20.4615385 C28,23.996 20.9569231,25.8461538 14,25.8461538 Z M14,18.3076923 C7.04307692,18.3076923 0,16.4586154 0,12.9230769 C0,12.3286154 0.482461538,11.8461538 1.07692308,11.8461538 C1.67138462,11.8461538 2.15384615,12.3286154 2.15384615,12.9230769 C2.15384615,14.0193846 6.33553846,16.1538462 14,16.1538462 C21.6644615,16.1538462 25.8461538,14.0193846 25.8461538,12.9230769 C25.8461538,12.3286154 26.3275385,11.8461538 26.9230769,11.8461538 C27.5186154,11.8461538 28,12.3286154 28,12.9230769 C28,16.4586154 20.9569231,18.3076923 14,18.3076923 Z M14,10.7692308 C7.04307692,10.7692308 0,8.92015385 0,5.38461538 C0,4.79015385 0.482461538,4.30769231 1.07692308,4.30769231 C1.67138462,4.30769231 2.15384615,4.79015385 2.15384615,5.38461538 C2.15384615,6.48092308 6.33553846,8.61538462 14,8.61538462 C21.6644615,8.61538462 25.8461538,6.48092308 25.8461538,5.38461538 C25.8461538,4.79015385 26.3275385,4.30769231 26.9230769,4.30769231 C27.5186154,4.30769231 28,4.79015385 28,5.38461538 C28,8.92015385 20.9569231,10.7692308 14,10.7692308 Z" id="path-1"></path>
    </defs>
    <g id="Technologies" stroke="none" stroke-width="1" fill="none" fill-rule="evenodd">
        <g id="Technology-dot-NET_1920-1440" transform="translate(-71.000000, -570.000000)">
            <g id="noun_691819_cc" transform="translate(82.000000, 578.307692)" fill="#FF9C00">
                <g id="Group" transform="translate(0.000000, -0.000000)">
                    <g>
                        <use id="Shape" xlink:href="#path-1"></use>
                        <path d="M26.9230769,29.0769231 C26.3275385,29.0769231 25.8461538,28.5955385 25.8461538,28 L25.8461538,5.38461538 C25.8461538,4.79015385 26.3275385,4.30769231 26.9230769,4.30769231 C27.5186154,4.30769231 28,4.79015385 28,5.38461538 L28,28 C28,28.5955385 27.5186154,29.0769231 26.9230769,29.0769231 Z" id="Path"></path>
                        <path d="M1.07692308,29.0769231 C0.482461538,29.0769231 0,28.5955385 0,28 L0,5.38461538 C0,4.79015385 0.482461538,4.30769231 1.07692308,4.30769231 C1.67138462,4.30769231 2.15384615,4.79015385 2.15384615,5.38461538 L2.15384615,28 C2.15384615,28.5955385 1.67138462,29.0769231 1.07692308,29.0769231 Z" id="Path"></path>
                        <ellipse id="Oval" cx="4.30769231" cy="11.8461538" rx="1.07692308" ry="1.07692308"></ellipse>
                        <circle id="Oval" cx="4.30769231" cy="19.3846154" r="1.07692308"></circle>
                        <circle id="Oval" cx="4.30769231" cy="26.9230769" r="1.07692308"></circle>
                    </g>
                </g>
            </g>
            <g id="Group-14" transform="translate(71.000000, 163.000000)"></g>
        </g>
    </g>
</svg>