<?xml version="1.0" encoding="utf-8"?>
<!-- Generator: Adobe Illustrator 16.0.0, SVG Export Plug-In . SVG Version: 6.00 Build 0)  -->
<!DOCTYPE svg PUBLIC "-//W3C//DTD SVG 1.1//EN" "http://www.w3.org/Graphics/SVG/1.1/DTD/svg11.dtd">
<svg version="1.1" id="Layer_1" xmlns="http://www.w3.org/2000/svg" xmlns:xlink="http://www.w3.org/1999/xlink" x="0px" y="0px"
	 width="30px" height="31px" viewBox="0 0 30 31" enable-background="new 0 0 30 31" xml:space="preserve">
<title>Inqueries</title>
<desc>Created with Sketch.</desc>
<g id="Contact-us-Copy-2">
	<g id="Contacts_1920-1440" transform="translate(-1234.000000, -1047.000000)">
		<rect id="Rectangle-6" x="1170" y="990" fill="none" width="380" height="627"/>
		<g id="Page-1" transform="translate(1239.000000, 1056.000000)">
			<g id="Clip-2">
			</g>
			<defs>
				<filter id="Adobe_OpacityMaskFilter" filterUnits="userSpaceOnUse" x="0" y="0" width="20" height="12.414">
					<feColorMatrix  type="matrix" values="1 0 0 0 0  0 1 0 0 0  0 0 1 0 0  0 0 0 1 0"/>
				</filter>
			</defs>
			<mask maskUnits="userSpaceOnUse" x="0" y="0" width="20" height="12.414" id="mask-2">
				<g filter="url(#Adobe_OpacityMaskFilter)">
					<polygon id="path-1" fill="#FFFFFF" points="20,12.414 0,12.414 0,0 20,0 					"/>
				</g>
			</mask>
			<path id="Fill-1" mask="url(#mask-2)" fill="#727272" d="M6.73,6.871l-6.021,5.543h18.582L13.27,6.871l-2.987,2.111
				c-0.169,0.117-0.395,0.117-0.564,0L6.73,6.871z M20,2.126l-5.922,4.178L20,11.758V2.126z M0,2.126v9.632l5.922-5.454L0,2.126z
				 M0.244,0C0.109,0,0,0.106,0,0.239v0.709l10,7.057l10-7.057V0.239C20,0.106,19.891,0,19.756,0H0.244z"/>
		</g>
	</g>
</g>
</svg>
