<?xml version="1.0" encoding="utf-8"?>
<!-- Generator: Adobe Illustrator 16.0.0, SVG Export Plug-In . SVG Version: 6.00 Build 0)  -->
<!DOCTYPE svg PUBLIC "-//W3C//DTD SVG 1.1//EN" "http://www.w3.org/Graphics/SVG/1.1/DTD/svg11.dtd">
<svg version="1.1" id="Capa_1" xmlns="http://www.w3.org/2000/svg" xmlns:xlink="http://www.w3.org/1999/xlink" x="0px" y="0px"
	 width="227.801px" height="260.309px" viewBox="0 0 227.801 260.309" enable-background="new 0 0 227.801 260.309"
	 xml:space="preserve">
<g>
	<g>
		<g>
			<path fill="#FFFFFF" d="M188.771,0h-69.449c-21.52,0-39.03,17.511-39.03,39.029v182.25c0,21.52,17.51,39.029,39.03,39.029h69.449
				c21.521,0,39.03-17.51,39.03-39.029V39.029C227.801,17.511,210.291,0,188.771,0z M219.123,221.279
				c0,16.733-13.614,30.353-30.353,30.353h-69.449c-16.739,0-30.352-13.619-30.352-30.353V39.029
				c0-16.733,13.614-30.352,30.352-30.352h69.449c16.738,0,30.353,13.619,30.353,30.352V221.279L219.123,221.279z"/>
		</g>
	</g>
	<g>
		<g>
			<path fill="#FFFFFF" d="M188.753,0h-69.415C97.806,0,80.292,17.52,80.292,39.047v4.338H227.8v-4.338
				C227.801,17.52,210.286,0,188.753,0z M89.277,34.708c2.112-14.699,14.789-26.031,30.062-26.031h69.414
				c15.272,0,27.949,11.332,30.058,26.031H89.277z"/>
		</g>
	</g>
	<g>
		<g>
			<path fill="#FFFFFF" d="M80.292,216.924v4.338c0,21.528,17.515,39.047,39.046,39.047h69.415
				c21.532,0,39.047-17.519,39.047-39.047v-4.338H80.292z M188.753,251.632h-69.415c-15.276,0-27.949-11.333-30.061-26.031h129.538
				C216.702,240.299,204.025,251.632,188.753,251.632z"/>
		</g>
	</g>
	<g>
		<g>
			<path fill="#FFFFFF" d="M154.046,216.924c-11.961,0-21.693,9.73-21.693,21.692s9.731,21.692,21.693,21.692
				c11.961,0,21.692-9.73,21.692-21.692S166.007,216.924,154.046,216.924z M154.046,251.632c-7.176,0-13.016-5.84-13.016-13.016
				s5.84-13.016,13.016-13.016c7.175,0,13.015,5.84,13.015,13.016S161.221,251.632,154.046,251.632z"/>
		</g>
	</g>
	<g>
		<g>
			<path fill="#FFFFFF" d="M167.061,17.354h-26.03c-2.395,0-4.338,1.943-4.338,4.338c0,2.395,1.943,4.338,4.338,4.338h26.03
				c2.396,0,4.339-1.943,4.339-4.338C171.399,19.297,169.456,17.354,167.061,17.354z"/>
		</g>
	</g>
	<g>
		<g>
			<path fill="#FFFFFF" d="M67.276,30.369c-2.395,0-4.338,1.944-4.338,4.338v8.677c0,2.395,1.944,4.338,4.338,4.338
				s4.338-1.943,4.338-4.338v-8.676C71.615,32.313,69.671,30.369,67.276,30.369z"/>
		</g>
	</g>
	<g>
		<g>
			<path fill="#FFFFFF" d="M45.584,26.031H28.23c-2.395,0-4.338,1.944-4.338,4.338v17.354c0,2.395,1.943,4.338,4.338,4.338h17.354
				c2.395,0,4.338-1.944,4.338-4.338V30.369C49.922,27.975,47.979,26.031,45.584,26.031z M41.246,43.385h-8.677v-8.676h8.677
				L41.246,43.385L41.246,43.385z"/>
		</g>
	</g>
	<g>
		<g>
			<path fill="#FFFFFF" d="M115.538,251.371c-15.146-1.893-26.569-14.823-26.569-30.092V39.029c0-15.262,11.423-28.2,26.564-30.091
				l34.647-4.318l-34.647-4.29C113.72,0.104,112.175,0,110.679,0H41.228C19.709,0,2.199,17.511,2.199,39.029v182.25
				c0,21.52,17.51,39.029,39.029,39.029h69.451c1.497,0,3.041-0.104,4.859-0.33l34.646-4.29L115.538,251.371z M41.228,251.632
				c-16.738,0-30.352-13.619-30.352-30.353V39.029c0-16.733,13.615-30.352,30.352-30.352h53.598
				c-8.907,7.198-14.535,18.2-14.535,30.352v182.25c0,12.152,5.627,23.154,14.535,30.353H41.228z"/>
		</g>
	</g>
	<g>
		<g>
			<path fill="#FFFFFF" d="M115.538,251.371c-15.146-1.893-26.569-14.823-26.569-30.092v-43.401H2.199v43.401
				c0,21.52,17.51,39.029,39.029,39.029h69.451c1.497,0,3.041-0.104,4.859-0.33l34.646-4.29L115.538,251.371z M41.228,251.632
				c-16.738,0-30.352-13.619-30.352-30.353v-34.725h69.416v34.725c0,12.152,5.627,23.154,14.535,30.353H41.228z"/>
		</g>
	</g>
	<g>
		<g>
			<path fill="#FFFFFF" d="M123.676,56.4h-17.353c-2.395,0-4.338,1.943-4.338,4.338v17.354c0,2.395,1.943,4.338,4.338,4.338h17.353
				c2.396,0,4.339-1.943,4.339-4.338V60.739C128.015,58.344,126.072,56.4,123.676,56.4z M119.338,73.754h-8.677v-8.677h8.677V73.754
				z"/>
		</g>
	</g>
	<g>
		<g>
			<path fill="#FFFFFF" d="M201.77,56.4h-17.354c-2.396,0-4.339,1.943-4.339,4.338v17.354c0,2.395,1.943,4.338,4.339,4.338h17.354
				c2.395,0,4.338-1.943,4.338-4.338V60.739C206.107,58.344,204.164,56.4,201.77,56.4z M197.43,73.754h-8.677v-8.677h8.677V73.754z"
				/>
		</g>
	</g>
	<g>
		<g>
			<path fill="#FFFFFF" d="M162.724,56.4h-17.354c-2.395,0-4.338,1.943-4.338,4.338v17.354c0,2.395,1.944,4.338,4.338,4.338h17.354
				c2.394,0,4.337-1.943,4.337-4.338V60.739C167.061,58.344,165.117,56.4,162.724,56.4z M158.384,73.754h-8.677v-8.677h8.677V73.754
				z"/>
		</g>
	</g>
	<g>
		<g>
			<path fill="#FFFFFF" d="M123.676,95.446h-17.353c-2.395,0-4.338,1.944-4.338,4.338v17.354c0,2.395,1.943,4.338,4.338,4.338
				h17.353c2.396,0,4.339-1.944,4.339-4.338V99.786C128.015,97.39,126.072,95.446,123.676,95.446z M119.338,112.801h-8.677v-8.677
				h8.677V112.801z"/>
		</g>
	</g>
	<g>
		<g>
			<path fill="#FFFFFF" d="M201.77,95.446h-17.354c-2.396,0-4.339,1.944-4.339,4.338v17.354c0,2.395,1.943,4.338,4.339,4.338h17.354
				c2.395,0,4.338-1.944,4.338-4.338V99.786C206.107,97.39,204.164,95.446,201.77,95.446z M197.43,112.801h-8.677v-8.677h8.677
				V112.801z"/>
		</g>
	</g>
	<g>
		<g>
			<path fill="#FFFFFF" d="M162.724,95.446h-17.354c-2.395,0-4.338,1.944-4.338,4.338v17.354c0,2.395,1.944,4.338,4.338,4.338
				h17.354c2.394,0,4.337-1.944,4.337-4.338V99.786C167.061,97.39,165.117,95.446,162.724,95.446z M158.384,112.801h-8.677v-8.677
				h8.677V112.801z"/>
		</g>
	</g>
	<g>
		<g>
			<path fill="#FFFFFF" d="M123.676,134.493h-17.353c-2.395,0-4.338,1.943-4.338,4.338v17.354c0,2.395,1.943,4.338,4.338,4.338
				h17.353c2.396,0,4.339-1.943,4.339-4.338v-17.354C128.015,136.436,126.072,134.493,123.676,134.493z M119.338,151.847h-8.677
				v-8.677h8.677V151.847z"/>
		</g>
	</g>
	<g>
		<g>
			<path fill="#FFFFFF" d="M201.77,134.493h-17.354c-2.396,0-4.339,1.943-4.339,4.338v17.354c0,2.395,1.943,4.338,4.339,4.338
				h17.354c2.395,0,4.338-1.943,4.338-4.338v-17.354C206.107,136.436,204.164,134.493,201.77,134.493z M197.43,151.847h-8.677
				v-8.677h8.677V151.847z"/>
		</g>
	</g>
	<g>
		<g>
			<path fill="#FFFFFF" d="M162.724,134.493h-17.354c-2.395,0-4.338,1.943-4.338,4.338v17.354c0,2.395,1.944,4.338,4.338,4.338
				h17.354c2.394,0,4.337-1.943,4.337-4.338v-17.354C167.061,136.436,165.117,134.493,162.724,134.493z M158.384,151.847h-8.677
				v-8.677h8.677V151.847z"/>
		</g>
	</g>
	<g>
		<g>
			<path fill="#FFFFFF" d="M67.276,225.601H32.569c-2.395,0-4.338,1.943-4.338,4.338c0,2.396,1.944,4.339,4.338,4.339h34.708
				c2.395,0,4.338-1.943,4.338-4.339C71.615,227.544,69.671,225.601,67.276,225.601z"/>
		</g>
	</g>
	<g>
		<g>
			<path fill="#FFFFFF" d="M58.6,203.907H41.246c-2.395,0-4.338,1.943-4.338,4.339c0,2.394,1.943,4.337,4.338,4.337H58.6
				c2.395,0,4.338-1.943,4.338-4.337C62.938,205.85,60.994,203.907,58.6,203.907z"/>
		</g>
	</g>
</g>
</svg>
