<?xml version="1.0" encoding="UTF-8"?>
<svg width="24px" height="24px" viewBox="0 0 24 24" version="1.1" xmlns="http://www.w3.org/2000/svg" xmlns:xlink="http://www.w3.org/1999/xlink">
    <!-- Generator: sketchtool 41.2 (35397) - http://www.bohemiancoding.com/sketch -->
    <title>BCAF96B1-6C7D-4D7A-A888-8251865BC423</title>
    <desc>Created with sketchtool.</desc>
    <defs></defs>
    <g id="Career" stroke="none" stroke-width="1" fill="none" fill-rule="evenodd">
        <g id="Career_page_1920-1440" transform="translate(-1135.000000, -1113.000000)">
            <g id="Group-20" transform="translate(1103.000000, 883.000000)">
                <rect id="Rectangle-6" fill="none" x="0" y="0" width="447" height="415"></rect>
                <g id="Group-17" transform="translate(32.000000, 33.000000)">
                    <g id="Group-15">
                        <g id="Group-16" transform="translate(1.000000, 0.000000)"></g>
                        <g id="Group-13-Copy" transform="translate(0.000000, 197.000000)" fill="#CCCCCC">
                            <path d="M19.3321196,13.158449 C19.3918248,12.7806878 19.4232584,12.3942219 19.4232584,11.9997582 C19.4232584,7.89981235 16.0997784,4.57640666 11.999721,4.57640666 C11.6062988,4.57640666 11.2187169,4.60880745 10.8412905,4.6678431 C10.1576004,4.24481008 9.35066828,4 8.48589089,4 C6.00843963,4 4,6.00817923 4,8.48589089 C4,9.35048228 4.24495888,10.1567448 4.6678059,10.8418113 C4.60929104,11.2202049 4.57707625,11.6054432 4.57707625,11.9999069 C4.57707625,16.1001503 7.90048194,19.4225516 11.9995722,19.4225516 C12.3933291,19.4225516 12.7810226,19.3921968 13.1584118,19.3326404 C13.8428087,19.754855 14.6490712,20.0003347 15.5136626,20.0003347 C17.9917835,20.0003347 19.9999999,17.9916347 19.9999999,15.5139974 C20.0001859,14.6490712 19.7553758,13.8429947 19.3321196,13.158449 Z M15.5242645,15.3759872 C15.2102261,15.828073 14.7489147,16.1813569 14.1461336,16.4353925 C13.5421249,16.6900976 12.8282288,16.8168364 12.0038129,16.8168364 C11.0157191,16.8168364 10.1976271,16.643933 9.55188052,16.2947783 C9.09414034,16.0447603 8.72184748,15.7093693 8.43563433,15.291135 C8.14882598,14.872566 8.00341303,14.4626644 8.00341303,14.0629927 C8.00341303,13.8272221 8.09332429,13.6221783 8.26834806,13.4550036 C8.44519461,13.2866014 8.67296731,13.2021956 8.94180828,13.2021956 C9.16202948,13.2021956 9.35118907,13.2685224 9.50519511,13.3999483 C9.65804796,13.5313371 9.78627473,13.7223566 9.8911402,13.9744206 C10.0168374,14.2664369 10.1533597,14.5105402 10.2986238,14.7053169 C10.4429952,14.8976757 10.646179,15.058266 10.9093284,15.1839632 C11.1695763,15.3099952 11.5159411,15.3730112 11.9493528,15.3730112 C12.5424992,15.3730112 13.0218523,15.24471 13.3887141,14.9916045 C13.7574358,14.7361925 13.9345427,14.4254277 13.9345427,14.0499356 C13.9345427,13.7504423 13.8390515,13.5125885 13.6432332,13.3271489 C13.4456293,13.1392912 13.1904406,12.9962219 12.873761,12.8964155 C12.5558539,12.7955676 12.1290265,12.688619 11.5941345,12.5759416 C10.8758861,12.4191828 10.2751881,12.2367191 9.7887299,12.0271742 C9.3016393,11.8168481 8.91372264,11.5293329 8.6262075,11.166154 C8.33809717,10.7994038 8.1944326,10.3435608 8.1944326,9.80364691 C8.1944326,9.28880546 8.34609507,8.82838693 8.6497176,8.42767363 C8.95319134,8.02584434 9.39225735,7.71827866 9.96475806,7.50404659 C10.53525,7.28988891 11.2068874,7.18275428 11.9763224,7.18275428 C12.5916398,7.18275428 13.1238906,7.25395417 13.5744141,7.39560997 C14.02371,7.53830735 14.3982348,7.72661135 14.697691,7.96290275 C14.99525,8.19867334 15.2142064,8.44735218 15.3528863,8.70830686 C15.4914545,8.97004272 15.5612408,9.22567787 15.5612408,9.47513789 C15.5612408,9.70707694 15.4713296,9.91744026 15.2961198,10.1018011 C15.1209472,10.2864224 14.8968573,10.3805372 14.6351586,10.3796816 C14.3992392,10.3796816 14.2141716,10.3252587 14.0858332,10.2100517 C13.9608428,10.098602 13.8295657,9.92116021 13.6875751,9.67385776 C13.5080873,9.32879496 13.2931113,9.05995398 13.0431305,8.86766963 C12.799734,8.67895643 12.3981651,8.58071248 11.839391,8.58190286 C11.322392,8.58190286 10.9087332,8.68754952 10.5965176,8.89415569 C10.2823676,9.10407262 10.1321931,9.34761792 10.1314863,9.63297548 C10.1320071,9.81179361 10.1834169,9.96256329 10.2868688,10.0914968 C10.3919202,10.2216208 10.5380772,10.3343726 10.7259348,10.4294173 C10.9138668,10.5259501 11.1050351,10.6006096 11.2971335,10.6543257 C11.491501,10.7094182 11.8139837,10.7890624 12.262238,10.894523 C12.8243973,11.0156819 13.3342912,11.151051 13.7924777,11.2985843 C14.2497715,11.4468616 14.6400317,11.6256797 14.96244,11.8387214 C15.2874151,12.0511307 15.5414135,12.3219432 15.722724,12.6490387 C15.9053364,12.9766549 15.9962893,13.3768102 15.9962893,13.8476818 C15.9969961,14.414677 15.8390469,14.9246081 15.5242645,15.3759872 Z" id="Skype"></path>
                        </g>
                    </g>
                </g>
            </g>
        </g>
    </g>
</svg>