<?xml version="1.0" encoding="UTF-8"?>
<svg width="50px" height="50px" viewBox="0 0 50 50" version="1.1" xmlns="http://www.w3.org/2000/svg" xmlns:xlink="http://www.w3.org/1999/xlink">
    <!-- Generator: Sketch 41.2 (35397) - http://www.bohemiancoding.com/sketch -->
    <title>Web</title>
    <desc>Created with Sketch.</desc>
    <defs>
        <path d="M1.77272727,7.94117647 L37.2272727,7.94117647 L37.2272727,27.3529412 C37.2272727,27.8572059 36.8474659,28.2352941 36.3409091,28.2352941 L2.65909091,28.2352941 C2.15253409,28.2352941 1.77272727,27.8572059 1.77272727,27.3529412 L1.77272727,7.94117647 Z M10.1931818,3.08823529 C9.70346591,3.08823529 9.30681818,3.48308824 9.30681818,3.97058824 C9.30681818,4.45808824 9.70346591,4.85294118 10.1931818,4.85294118 C10.6828977,4.85294118 11.0795455,4.45808824 11.0795455,3.97058824 C11.0795455,3.48308824 10.6828977,3.08823529 10.1931818,3.08823529 L10.1931818,3.08823529 Z M7.09090909,3.08823529 C6.60119318,3.08823529 6.20454545,3.48308824 6.20454545,3.97058824 C6.20454545,4.45808824 6.60119318,4.85294118 7.09090909,4.85294118 C7.580625,4.85294118 7.97727273,4.45808824 7.97727273,3.97058824 C7.97727273,3.48308824 7.580625,3.08823529 7.09090909,3.08823529 L7.09090909,3.08823529 Z M3.98863636,3.08823529 C3.49892045,3.08823529 3.10227273,3.48308824 3.10227273,3.97058824 C3.10227273,4.45808824 3.49892045,4.85294118 3.98863636,4.85294118 C4.47835227,4.85294118 4.875,4.45808824 4.875,3.97058824 C4.875,3.48308824 4.47835227,3.08823529 3.98863636,3.08823529 L3.98863636,3.08823529 Z M14.6803977,1.76470588 L36.3409091,1.76470588 C36.8474659,1.76470588 37.2272727,2.14279412 37.2272727,2.64705882 L37.2272727,6.17647059 L18.1567159,6.17647059 L14.6803977,1.76470588 Z M2.65909091,1.76470588 L12.4365682,1.76470588 L15.9128864,6.17647059 L1.77272727,6.17647059 L1.77272727,2.64705882 C1.77272727,2.14279412 2.15253409,1.76470588 2.65909091,1.76470588 L2.65909091,1.76470588 Z M2.65909091,0 C1.20146591,0 0,1.19602941 0,2.64705882 L0,27.3529412 C0,28.8039706 1.20146591,30 2.65909091,30 L36.3409091,30 C37.7985341,30 39,28.8039706 39,27.3529412 L39,2.64705882 C39,1.19602941 37.7985341,0 36.3409091,0 L2.65909091,0 Z" id="path-1"></path>
    </defs>
    <g id="Technologies" stroke="none" stroke-width="1" fill="none" fill-rule="evenodd">
        <g id="Technology-dot-NET_1920-1440" transform="translate(-71.000000, -291.000000)">
            <g id="Group-10" transform="translate(77.000000, 300.000000)">
                <g id="Page-1">
                    <use fill="#FF9C00" fill-rule="evenodd" xlink:href="#path-1"></use>
                    <use xlink:href="#path-1"></use>
                </g>
            </g>
            <g id="Group-14" transform="translate(71.000000, 163.000000)"></g>
        </g>
    </g>
</svg>