<?xml version="1.0" encoding="utf-8"?>
<!-- Generator: Adobe Illustrator 16.0.0, SVG Export Plug-In . SVG Version: 6.00 Build 0)  -->
<!DOCTYPE svg PUBLIC "-//W3C//DTD SVG 1.1//EN" "http://www.w3.org/Graphics/SVG/1.1/DTD/svg11.dtd">
<svg version="1.1" id="Layer_1" xmlns="http://www.w3.org/2000/svg" xmlns:xlink="http://www.w3.org/1999/xlink" x="0px" y="0px"
	 width="531.989px" height="135.115px" viewBox="0 0 531.989 135.115" enable-background="new 0 0 531.989 135.115"
	 xml:space="preserve">
<g>
	<path id="_243839824" fill="#ED5C37" d="M67.558,0c37.305,0,67.557,30.253,67.557,67.558c0,37.305-30.252,67.557-67.557,67.557
		C30.252,135.114,0,104.862,0,67.558C0,30.253,30.252,0,67.558,0z"/>
	<path fill="#FEFEFE" d="M101.061,40.948c-20.782,0-41.564,0-62.347,0c-4.478,0.655-7.406,2.862-8.068,7.335
		c0,17.114,0,34.23,0,51.345c0.801,2.507,2.757,3.729,5.868,3.667c22.495,0,44.988,0,67.482,0c3.638-0.632,9.522-3.373,6.676-6.831
		c-7.946-7.947-25.569-19.058-25.38-22.875c0.255-5.143,15.77-16.571,24.206-24C111.934,46.727,107.908,41.369,101.061,40.948
		L101.061,40.948z"/>
	<path fill="#ED5C37" d="M79.323,49.665c-7.994,7.958-15.987,15.144-23.98,23.103c-0.889,0.819-0.505,1.183,0.017,1.724
		L79.77,93.836c-6.209-5.294-11.347-11.48-11.618-20.354C68.471,63.781,73.669,56.231,79.323,49.665L79.323,49.665z"/>
	<path id="_243109448" fill="#373435" d="M202.047,61.925c0.468,0,0.892,0.19,1.273,0.57l3.334,3.642
		c-2.574,2.984-5.689,5.31-9.361,6.977c-3.671,1.668-8.103,2.501-13.281,2.501c-4.534,0-8.645-0.79-12.331-2.354
		c-3.686-1.565-6.831-3.76-9.434-6.582c-2.604-2.823-4.623-6.202-6.056-10.151s-2.15-8.293-2.15-13.033s0.775-9.083,2.311-13.033
		c1.536-3.949,3.686-7.343,6.465-10.18c2.779-2.838,6.114-5.047,9.99-6.612c3.876-1.565,8.147-2.34,12.829-2.34
		c4.622,0,8.615,0.717,11.965,2.15c3.349,1.434,6.319,3.379,8.922,5.836l-2.765,3.906c-0.205,0.292-0.438,0.526-0.702,0.717
		c-0.263,0.19-0.644,0.292-1.141,0.292c-0.38,0-0.775-0.146-1.199-0.424c-0.424-0.278-0.936-0.614-1.521-1.024
		s-1.273-0.848-2.063-1.316c-0.79-0.468-1.726-0.907-2.809-1.316c-1.082-0.41-2.34-0.761-3.773-1.039s-3.086-0.41-4.959-0.41
		c-3.364,0-6.436,0.571-9.229,1.726c-2.793,1.155-5.208,2.809-7.226,4.944c-2.019,2.135-3.584,4.739-4.71,7.811
		c-1.126,3.072-1.697,6.509-1.697,10.312c0,3.92,0.57,7.416,1.697,10.488c1.126,3.072,2.662,5.661,4.607,7.782
		c1.945,2.121,4.242,3.744,6.904,4.856s5.529,1.668,8.601,1.668c1.872,0,3.554-0.117,5.046-0.337
		c1.492-0.219,2.882-0.556,4.154-1.024c1.272-0.468,2.457-1.068,3.554-1.785c1.097-0.716,2.194-1.565,3.306-2.56
		C201.097,62.144,201.579,61.925,202.047,61.925L202.047,61.925z M225.305,30.462v44.451h-7.811V30.462H225.305z M227.06,16.508
		c0,0.761-0.146,1.463-0.453,2.121s-0.717,1.243-1.229,1.755c-0.512,0.512-1.111,0.922-1.785,1.214
		c-0.672,0.292-1.389,0.438-2.15,0.438c-0.76,0-1.462-0.146-2.121-0.438c-0.659-0.292-1.244-0.702-1.755-1.214
		c-0.512-0.512-0.921-1.097-1.214-1.755c-0.292-0.658-0.438-1.36-0.438-2.121s0.146-1.492,0.438-2.18
		c0.293-0.687,0.702-1.287,1.214-1.799c0.512-0.512,1.097-0.907,1.755-1.2s1.36-0.438,2.121-0.438s1.478,0.146,2.15,0.438
		c0.673,0.292,1.273,0.688,1.785,1.2c0.512,0.512,0.922,1.112,1.229,1.799C226.914,15.016,227.06,15.747,227.06,16.508z
		 M252.555,75.615c-3.511,0-6.202-0.979-8.088-2.939c-1.887-1.96-2.838-4.783-2.838-8.469V37h-5.354
		c-0.468,0-0.863-0.146-1.185-0.424c-0.322-0.278-0.483-0.702-0.483-1.288v-3.115l7.284-0.921l1.799-13.735
		c0.059-0.439,0.249-0.805,0.571-1.083s0.731-0.41,1.229-0.41h3.949V31.34h12.726V37h-12.726V63.68c0,1.873,0.454,3.262,1.36,4.169
		c0.907,0.907,2.077,1.36,3.511,1.36c0.819,0,1.536-0.116,2.135-0.337c0.6-0.219,1.112-0.453,1.55-0.717
		c0.439-0.263,0.819-0.511,1.126-0.731c0.307-0.219,0.57-0.322,0.804-0.322c0.41,0,0.776,0.249,1.097,0.746l2.282,3.73
		c-1.346,1.258-2.969,2.237-4.871,2.955C256.533,75.25,254.573,75.615,252.555,75.615L252.555,75.615z M271.819,74.913V30.462h4.476
		c0.849,0,1.434,0.161,1.755,0.483c0.322,0.322,0.541,0.877,0.658,1.667l0.527,6.933c1.521-3.101,3.408-5.529,5.646-7.27
		c2.237-1.741,4.856-2.604,7.87-2.604c1.229,0,2.34,0.132,3.334,0.41c0.995,0.277,1.916,0.672,2.765,1.17l-1.009,5.836
		c-0.205,0.731-0.658,1.097-1.361,1.097c-0.408,0-1.037-0.146-1.887-0.424c-0.848-0.278-2.033-0.409-3.554-0.409
		c-2.721,0-4.987,0.79-6.816,2.37c-1.828,1.579-3.364,3.876-4.593,6.889v28.303H271.819L271.819,74.913z M313.944,30.462v28.347
		c0,3.364,0.775,5.968,2.326,7.811c1.551,1.844,3.891,2.765,7.021,2.765c2.281,0,4.432-0.542,6.451-1.624
		c2.018-1.083,3.875-2.589,5.572-4.52V30.462h7.811v44.451h-4.652c-1.111,0-1.813-0.541-2.105-1.623l-0.613-4.783
		c-1.932,2.136-4.096,3.848-6.496,5.148c-2.398,1.303-5.148,1.961-8.248,1.961c-2.43,0-4.564-0.41-6.422-1.215
		s-3.424-1.93-4.682-3.393s-2.193-3.233-2.822-5.31c-0.629-2.078-0.951-4.374-0.951-6.89V30.462H313.944L313.944,30.462z
		 M381.434,37.79c-0.352,0.644-0.893,0.965-1.625,0.965c-0.438,0-0.936-0.161-1.49-0.482c-0.557-0.322-1.23-0.688-2.033-1.083
		c-0.805-0.395-1.771-0.76-2.883-1.097c-1.111-0.337-2.428-0.498-3.949-0.498c-1.316,0-2.5,0.161-3.555,0.498
		c-1.053,0.336-1.945,0.804-2.689,1.389c-0.748,0.585-1.318,1.258-1.713,2.034c-0.395,0.775-0.6,1.623-0.6,2.53
		c0,1.141,0.338,2.092,0.994,2.852c0.658,0.76,1.521,1.419,2.605,1.975c1.082,0.556,2.311,1.039,3.686,1.463s2.793,0.877,4.242,1.36
		c1.447,0.482,2.852,1.024,4.227,1.609s2.604,1.316,3.686,2.194s1.961,1.945,2.619,3.218c0.658,1.273,0.979,2.809,0.979,4.593
		c0,2.048-0.365,3.935-1.096,5.675c-0.732,1.741-1.814,3.248-3.248,4.519c-1.434,1.273-3.188,2.282-5.266,3.014
		c-2.076,0.731-4.475,1.097-7.195,1.097c-3.102,0-5.91-0.511-8.426-1.521s-4.652-2.297-6.406-3.877l1.842-2.983
		c0.234-0.38,0.512-0.673,0.834-0.878c0.322-0.205,0.746-0.307,1.273-0.307c0.525,0,1.082,0.205,1.666,0.615
		c0.586,0.409,1.303,0.863,2.137,1.36c0.834,0.497,1.842,0.95,3.027,1.36c1.186,0.409,2.662,0.614,4.447,0.614
		c1.52,0,2.852-0.205,3.992-0.6s2.092-0.922,2.854-1.595c0.76-0.673,1.33-1.448,1.695-2.326s0.541-1.813,0.541-2.808
		c0-1.229-0.32-2.253-0.98-3.057c-0.656-0.805-1.535-1.492-2.617-2.063s-2.311-1.068-3.701-1.492
		c-1.389-0.425-2.809-0.863-4.256-1.332c-1.447-0.468-2.867-1.009-4.256-1.608c-1.391-0.6-2.633-1.346-3.717-2.253
		c-1.082-0.907-1.945-2.033-2.604-3.364s-0.994-2.94-0.994-4.842c0-1.696,0.352-3.334,1.053-4.9c0.703-1.565,1.727-2.94,3.072-4.125
		c1.346-1.185,2.998-2.121,4.959-2.823c1.959-0.702,4.197-1.053,6.713-1.053c2.926,0,5.559,0.454,7.885,1.375
		s4.33,2.194,6.025,3.803L381.434,37.79L381.434,37.79z"/>
	<path id="_84709616" fill="#373435" d="M393.588,74.913V9.706h10.84V35.42c1.783-1.902,3.803-3.423,6.055-4.549
		c2.252-1.126,4.885-1.682,7.898-1.682c2.457,0,4.709,0.497,6.742,1.506c2.033,1.01,3.789,2.487,5.268,4.418
		c1.477,1.931,2.617,4.315,3.422,7.152c0.805,2.838,1.199,6.1,1.199,9.786c0,3.364-0.453,6.479-1.359,9.346
		c-0.908,2.867-2.195,5.354-3.877,7.46c-1.682,2.105-3.715,3.744-6.1,4.929s-5.061,1.784-8.016,1.784
		c-1.375,0-2.633-0.146-3.773-0.424s-2.18-0.658-3.115-1.156c-0.938-0.497-1.799-1.111-2.604-1.828s-1.58-1.506-2.313-2.384
		l-0.482,3.028c-0.176,0.76-0.467,1.301-0.893,1.623c-0.424,0.322-1.008,0.482-1.74,0.482H393.588L393.588,74.913z M414.651,37.614
		c-2.252,0-4.168,0.468-5.762,1.419c-1.596,0.951-3.088,2.296-4.461,4.022v20.185c1.229,1.521,2.572,2.574,4.021,3.174
		c1.447,0.6,3.014,0.907,4.709,0.907c1.639,0,3.117-0.307,4.434-0.921s2.441-1.551,3.363-2.808c0.922-1.258,1.623-2.853,2.121-4.769
		c0.498-1.916,0.746-4.168,0.746-6.772c0-2.633-0.205-4.871-0.629-6.699c-0.424-1.829-1.039-3.306-1.828-4.447
		c-0.791-1.141-1.74-1.975-2.867-2.501C417.372,37.877,416.084,37.614,414.651,37.614z M453.399,29.891v28.611
		c0,2.75,0.643,4.871,1.916,6.377c1.271,1.507,3.174,2.267,5.719,2.267c1.873,0,3.627-0.424,5.266-1.258
		c1.639-0.833,3.189-1.975,4.652-3.438v-32.56h10.838v45.022h-6.627c-1.402,0-2.324-0.658-2.764-1.975l-0.746-3.599
		c-0.936,0.937-1.9,1.785-2.896,2.56c-0.994,0.775-2.047,1.434-3.174,1.975c-1.127,0.542-2.34,0.966-3.643,1.273
		c-1.301,0.307-2.705,0.468-4.197,0.468c-2.457,0-4.623-0.425-6.51-1.258c-1.887-0.834-3.48-2.004-4.768-3.525
		c-1.287-1.521-2.252-3.335-2.91-5.427c-0.658-2.091-0.996-4.388-0.996-6.903V29.891H453.399L453.399,29.891z M508.952,29.101
		c1.932,0,3.744,0.19,5.441,0.585s3.248,0.98,4.652,1.741h12.943v4.037c0,0.672-0.176,1.199-0.525,1.579
		c-0.352,0.381-0.951,0.644-1.799,0.79l-4.037,0.746c0.293,0.761,0.525,1.565,0.688,2.414c0.16,0.849,0.232,1.74,0.232,2.677
		c0,2.223-0.438,4.228-1.33,6.026c-0.893,1.799-2.121,3.335-3.686,4.593c-1.566,1.258-3.424,2.224-5.574,2.911
		c-2.148,0.688-4.49,1.039-7.006,1.039c-1.697,0-3.35-0.161-4.959-0.482c-1.404,0.863-2.105,1.814-2.105,2.881
		c0,0.907,0.424,1.58,1.258,2.019c0.834,0.424,1.932,0.731,3.291,0.907c1.361,0.175,2.896,0.263,4.623,0.263
		c1.725,0,3.494,0.073,5.309,0.219s3.584,0.41,5.311,0.775c1.725,0.366,3.275,0.936,4.637,1.741c1.359,0.79,2.457,1.857,3.291,3.232
		c0.834,1.359,1.242,3.115,1.242,5.251c0,1.989-0.482,3.935-1.463,5.808c-0.979,1.887-2.398,3.553-4.256,5.016
		s-4.139,2.648-6.83,3.541c-2.691,0.892-5.764,1.345-9.215,1.345c-3.424,0-6.393-0.336-8.908-0.995
		c-2.516-0.657-4.594-1.535-6.246-2.633c-1.652-1.096-2.896-2.354-3.715-3.787c-0.82-1.434-1.23-2.926-1.23-4.477
		c0-2.106,0.645-3.876,1.932-5.31c1.287-1.433,3.072-2.574,5.354-3.423c-1.111-0.614-2.004-1.434-2.676-2.457
		c-0.674-1.024-1.01-2.355-1.01-3.993c0-0.673,0.117-1.375,0.352-2.092c0.232-0.717,0.6-1.419,1.082-2.121
		c0.482-0.703,1.082-1.375,1.813-2.004c0.732-0.629,1.596-1.185,2.59-1.682c-2.281-1.229-4.066-2.867-5.369-4.915
		c-1.301-2.048-1.959-4.446-1.959-7.196c0-2.223,0.453-4.242,1.346-6.041s2.135-3.335,3.73-4.607c1.594-1.273,3.48-2.238,5.66-2.911
		C504.008,29.438,506.377,29.101,508.952,29.101L508.952,29.101z M520.844,76.8c0-0.892-0.264-1.623-0.791-2.193
		c-0.525-0.57-1.242-1.01-2.15-1.316c-0.906-0.322-1.959-0.541-3.174-0.703c-1.213-0.146-2.5-0.219-3.861-0.219
		c-1.359,0-2.764,0-4.213,0c-1.447,0-2.852-0.16-4.197-0.482c-1.229,0.672-2.209,1.463-2.955,2.385
		c-0.746,0.92-1.125,1.988-1.125,3.188c0,0.79,0.203,1.521,0.6,2.209c0.395,0.688,1.023,1.287,1.887,1.785
		c0.861,0.496,1.975,0.877,3.35,1.154c1.373,0.279,3.057,0.425,5.045,0.425c2.02,0,3.76-0.161,5.223-0.468
		c1.463-0.322,2.676-0.746,3.627-1.302s1.639-1.215,2.078-1.975C520.624,78.526,520.844,77.692,520.844,76.8L520.844,76.8z
		 M508.952,51.305c1.346,0,2.516-0.19,3.51-0.556c0.996-0.366,1.83-0.863,2.488-1.506s1.154-1.419,1.492-2.326
		c0.336-0.907,0.496-1.901,0.496-2.984c0-2.223-0.658-3.993-1.988-5.295c-1.332-1.302-3.336-1.945-5.998-1.945
		s-4.65,0.644-5.982,1.945c-1.33,1.302-2.004,3.072-2.004,5.295c0,1.053,0.176,2.033,0.512,2.94c0.336,0.907,0.834,1.682,1.492,2.34
		s1.492,1.17,2.502,1.536C506.479,51.115,507.635,51.305,508.952,51.305L508.952,51.305z"/>
	<text id="_243109752" transform="matrix(1 0 0 1 335.1255 121.625)" fill="#ED5C37" font-family="'Calibri'" font-size="41.9331">Techno</text>
	
		<text id="_243109752_1_" transform="matrix(1 0 0 1 456.563 121.625)" fill="#ED5C37" font-family="'Calibri-Bold'" font-size="41.9331">labs</text>
</g>
</svg>
