<?xml version="1.0" encoding="UTF-8"?>
<!DOCTYPE svg PUBLIC "-//W3C//DTD SVG 1.1//EN" "http://www.w3.org/Graphics/SVG/1.1/DTD/svg11.dtd">
<!-- Creator: CorelDRAW -->
<svg xmlns="http://www.w3.org/2000/svg" xml:space="preserve" width="8.26772in" height="11.6929in" style="shape-rendering:geometricPrecision; text-rendering:geometricPrecision; image-rendering:optimizeQuality; fill-rule:evenodd; clip-rule:evenodd"
viewBox="0 0 8.26772 11.6929"
 xmlns:xlink="http://www.w3.org/1999/xlink"
 version="1.1">
 <defs>
  <style type="text/css">
   <![CDATA[
    .fil1 {fill:black}
    .fil2 {fill:#303C42}
    .fil3 {fill:#82B1FF}
    .fil0 {fill:#8CC84B}
    .fil4 {fill:white;fill-opacity:0.200000}
    .fil5 {fill:url(#id2)}
   ]]>
  </style>
    <mask id="id0">
  <linearGradient id="id1" gradientUnits="userSpaceOnUse" x1="5.57483" y1="3.75047" x2="7.71744" y2="2.67916">
   <stop offset="0" style="stop-opacity:0.2; stop-color:white"/>
   <stop offset="1" style="stop-opacity:0; stop-color:white"/>
  </linearGradient>
     <rect style="fill:url(#id1)" x="5.57333" y="2.67766" width="2.14561" height="1.07431"/>
    </mask>
  <linearGradient id="id2" gradientUnits="userSpaceOnUse" x1="5.57483" y1="3.75047" x2="7.71744" y2="2.67916">
   <stop offset="0" style="stop-color:white"/>
   <stop offset="1" style="stop-color:white"/>
  </linearGradient>
 </defs>
 <g id="Layer_x0020_1">
  <metadata id="CorelCorpID_0Corel-Layer"/>
  <path class="fil0" d="M6.85913 2.80756c-0.00312598,0.011752 -0.0137717,0.019937 -0.0259291,0.019937 -0.00106299,0 -0.00212992,-6.69291e-005 -0.00318504,-0.000188976 -0.037,-5.11811e-005 -0.0740079,0.000503937 -0.111008,-0.000251969 -0.0245709,0.0190315 -0.0389764,0.0484173 -0.0389764,0.0795118 0,0.011189 0.00187795,0.022315 0.00552756,0.032874 0.0118898,0.028248 0.0444961,0.0373622 0.0711732,0.0457638 0.153689,0.0401929 0.316539,0.0361929 0.467291,0.0890906 0.108949,0.0148622 0.190197,0.108012 0.190197,0.217972 0,0.0273425 -0.00510236,0.0545236 -0.0150394,0.0799882 0.00140945,-0.0125709 0.0120433,-0.022063 0.024689,-0.022063 0.00084252,0 0.00168898,4.33071e-005 0.00252756,0.000125984 0.0372598,-0.00030315 0.0745197,-0.000401575 0.11178,5.11811e-005 0.0224646,-0.021937 0.0351339,-0.0520157 0.0351339,-0.0834173 0,-0.00940945 -0.00115354,-0.0188189 -0.00340157,-0.0279449 -0.00905512,-0.0329094 -0.0434803,-0.0482441 -0.0730433,-0.0582717 -0.151713,-0.0479921 -0.31639,-0.0305787 -0.466634,-0.0848504 0.0709921,-0.0626142 0.161516,-0.0990354 0.256126,-0.102913l-0.427228 -0.185413z"/>
  <g id="_208098680">
   <g>
    <g>
     <path id="_338423072" class="fil1" d="M3.78713 3.95575c-0.00946457,-0.118732 -0.00494094,-0.241421 -0.00500787,-0.360602 -6.29921e-005,-0.119996 -0.00912205,-0.23885 -0.0119173,-0.358606 -0.00324016,-0.138571 -0.00138976,-0.277898 0.000153543,-0.4165 0.00126772,-0.113957 -0.0193425,-0.227783 -0.0257953,-0.341406 -0.00533465,-0.0940157 -0.0209764,-0.162602 -0.122846,-0.18322 -0.126835,-0.0256693 -0.249476,0.0130433 -0.374327,-0.000106299 -0.0306496,-0.00322835 -0.0748701,0.000937008 -0.103051,-0.00945669 -0.0446732,-0.0164882 -0.0211654,-0.0644685 -0.0187323,-0.109839 0.00137008,-0.025563 0.000661417,-0.0685394 -0.0129055,-0.0918189 -0.0176732,-0.0303189 -0.0535197,-0.0321614 -0.0844567,-0.030622 -0.0402283,0.00199606 -0.0777008,0.00170079 -0.117909,-0.00120472 -0.106157,-0.0076811 -0.213594,0.00251181 -0.319394,-0.00661417 -0.0946102,-0.00815748 -0.191209,-0.00901969 -0.286193,-0.00943701 -0.212366,-0.000933071 -0.423717,-0.0302874 -0.636091,-0.014689 -0.0420827,0.00309055 -0.174079,-0.0102835 -0.197398,0.0401496 -0.0120669,0.0261024 -0.00135827,0.0596417 -0.00102756,0.0862717 0.000602362,0.0483819 -0.00479921,0.0937717 0.0038937,0.141169 -0.0131457,0.000925197 -0.0264921,0.00208661 -0.040248,0.00352756 -0.0454331,0.00474409 -0.114476,-0.00415748 -0.137409,0.0460906 -0.0152874,0.0334921 -0.0216575,0.104618 0.0031378,0.134622 0.0373307,0.0451732 0.115965,0.0299173 0.167118,0.0259882 0.000385827,0.00460236 0.000775591,0.00928346 0.000956693,0.0142992 0.000586614,0.0163071 -0.00192126,0.0319016 0.000330709,0.0482559 0.00101181,0.00731102 0.00258661,0.0159252 0.00525984,0.0240315 -0.0128701,0.00092126 -0.0259331,0.00205512 -0.0393937,0.00345669 -0.0454331,0.00474803 -0.114476,-0.00415748 -0.137409,0.0460945 -0.0152874,0.0334921 -0.0216575,0.104618 0.0031378,0.134622 0.0385039,0.0465984 0.121063,0.0288583 0.171961,0.0256142 0.00222835,-0.000141732 0.00455512,-0.000240157 0.00684646,-0.000358268 -3.14961e-005,0.00642126 0.000472441,0.013063 0.000681102,0.0195984 0.000712598,0.0220787 0.00479134,0.0438189 0.00353937,0.0658661 -2.3622e-005,0.000433071 6.69291e-005,0.000795276 5.51181e-005,0.00121654 -0.0158937,0.000984252 -0.0320591,0.00234646 -0.048811,0.00409449 -0.045437,0.00474409 -0.114476,-0.00415748 -0.137409,0.0460906 -0.0152874,0.0334921 -0.0216575,0.104614 0.0031378,0.134622 0.0385039,0.0465984 0.121059,0.0288622 0.171976,0.0256142 -0.00166929,0.0271772 0.00204724,0.0540945 0.00292913,0.0818425 5.51181e-005,0.00167717 0.000283465,0.00333858 0.000622047,0.00497638 -0.0134685,0.000933071 -0.0271535,0.00212598 -0.0412638,0.00359843 -0.0454331,0.00474803 -0.114472,-0.00415748 -0.137409,0.0460906 -0.0152835,0.0334961 -0.0216575,0.104622 0.00314173,0.134622 0.0370669,0.0448622 0.114878,0.030126 0.166055,0.0260669 -0.00240551,0.0215433 -0.00368898,0.0440512 -0.00283071,0.0654016 0.00030315,0.00752756 0.000948819,0.0148543 0.00255512,0.0217047 -0.0103386,0.000811024 -0.0207795,0.00173228 -0.0315157,0.00285433 -0.0454331,0.00474409 -0.114476,-0.00415748 -0.137409,0.0460906 -0.0152835,0.0334961 -0.0216575,0.104622 0.0031378,0.134622 0.0363031,0.043937 0.111732,0.030689 0.162909,0.026311 -0.000925197,0.0181614 0.0015748,0.0373465 0.000688976,0.0548504 -0.000566929,0.0112323 -0.000322835,0.0217402 0.000385827,0.0321535 -0.00975591,0.000787402 -0.0196024,0.00166142 -0.0297126,0.00272047 -0.0454331,0.00474409 -0.114476,-0.00416142 -0.137409,0.0460906 -0.0152835,0.0334921 -0.0216575,0.104618 0.0031378,0.134622 0.0364449,0.0441063 0.112307,0.0305866 0.163492,0.0262638 -0.0105669,0.067252 -0.0178268,0.161177 0.0619528,0.177815 0.0476969,0.00994882 0.105205,0.00744882 0.154071,0.0104252 0.0653228,0.00397638 0.131819,0.00940157 0.197339,0.00872047 0.129394,-0.00134252 0.26063,0.00653937 0.389535,-0.00259843 0.125413,-0.00888583 0.256689,0.00167323 0.380972,-0.0172795 -0.000633858,0.0242559 -0.00161024,0.0485276 -0.0032126,0.0731181 -0.00251181,0.0384961 -0.00479921,0.0865984 0.0260591,0.114724 0.0254921,0.0232362 0.0601654,0.0249646 0.092622,0.0295748 0.0565236,0.00803937 0.112831,0.0175669 0.169421,0.0254528 0.110898,0.0154528 0.223484,0.0152283 0.335177,0.0211181 0.108835,0.00574016 0.219638,0.0109803 0.328134,-0.00105512 0.0888898,-0.00985827 0.141571,-0.0365079 0.164756,-0.127921 0.0276299,-0.108941 0.0360945,-0.228354 0.0272165,-0.339791zm-2.31557 -1.51313c-0.0382008,0.0024685 -0.118547,0.0236181 -0.130394,-0.022752 -0.0127126,-0.0497913 0.0252913,-0.0664291 0.0652756,-0.0693543 0.0681142,-0.00497244 0.138551,-0.0115906 0.206291,-0.0212008 0.0401654,0.0056811 0.0360472,0.0724764 0.00670079,0.0941024 -0.0328504,0.0242165 -0.108016,0.016626 -0.147874,0.0192047zm0 0.296744c-0.0382008,0.0024685 -0.118547,0.023622 -0.130394,-0.022748 -0.0127126,-0.0497953 0.0252913,-0.0664291 0.0652756,-0.0693543 0.0681142,-0.00497638 0.138551,-0.0115906 0.206291,-0.0212008 0.0401654,0.00568504 0.0360472,0.0724724 0.00670079,0.0940984 -0.0328504,0.0242205 -0.108016,0.0166299 -0.147874,0.0192047zm0 0.296744c-0.0382008,0.0024685 -0.118547,0.023622 -0.130394,-0.022748 -0.0127126,-0.0497913 0.0252913,-0.0664252 0.0652756,-0.0693504 0.0681142,-0.00497244 0.138551,-0.0115906 0.206291,-0.0212008 0.0401654,0.0056811 0.0360472,0.0724764 0.00670079,0.0941024 -0.0328504,0.0242126 -0.108016,0.016622 -0.147874,0.0191969zm-0.13039 0.273996c-0.0127165,-0.0497913 0.0252913,-0.0664291 0.0652717,-0.0693465 0.0681142,-0.00497638 0.138551,-0.0115945 0.206295,-0.0212008 0.0401614,0.0056811 0.0360433,0.0724724 0.00669685,0.0940984 -0.0328543,0.0242205 -0.10802,0.0166299 -0.147874,0.0192047 -0.0382008,0.00246457 -0.118547,0.0236181 -0.13039,-0.0227559zm0 0.296748c-0.0127165,-0.0497913 0.0252913,-0.0664291 0.0652717,-0.0693543 0.0681142,-0.00497638 0.138551,-0.0115906 0.206295,-0.0212008 0.0401614,0.0056811 0.0360433,0.0724724 0.00669685,0.0940984 -0.0328543,0.0242205 -0.10802,0.0166299 -0.147874,0.0192047 -0.0382008,0.0024685 -0.118547,0.023622 -0.13039,-0.022748zm0.13039 0.319492c-0.0382008,0.0024685 -0.118547,0.023622 -0.130394,-0.022748 -0.0127126,-0.0497913 0.0252913,-0.0664291 0.0652756,-0.0693504 0.0245866,-0.00179528 0.0494921,-0.00390551 0.0744488,-0.00618898 0.00795276,0.00320866 0.0179449,0.00212598 0.0258661,-0.00240157 0.0355866,-0.00353937 0.0711378,-0.00766929 0.105976,-0.0126102 0.0401654,0.0056811 0.0360472,0.0724764 0.00670079,0.0941024 -0.0328504,0.0242126 -0.108016,0.016622 -0.147874,0.0191969zm1.20291 -1.44169c-0.00527953,0.0609134 -0.00598425,0.120756 -0.00308661,0.181815 0.00557874,0.117516 -0.00651969,0.237126 -0.00695669,0.354894 -0.000437008,0.118862 -0.00519291,0.237433 -0.0078189,0.356157 -0.00511024,0.230878 -0.00950394,0.463134 -0.00873622,0.694083 3.93701e-005,0.0127677 1.9685e-005,0.0254291 -6.29921e-005,0.0380512 -0.100354,-0.0150866 -0.20698,0.00473622 -0.308063,0.0076063 -0.10663,0.0030315 -0.213012,0.00475591 -0.319909,0.00490157 -0.106921,0.000145669 -0.212012,-0.00234252 -0.318697,-0.00751181 -0.0443425,-0.00215354 -0.0946063,-0.000417323 -0.138472,-0.00788583 -0.0397205,-0.00676378 -0.0457795,-0.0119252 -0.0499055,-0.0519764 -0.00251575,-0.0245 -0.00241339,-0.0489724 -0.00427165,-0.0733504 0.0539016,-0.00127559 0.116543,-0.00238583 0.157862,-0.0328898 0.0376969,-0.0278268 0.0391102,-0.10678 0.0272165,-0.146854 -0.0122953,-0.0414252 -0.0507874,-0.0478071 -0.0887953,-0.0434882 -0.0279488,0.00318504 -0.0552913,0.00755906 -0.0824488,0.0125551 -0.000598425,7.87402e-006 -0.00120472,3.93701e-005 -0.00180315,5.11811e-005 -0.000893701,-0.0102362 -0.00203543,-0.0203465 -0.00202756,-0.0292165 1.9685e-005,-0.019378 -0.000748031,-0.0384291 -0.00504724,-0.0570236 0.052752,-0.00124803 0.112843,-0.00319291 0.152906,-0.0327677 0.0376969,-0.0278268 0.0391102,-0.10678 0.0272126,-0.146858 -0.0122913,-0.0414173 -0.0507874,-0.0478031 -0.0887913,-0.0434803 -0.0279488,0.0031811 -0.0552913,0.00755906 -0.0824488,0.0125512 -0.000145669,0 -0.000299213,1.1811e-005 -0.000444882,1.5748e-005 -0.000137795,-0.000929134 -0.000216535,-0.00184646 -0.000440945,-0.00279921 -0.00633465,-0.0270866 -0.00370472,-0.0556063 -0.00616535,-0.0834449 0.052311,-0.00125984 0.111476,-0.00349213 0.151083,-0.0327244 0.0376969,-0.0278307 0.0391102,-0.106783 0.0272165,-0.146858 -0.0122953,-0.0414173 -0.0507874,-0.0478031 -0.0887953,-0.0434803 -0.0256575,0.00291732 -0.0507756,0.00691732 -0.0757362,0.0114094 0.00141732,-0.00699213 0.00165354,-0.0144803 0.000917323,-0.0212677 -0.00177559,-0.0164055 -0.00647244,-0.0311339 -0.00666929,-0.0478898 -6.29921e-005,-0.00547638 -2.3622e-005,-0.0108228 -2.75591e-005,-0.0161417 0.0502559,-0.00135039 0.1055,-0.00475984 0.143098,-0.0325157 0.0376969,-0.0278268 0.0391102,-0.10678 0.0272165,-0.146854 -0.0122953,-0.0414252 -0.0507874,-0.0478071 -0.0887913,-0.0434882 -0.0222913,0.00253937 -0.0441378,0.00597244 -0.0658622,0.00973228 -3.93701e-005,-0.025563 -0.00444488,-0.0520433 -0.00870079,-0.0771496 -0.000318898,-0.00188583 -0.000751969,-0.00415354 -0.00131496,-0.00662992 0.0487165,-0.00148031 0.10126,-0.0056378 0.137453,-0.0323543 0.0376969,-0.0278268 0.0391102,-0.10678 0.0272165,-0.146858 -0.0122953,-0.0414173 -0.0507874,-0.0478031 -0.0887913,-0.0434803 -0.0263622,0.00299606 -0.0521654,0.00711811 -0.0778031,0.0117598 0.000523622,-0.0169094 -0.0043622,-0.0334213 -0.00402362,-0.0508661 0.000232283,-0.0120709 -0.000791339,-0.0234134 -0.00257087,-0.0347047 0.0510118,-0.00130315 0.107661,-0.0043189 0.145969,-0.0325984 0.0376969,-0.0278268 0.0391142,-0.10678 0.0272165,-0.146854 -0.0122953,-0.0414213 -0.0507874,-0.0478071 -0.0887913,-0.0434803 -0.0279528,0.00317717 -0.0552953,0.00755512 -0.0824528,0.0125512 -0.00230709,3.54331e-005 -0.00464173,0.000145669 -0.00695276,0.000200787 0.00532677,-0.0326417 0.0051811,-0.0654843 0.00790157,-0.0986772 0.00080315,-0.00984252 -0.00405512,-0.0811457 -6.69291e-005,-0.0994685 0.0025,0.00302756 0.0189606,-0.00046063 0.0222205,-0.000330709 0.0172835,0.00065748 0.0361654,-0.00416929 0.0536496,-0.00516142 0.0457559,-0.00259843 0.0916299,-0.00638583 0.137461,-0.00783858 0.174323,-0.00551575 0.348248,0.0133661 0.522374,0.0188504 0.170004,0.00535827 0.339697,0.0132756 0.509709,0.0131772 0.0750906,-4.72441e-005 0.149807,0.0104213 0.224783,0.00832677 0.0337992,-0.000948819 0.0667087,-0.0152441 0.0704764,0.0276732 0.00285433,0.0325748 0.0117087,0.0908898 -0.00384252,0.120654 -0.0223858,0.0428346 -0.110315,0.0185787 -0.15626,0.0162874 -0.0744134,-0.0037126 -0.173228,-0.0112835 -0.207469,0.0691575 -0.0177913,0.0417913 -0.0179764,0.0902047 -0.0218425,0.13476zm1.04609 1.68616c-0.0059685,0.0480315 -0.00756693,0.131831 -0.0449094,0.168909 -0.0312756,0.0310591 -0.0981969,0.0250787 -0.137693,0.025563 -0.0516299,0.000641732 -0.102654,0.00711024 -0.15428,0.00488976 -0.0998031,-0.00428346 -0.19952,-0.00966535 -0.299252,-0.0149488 -0.0994882,-0.00527165 -0.195764,-0.0177323 -0.294201,-0.0333898 -0.014811,-0.00235433 -0.036311,-0.00130709 -0.0499173,-0.00697244 -0.0321575,-0.0133898 -0.0388858,-0.0487362 -0.0369882,-0.0812244 0.0027874,-0.0477323 0.00471654,-0.0935551 0.0039685,-0.141626 -0.0015,-0.0960079 0.00387008,-0.191961 0.00379528,-0.288079 -7.87402e-005,-0.106394 -0.00578346,-0.214354 0.00176772,-0.320453 0.0144016,-0.202386 0.0135394,-0.409606 0.0141024,-0.612618 0.000295276,-0.106992 -0.00324803,-0.215185 0.00119685,-0.321961 0.00201969,-0.0484409 -0.00444882,-0.150035 0.0266969,-0.187953 0.0313307,-0.038126 0.138547,-0.0228583 0.181264,-0.0188543 0.0529213,0.00495669 0.105815,-0.0028622 0.158654,0.000751969 0.0497598,0.00340945 0.0993425,0.00926378 0.149409,0.00903543 0.11661,-0.000515748 0.231193,0.0050315 0.347732,-0.000952756 0.000492126,-2.75591e-005 0.000909449,-0.000145669 0.00137795,-0.000200787 0.0287362,0.00201575 0.0621142,0.00611811 0.0748976,0.0228425 0.021811,0.0285315 0.0154331,0.0892047 0.0182677,0.125142 0.0073622,0.0933425 0.0234173,0.188559 0.0246378,0.282142 0.00133465,0.102299 -0.000338583,0.204827 -0.00061811,0.307154 -0.000291339,0.106362 0.00562992,0.211173 0.00997638,0.317303 0.00432677,0.10574 0.000417323,0.211602 0.0022126,0.317374 0.00168504,0.0992126 0.0077874,0.198429 0.00932283,0.297461 0.000775591,0.0503071 -0.00522441,0.100815 -0.0114213,0.150665z"/>
    </g>
   </g>
   <g>
    <g>
     <path id="_338423504" class="fil1" d="M3.64596 3.60367c-0.0152008,-0.3175 -0.0169921,-0.63489 -0.0284252,-0.952378 -0.00212205,-0.0589606 0.0153701,-0.164504 -0.0410591,-0.204193 -0.0621142,-0.043685 -0.172457,-0.0225118 -0.243343,-0.0231614 -0.11376,-0.00104724 -0.228157,-0.00123622 -0.342535,0.000574803 -0.0378543,0.000598425 -0.0757677,0.0013189 -0.113335,0.00640945 -0.0400197,0.00542126 -0.0524134,0.0015748 -0.052752,0.0450315 -0.0021811,0.0206614 -0.00139764,0.0420591 -0.000275591,0.0631811 -4.33071e-005,0.0454882 0.000370079,0.0909252 0.00142126,0.136406 -0.000795276,0.0333425 -0.00216929,0.0666654 -0.00406693,0.0997441 -0.00346457,0.0604843 -0.00730709,0.121287 -0.00249606,0.182165 0.00182283,0.0231102 0.00553543,0.0489724 0.00864961,0.0754134 0.000866142,0.0404843 0.000814961,0.0809724 0.000322835,0.121465 -9.44882e-005,0.000397638 -0.000145669,0.000826772 -0.000240157,0.00122835 -0.00080315,0.00352362 -0.000633858,0.00669685 0.000133858,0.00954724 -0.00148425,0.104339 -0.00572441,0.208685 -0.00498819,0.313008 0.00057874,0.0827362 -0.00147638,0.165091 -0.00548031,0.247496 -0.00194882,0.0401654 -0.00254331,0.0804173 -0.00442126,0.120594 -0.00166142,0.0355709 -0.00628346,0.0815197 0.0065,0.115791 0.0177126,0.0474961 0.0699331,0.0676654 0.116028,0.0764921 0.0710591,0.0135984 0.141925,0.0136339 0.213528,0.0145512 0.0809646,0.0010315 0.161524,-0.00796063 0.242429,-0.00605906 0.0362165,0.000850394 0.0703622,-0.0025 0.106394,-0.0048937 0.0285197,-0.0018937 0.0642126,0.00461024 0.0905945,-0.00940157 0.0485039,-0.0257677 0.0459488,-0.0991535 0.0504252,-0.14585 0.00889764,-0.0928543 0.011437,-0.190362 0.00699213,-0.283161zm-0.0599882 0.304102c-0.00542126,0.0516654 -0.0132638,0.0798071 -0.0671339,0.0814213 -0.0298661,0.000901575 -0.0594646,0.00718504 -0.0893425,0.00814173 -0.0738976,0.00235433 -0.147878,-0.00174409 -0.221429,0.00283071 -0.0345472,0.00214567 -0.0677126,0.00227559 -0.102177,-0.000740157 -0.025063,-0.00218898 -0.0485984,0.0035315 -0.0737913,0.00243307 -0.0282598,-0.00122835 -0.0727835,-0.00797638 -0.100343,-0.0150669 -0.061937,-0.0159331 -0.0696142,-0.0622756 -0.0687913,-0.119484 0.00207874,-0.144209 0.00752756,-0.287449 0.00511417,-0.432098 -0.0016811,-0.101189 0.00164173,-0.202173 0.00248425,-0.303228 0.00312205,-0.0294094 0.000917323,-0.0595906 -0.000224409,-0.0892874 -0.000149606,-0.0117047 -0.000255906,-0.0234094 -0.00053937,-0.0351181 0.000452756,-0.0695315 -0.00582283,-0.138949 -0.000984252,-0.208705 0.00388583,-0.0560118 0.00529528,-0.11272 0.00578346,-0.168945 0.000330709,-0.0378937 -0.0242913,-0.121528 0.0200354,-0.141941 0.0142323,-0.00655118 0.0304646,-0.00669291 0.0461299,-0.00671654 0.161197,-0.000255906 0.322094,-0.00258268 0.483232,-0.00494882 0.0489173,-0.000720472 0.110531,-0.0101181 0.137146,0.043937 0.00869291,0.0176496 0.000669291,0.0521535 0.00111024,0.0718858 0.000437008,0.0197992 0.0032874,0.0393543 0.0040315,0.0591417 0.0102677,0.271669 0.00936614,0.543417 0.0228819,0.814933 0.00731496,0.146752 0.012189,0.294949 -0.00319291,0.441555z"/>
    </g>
   </g>
   <g>
    <g>
     <path id="_338423936" class="fil1" d="M3.33615 4.1364c-0.00864567,-0.0168583 -0.0212835,-0.0320315 -0.0379173,-0.0437953 -0.0696102,-0.0492283 -0.180539,0.0445039 -0.170736,0.121724 0.0091063,0.0717047 0.0854921,0.109205 0.1495,0.0867953 0.0702087,-0.0245866 0.089689,-0.105142 0.0591535,-0.164724zm-0.0632126 0.116323c-0.0368504,0.020122 -0.0812835,0.0115906 -0.100571,-0.0287283 -0.0136614,-0.0285748 0.0018622,-0.0640472 0.0270591,-0.084685 0.00367717,-0.000889764 0.00738583,-0.0023937 0.0123268,-0.00484252 0.0096378,-0.00477559 0.0174252,-0.00925591 0.0246496,-0.0117795 0.000877953,-0.000102362 0.00174409,-0.000311024 0.00262598,-0.000370079 0.00230315,-0.00015748 0.00431496,-0.000732283 0.00608268,-0.0015748 0.00900394,-0.000791339 0.0179488,0.00279921 0.0295906,0.0145039 0.0330433,0.0332323 0.0457362,0.0915354 -0.00176378,0.117476z"/>
    </g>
   </g>
   <g>
    <g>
     <path id="_338424368" class="fil1" d="M3.43687 2.90236c-0.0479567,-0.00705906 -0.0984331,-0.000358268 -0.146705,0.000251969 -0.0234843,0.000299213 -0.0469764,0.000133858 -0.0704449,0.00038189 -0.0410748,-0.00233858 -0.0824173,-0.00370472 -0.123516,-0.00456299 -0.0329252,-0.000685039 -0.0762717,-0.00879134 -0.107185,0.00616142 -0.0351457,0.017 -0.0596142,0.0789291 -0.0369724,0.114358 0.0260394,0.0407362 0.128831,0.0370512 0.169224,0.0409961 0.0896339,0.00875591 0.182646,0.00913386 0.272465,0.00227953 0.0621378,-0.00474016 0.108535,-0.0206378 0.116669,-0.0892677 0.00633858,-0.0534685 -0.0260276,-0.0636063 -0.0735354,-0.0705984zm0.036122 0.0737362c-0.0045315,0.0629606 -0.108839,0.0517835 -0.151535,0.0535 -0.0548858,0.0022126 -0.110705,-3.54331e-005 -0.165547,-0.00264961 -0.0270433,-0.00129528 -0.0538858,-0.00483465 -0.0807638,-0.0079252 -0.0231102,-0.00265748 -0.0645433,0.000925197 -0.0842913,-0.0135236 -0.0208189,-0.0275039 -0.0101929,-0.0517244 0.031878,-0.0726614 0.013315,0.000846457 0.0266496,0.00112992 0.0399921,0.000846457 0.0280512,0.000377953 0.0560079,0.000905512 0.0840512,0.00167717 0.101228,0.0027874 0.201559,0.00726772 0.302783,0.00320866 0.0148898,0.00568898 0.0249488,0.0163701 0.0234331,0.0375276z"/>
    </g>
   </g>
   <g>
    <g>
     <path id="_338424800" class="fil1" d="M3.43687 3.11589c-0.0479567,-0.00705906 -0.0984331,-0.000358268 -0.146705,0.000251969 -0.0234843,0.000299213 -0.0469764,0.000133858 -0.0704449,0.00038189 -0.0410748,-0.00233858 -0.0824173,-0.00370472 -0.123516,-0.00456299 -0.0329252,-0.000685039 -0.0762717,-0.00879134 -0.107185,0.00616142 -0.0351457,0.0169921 -0.0596142,0.0789291 -0.0369724,0.114358 0.0260394,0.0407362 0.128831,0.0370512 0.169224,0.0409961 0.0896339,0.00875591 0.182646,0.00913386 0.272465,0.00227953 0.0621378,-0.00474016 0.108535,-0.0206417 0.116669,-0.0892638 0.00633858,-0.0534724 -0.0260276,-0.0636102 -0.0735354,-0.0706024zm0.036122 0.0737362c-0.0045315,0.0629685 -0.108839,0.0517835 -0.151535,0.0535 -0.0548858,0.0022126 -0.110705,-3.54331e-005 -0.165547,-0.00264961 -0.0270433,-0.00129134 -0.0538858,-0.00482677 -0.0807638,-0.0079252 -0.0231102,-0.00265748 -0.0645433,0.000925197 -0.0842913,-0.0135236 -0.0208189,-0.0275039 -0.0101929,-0.0517244 0.031878,-0.0726614 0.013315,0.000846457 0.0266496,0.00112598 0.0399921,0.000846457 0.0280512,0.000377953 0.0560079,0.000909449 0.0840512,0.00167717 0.101228,0.0027874 0.201559,0.00726772 0.302783,0.0032126 0.0148898,0.00568504 0.0249488,0.0163661 0.0234331,0.0375236z"/>
    </g>
   </g>
   <g>
    <g>
     <path id="_338425232" class="fil1" d="M3.43687 3.32943c-0.0479567,-0.00705512 -0.0984331,-0.000354331 -0.146705,0.000255906 -0.0234843,0.000299213 -0.0469764,0.000133858 -0.0704449,0.00038189 -0.0410748,-0.00234252 -0.0824173,-0.00370866 -0.123516,-0.00456693 -0.0329252,-0.000685039 -0.0762717,-0.0087874 -0.107185,0.00616142 -0.0351457,0.0169961 -0.0596142,0.0789291 -0.0369724,0.114358 0.0260394,0.0407402 0.128831,0.0370512 0.169224,0.0409961 0.0896339,0.00875984 0.182646,0.00913386 0.272465,0.00228346 0.0621378,-0.00474016 0.108535,-0.0206378 0.116669,-0.0892677 0.00633858,-0.0534685 -0.0260276,-0.0636063 -0.0735354,-0.0706024zm0.036122 0.0737402c-0.0045315,0.0629606 -0.108839,0.0517795 -0.151535,0.0535 -0.0548858,0.0022126 -0.110705,-3.54331e-005 -0.165547,-0.00264961 -0.0270433,-0.00129134 -0.0538858,-0.00483071 -0.0807638,-0.0079252 -0.0231102,-0.00266142 -0.0645433,0.000925197 -0.0842913,-0.0135276 -0.0208189,-0.0275039 -0.0101929,-0.0517205 0.031878,-0.0726575 0.013315,0.000846457 0.0266496,0.00112992 0.0399921,0.000846457 0.0280512,0.000377953 0.0560079,0.000905512 0.0840512,0.00167323 0.101228,0.0027874 0.201559,0.00727165 0.302783,0.00320866 0.0148898,0.00569291 0.0249488,0.0163701 0.0234331,0.0375315z"/>
    </g>
   </g>
   <g>
    <g>
     <path id="_338425664" class="fil1" d="M3.22089 3.60017c-0.065063,0.00477165 -0.133748,0.0780669 -0.118945,0.142193 0.000212598,0.0180118 0.00620079,0.0367598 0.0199252,0.0555079 0.0550709,0.075248 0.176543,0.0518543 0.217728,-0.0258071 0.045811,-0.0863819 -0.0260984,-0.178685 -0.118709,-0.171894zm0.0789843 0.167874c-0.032378,0.0432638 -0.10685,0.057437 -0.146276,0.015815 -0.0253228,-0.0267402 -0.0267992,-0.0594567 -0.0147913,-0.0886378 0.00318898,-0.00593701 0.00721654,-0.0119055 0.0127362,-0.0180906 0.0212008,-0.0237638 0.0418386,-0.0434685 0.0754291,-0.0435787 0.0722165,-0.000232283 0.118425,0.0736654 0.0729016,0.134492z"/>
    </g>
   </g>
   <g>
    <g>
     <path id="_338426096" class="fil1" d="M2.35765 2.2709c-0.088437,-0.0298465 -0.196874,-0.0209331 -0.289004,-0.0205787 -0.0524961,0.00019685 -0.104929,-0.00302756 -0.157366,-0.00277165 -0.0229685,0.000110236 -0.0681969,-0.00149606 -0.0859409,0.0158189 -0.013689,0.0133543 -0.0136654,0.0321969 -0.0134646,0.0500039 0.000492126,0.0438898 0.00427165,0.0873858 0.00750787,0.131047 0.000161417,0.00715748 0.000389764,0.0142953 0.000476378,0.0214724 0.000374016,0.0310118 -0.00306693,0.0649567 0.0173622,0.0912677 0.0403031,0.0518976 0.156795,0.0409331 0.214039,0.0423504 0.0915,0.00227559 0.192205,0.00867717 0.282272,-0.0102913 0.0754646,-0.0158937 0.0911417,-0.0878976 0.0951063,-0.155937 0.00376378,-0.0645669 -0.00259843,-0.139299 -0.0709882,-0.162382zm0.0344606 0.150429c-0.000700787,0.029189 -0.00161811,0.0687795 -0.0163307,0.0939606 -0.0241535,0.0413583 -0.0782165,0.0445354 -0.121917,0.0460433 -0.0605157,0.00207874 -0.120823,0.00340157 -0.18139,0.00272047 -0.0573228,-0.000645669 -0.182063,0.011185 -0.216252,-0.0454291 -0.00452756,-0.00750787 -0.00616929,-0.0191772 -0.00656693,-0.0322008 0.000897638,-0.0018622 0.00148425,-0.004 0.00151969,-0.00655906 7.87402e-005,-0.00646457 -0.000366142,-0.0140827 -0.00105118,-0.0223701 0.000629921,-0.0145157 0.0013937,-0.0283465 0.000330709,-0.0380906 -0.0032874,-0.0301772 -0.00491339,-0.0598976 -0.00577559,-0.0898976 0.00225197,-0.0128268 0.00626378,-0.0236969 0.0131614,-0.0309921 0.0309134,-0.0326811 0.123327,-0.0105433 0.164776,-0.0105197 0.0664567,3.93701e-005 0.132508,0.000574803 0.198894,0.00298425 0.0355157,0.0012874 0.0743543,4.72441e-005 0.108748,0.0106732 0.0569409,0.0175945 0.0630472,0.0699213 0.0618543,0.119677z"/>
    </g>
   </g>
   <g>
    <g>
     <path id="_338426528" class="fil1" d="M2.1617 2.6208c-0.0026811,-0.0151299 -0.024252,-0.0101575 -0.0252953,0.0034252 -0.00444488,0.0581299 0.0126181,0.127937 -0.0543228,0.156484 -0.0456339,0.0194646 -0.0955787,0.00949606 -0.142858,0.0156181 -0.033,0.00427559 -0.057878,0.019878 -0.0698386,0.0520748 -0.0066811,0.0179843 -0.00744488,0.038748 -0.00829134,0.0577835 -0.00038189,0.00855906 0.00156693,0.0220197 0.0022126,0.0347126 -0.00990157,-0.0127874 -0.0189764,-0.028122 -0.0288583,-0.0370709 -0.0122756,-0.0111181 -0.0371732,-0.0005 -0.0302992,0.0176378 0.010874,0.0286417 0.0384803,0.0472323 0.056126,0.0719724 0.00548819,0.00768898 0.0166102,0.0128307 0.0254724,0.0066811 0.012878,-0.00893701 0.0219055,-0.0213425 0.0344921,-0.0308701 0.0149843,-0.0113346 0.0317087,-0.016563 0.045122,-0.0296969 0.0115118,-0.0112717 -0.000188976,-0.0321181 -0.0159094,-0.0273346 -0.0217992,0.0066378 -0.0362913,0.0174606 -0.0505787,0.029563 -0.00142913,-0.0442402 -0.0163701,-0.0910118 0.0530906,-0.109378 0.0221102,-0.00584646 0.050063,0.00102362 0.0733346,-0.00182677 0.0218228,-0.00266929 0.048815,-0.00606693 0.0696181,-0.0138189 0.0832598,-0.0310236 0.0796496,-0.123339 0.0667835,-0.195957z"/>
    </g>
   </g>
   <g>
    <g>
     <path id="_338426960" class="fil1" d="M2.09175 3.12379c-0.0036811,-0.101016 -0.0962087,-0.0990433 -0.17665,-0.0850197 -0.0337559,-0.0014252 -0.0674764,-0.00119291 -0.10028,0.0024685 -0.045126,0.00502756 -0.0794764,0.021185 -0.0885315,0.0684291 -0.00625984,0.0326339 -0.0110157,0.0861496 0.0171417,0.110854 0.0303583,0.0266378 0.105154,0.0234961 0.14198,0.0240787 0.0955354,0.00151181 0.210886,0.00398819 0.206339,-0.120811zm-0.217654 0.0841772c-0.0196339,-0.000929134 -0.0590984,0.00111417 -0.077378,-0.00755118 -0.0210551,-0.00998031 -0.0359961,-0.0329646 -0.0365079,-0.0537441 -0.00282283,-0.114197 0.191961,-0.0696535 0.256591,-0.0730315 0.0186929,0.00716929 0.0326063,0.0196378 0.0369016,0.0413386 0.0202559,0.102339 -0.111571,0.0962165 -0.179606,0.0929882z"/>
    </g>
   </g>
   <g>
    <g>
     <path id="_338427392" class="fil1" d="M2.4282 3.1449c-0.0394764,-0.0235827 -0.0957835,-0.0229646 -0.139909,-0.0251378 -0.0472677,-0.00233071 -0.10235,-0.00191732 -0.147264,0.0142205 -0.00343701,0.00123622 -0.00448425,0.00507874 -0.00207087,0.00785827 0.0113937,0.0131063 0.0284646,0.0124567 0.0449921,0.0129764 0.0419213,0.00132677 0.082811,-0.00150394 0.124854,0.00182677 0.065563,0.00519291 0.123063,0.00737008 0.13765,0.0890079 0.00616535,0.0344882 0.00465748,0.0733268 0.00357874,0.108059 -0.00219291,0.0710197 0.00149213,0.143264 -0.00379528,0.213811 -0.00405906,0.0541496 0.00242126,0.0767874 -0.0623858,0.0813543 -0.017126,0.00120472 -0.0383819,0.00295276 -0.0583622,0.00304724 0.00702756,-0.0122126 0.0151142,-0.0243583 0.0208346,-0.0363346 0.00988189,-0.020689 -0.0173307,-0.0364409 -0.0305669,-0.017874 -0.0138307,0.0194173 -0.0587087,0.0497795 -0.0542205,0.0785276 0.00385827,0.0247244 0.0526378,0.0561339 0.0679567,0.0750709 0.0132795,0.0164055 0.0425118,-0.00579528 0.0295236,-0.0227795 -0.00564961,-0.00738976 -0.0270669,-0.0246063 -0.0423976,-0.0393268 0.0288071,0.0013189 0.060063,-0.000870079 0.0871575,-0.0027126 0.0336457,-0.0022874 0.0589843,-0.00911417 0.0711732,-0.0433228 0.0116142,-0.0325984 0.011437,-0.0782244 0.0110984,-0.112843 -0.000531496,-0.0557047 -0.00026378,-0.11161 0.00135827,-0.167496 0.00205512,-0.0713031 0.0120787,-0.17535 -0.0592047,-0.217933z"/>
    </g>
   </g>
   <g>
    <g>
     <path id="_338427824" class="fil1" d="M2.21156 3.69649c-0.00155512,-0.0380827 -0.000551181,-0.0752402 -0.00967323,-0.112563 -0.0012126,-0.00493307 -0.00409055,-0.00773228 -0.0075,-0.0090748 -0.00668898,-0.0111772 -0.0165039,-0.0196693 -0.0306772,-0.0230866 -0.0271417,-0.00653937 -0.0638386,0.0030315 -0.0915591,0.00371654 -0.0435787,0.0010748 -0.0872638,-3.93701e-005 -0.130827,-0.00106299 -0.0420551,-0.000988189 -0.0842756,0.000767717 -0.126075,0.00540157 -0.0229803,0.00254724 -0.0472835,0.00269291 -0.0630197,0.0228465 -0.0322795,0.0413425 -0.0149803,0.146004 -0.00469685,0.192835 0.0107165,0.048811 0.0284016,0.0628937 0.0767677,0.0604449 0.0828071,-0.00419291 0.165807,-0.000870079 0.248528,-0.00837402 0.0471063,-0.00427165 0.116472,-0.00512205 0.134878,-0.0575866 0.00791732,-0.0225472 0.0048189,-0.0501339 0.00385433,-0.0734961zm-0.0353228 0.0281496c-0.0112244,0.0715748 -0.0887598,0.0642441 -0.143693,0.067937 -0.0503346,0.00338189 -0.100984,0.00401969 -0.151445,0.0048622 -0.0513819,0.000862205 -0.0915945,0.0124606 -0.100197,-0.0517205 -0.00279134,-0.0208386 -0.00477559,-0.0419764 -0.0057874,-0.0629646 -0.00157087,-0.0324449 -0.00637008,-0.0513307 0.0203622,-0.0720157 0.038811,-0.0300433 0.107256,-0.0214567 0.155559,-0.0201063 0.0446299,0.00125591 0.0895315,0.00220866 0.134169,0.00109449 0.0151929,-0.000377953 0.0470433,-0.00900394 0.0606299,-0.00401969 0.0342677,0.0125669 0.0285551,0.0594528 0.0319291,0.0881693 0.000255906,0.00217323 0.00114173,0.00395276 0.00225591,0.00550394 -0.00053937,0.0153071 -0.00172441,0.0301417 -0.00378346,0.0432598z"/>
    </g>
   </g>
   <g>
    <g>
     <path id="_338428256" class="fil1" d="M2.26163 3.3399c-0.074378,-0.0191299 -0.157571,-0.00507874 -0.233768,-0.00967323 -0.0813386,-0.00490157 -0.163764,0.00662992 -0.244504,-0.00026378 -0.0145827,-0.00124409 -0.0179016,0.0227835 -0.00347244,0.0256614 0.0763346,0.0152283 0.15935,0.00444094 0.236957,0.00923228 0.0765669,0.00472441 0.169528,0.0145827 0.244783,-0.00265748 0.0112087,-0.00256693 0.0108346,-0.0195118 3.93701e-006,-0.0222992z"/>
    </g>
   </g>
   <g>
    <g>
     <path id="_338428688" class="fil1" d="M2.26163 3.43615c-0.074378,-0.0191299 -0.157571,-0.0050748 -0.233768,-0.00967323 -0.0813386,-0.00490157 -0.163764,0.00663386 -0.244504,-0.00026378 -0.0145827,-0.00124409 -0.0179016,0.0227835 -0.00347244,0.0256654 0.0763346,0.0152244 0.15935,0.00444094 0.236957,0.00923228 0.0765669,0.00472441 0.169528,0.0145827 0.244783,-0.00266142 0.0112087,-0.00257087 0.0108346,-0.0195157 3.93701e-006,-0.0222992z"/>
    </g>
   </g>
   <g>
    <g>
     <path id="_338429120" class="fil1" d="M2.55531 2.84105c-0.0717874,0.000905512 -0.143543,0.00277165 -0.215327,0.00305906 -0.0327638,0.000133858 -0.0655354,-0.000720472 -0.0983031,5.11811e-005 -0.0252441,0.000590551 -0.0648307,-0.00304331 -0.0883465,0.00700787 -0.0158465,0.00677559 -0.00789764,0.0184409 0.00173622,0.0218898 -0.000385827,-0.000137795 0.016563,-0.00208268 0.0193898,-0.00210236 0.0198228,-0.000153543 0.0401772,0.0028622 0.0600709,0.00343307 0.0351496,0.00101575 0.0703071,0.000984252 0.105453,0.00112598 0.0711969,0.000283465 0.144449,0.00224016 0.215327,-0.00495669 0.0184803,-0.00187402 0.019374,-0.029752 0,-0.0295079z"/>
    </g>
   </g>
   <g>
    <g>
     <path id="_338429552" class="fil1" d="M2.55531 2.92125c-0.0717874,0.000905512 -0.143543,0.00277165 -0.215327,0.00305906 -0.0327638,0.000133858 -0.0655354,-0.000720472 -0.0983031,5.11811e-005 -0.0252441,0.000590551 -0.0648307,-0.00304724 -0.0883465,0.00700787 -0.0158465,0.00677953 -0.00789764,0.0184409 0.00173622,0.0218898 -0.000385827,-0.000133858 0.016563,-0.00207874 0.0193898,-0.00209843 0.0198228,-0.000153543 0.0401772,0.00285827 0.0600709,0.00343307 0.0351496,0.00101181 0.0703071,0.000980315 0.105453,0.00112598 0.0711969,0.000283465 0.144449,0.00223622 0.215327,-0.00495669 0.0184803,-0.00187402 0.019374,-0.0297559 0,-0.0295118z"/>
    </g>
   </g>
   <g>
    <g>
     <path id="_338429984" class="fil1" d="M2.55531 3.00145c-0.0717874,0.000905512 -0.143543,0.00277165 -0.215327,0.00306299 -0.0327638,0.000129921 -0.0655354,-0.000720472 -0.0983031,4.72441e-005 -0.0252441,0.000590551 -0.0648307,-0.00303937 -0.0883465,0.00700787 -0.0158465,0.00677953 -0.00789764,0.0184409 0.00173622,0.0218937 -0.000385827,-0.000137795 0.016563,-0.00208268 0.0193898,-0.00210236 0.0198228,-0.00015748 0.0401772,0.00285827 0.0600709,0.00343701 0.0351496,0.00101575 0.0703071,0.000984252 0.105453,0.00112598 0.0711969,0.000283465 0.144449,0.00223622 0.215327,-0.00495669 0.0184803,-0.00187795 0.019374,-0.0297598 0,-0.0295157z"/>
    </g>
   </g>
   <g>
   </g>
   <g>
   </g>
   <g>
   </g>
   <g>
   </g>
   <g>
   </g>
   <g>
   </g>
   <g>
   </g>
   <g>
   </g>
   <g>
   </g>
   <g>
   </g>
   <g>
   </g>
   <g>
   </g>
   <g>
   </g>
   <g>
   </g>
   <g>
   </g>
  </g>
  <g id="_339451176">
   <path id="_206986472" class="fil2" d="M6.64613 2.67916c-0.600732,0 -1.0713,0.235307 -1.0713,0.53565 0,0.300346 0.470571,0.535654 1.0713,0.535654 0.600732,0 1.0713,-0.235307 1.0713,-0.535654 0,-0.300343 -0.470571,-0.53565 -1.0713,-0.53565z"/>
   <path id="_206987744" class="fil3" d="M6.64613 3.66119c-0.256673,0 -0.493535,-0.0478228 -0.67065,-0.124173l0.0359567 -0.14365 0.156583 0c0.118043,0 0.220488,-0.0799921 0.249169,-0.194551l0.00780315 -0.0314291c0.0133819,-0.0533543 0.00161024,-0.108846 -0.0322126,-0.152177 -0.033874,-0.043374 -0.0847874,-0.0682205 -0.139803,-0.0682205l-0.187138 0c-0.0204882,0 -0.038315,0.0139488 -0.0432874,0.0338228l-0.129224 0.516909c-0.142394,-0.0776378 -0.229224,-0.17663 -0.229224,-0.282909 0,-0.241976 0.449732,-0.446374 0.982028,-0.446374 0.532295,0 0.982028,0.204398 0.982028,0.446374 0,0.24198 -0.449732,0.446378 -0.982028,0.446378z"/>
   <path id="_206988104" class="fil4" d="M5.70874 3.25945c0,-0.241976 0.449736,-0.446378 0.982028,-0.446378 0.372764,0 0.704378,0.100402 0.870063,0.243587 -0.143976,-0.166539 -0.504319,-0.288228 -0.914701,-0.288228 -0.532295,0 -0.982031,0.204406 -0.982031,0.446378 0,0.0712362 0.0397205,0.139008 0.108319,0.199461 -0.0409173,-0.0484882 -0.0636772,-0.100689 -0.0636772,-0.154819z"/>
   <path id="SVGCleanerId_0" class="fil3" d="M6.03376 3.30409l0.0669567 -0.267827 0.15226 0c0.0272913,0 0.0526181,0.0123386 0.0693976,0.033874 0.0168268,0.0215354 0.0226693,0.0490827 0.016,0.0756299l-0.00780709 0.0314291c-0.0187008,0.0747165 -0.0855276,0.126894 -0.162551,0.126894l-0.134256 0z"/>
   <g>
    <path id="SVGCleanerId_0_1_" class="fil3" d="M6.03376 3.30409l0.0669567 -0.267827 0.15226 0c0.0272913,0 0.0526181,0.0123386 0.0693976,0.033874 0.0168268,0.0215354 0.0226693,0.0490827 0.016,0.0756299l-0.00780709 0.0314291c-0.0187008,0.0747165 -0.0855276,0.126894 -0.162551,0.126894l-0.134256 0z"/>
   </g>
   <g>
    <path id="_206989304" class="fil2" d="M7.27965 2.94699l-0.187138 0c-0.0204882,0 -0.038315,0.0139488 -0.0432874,0.0338228l-0.0890551 0.356102c-0.000177165,0.000649606 -0.000307087,0.00126378 -0.000484252,0.00187402l-0.044374 0.177677c-0.00601969,0.0238858 0.00854331,0.048126 0.0324724,0.0540984 0.00362205,0.000913386 0.00728346,0.00135039 0.0108543,0.00135039 0.0200079,0 0.038189,-0.0135118 0.0432402,-0.0338268l0.0362244 -0.14472 0.156583 0c0.118047,0 0.220488,-0.0799921 0.249173,-0.194551l0.00780315 -0.0314291c0.0133819,-0.0533543 0.00161024,-0.108846 -0.0322165,-0.152177 -0.0338661,-0.043374 -0.0847835,-0.0682205 -0.139795,-0.0682205zm0.0854016 0.198776l-0.00780709 0.0314291c-0.0187008,0.0747126 -0.0855276,0.126894 -0.162551,0.126894l-0.13426 0 0.0669528 -0.267827 0.152264 0c0.0272913,0 0.0526142,0.0123386 0.0693976,0.033874 0.0168307,0.0215315 0.0226693,0.0490827 0.0160039,0.0756299z"/>
    <path id="_206989448" class="fil2" d="M6.88676 3.00148c-0.0282087,-0.0346102 -0.0699646,-0.0544882 -0.11465,-0.0544882l-0.141504 0 0.0147874 -0.0812992c0.00444882,-0.0242362 -0.0116378,-0.0474724 -0.0359173,-0.051874 -0.0241063,-0.00444882 -0.0475157,0.0116378 -0.051878,0.0359173l-0.0892756 0.491016c-0.00444882,0.0242402 0.0116378,0.0474724 0.0359173,0.051874 0.00270472,0.000523622 0.0053622,0.000744094 0.00802362,0.000744094 0.021189,0 0.0399724,-0.0150827 0.0438504,-0.0366614l0.0582638 -0.320441 0.157732 0c0.0177008,0 0.0342205,0.00784646 0.0453819,0.0215787 0.0111614,0.0137283 0.0155157,0.0315157 0.0119016,0.0488661l-0.0484291 0.232953c-0.00501575,0.0241063 0.0105039,0.0477323 0.0346535,0.0527913 0.00305118,0.000610236 0.00609843,0.000917323 0.00911024,0.000917323 0.0207047,0 0.0392717,-0.0144724 0.0436811,-0.0355709l0.0484291 -0.232953c0.00906299,-0.0437283 -0.00192126,-0.0887165 -0.0300787,-0.12337z"/>
   </g>
   <path id="_206989928" class="fil5" style="mask:url(#id0)" d="M6.64613 2.67916c-0.600732,0 -1.0713,0.235307 -1.0713,0.53565 0,0.300346 0.470571,0.535654 1.0713,0.535654 0.600732,0 1.0713,-0.235307 1.0713,-0.535654 0,-0.300343 -0.470571,-0.53565 -1.0713,-0.53565z"/>
   <g>
   </g>
   <g>
   </g>
   <g>
   </g>
   <g>
   </g>
   <g>
   </g>
   <g>
   </g>
   <g>
   </g>
   <g>
   </g>
   <g>
   </g>
   <g>
   </g>
   <g>
   </g>
   <g>
   </g>
   <g>
   </g>
   <g>
   </g>
   <g>
   </g>
  </g>
  <g id="_208090072">
   <g>
    <path id="_207289672" class="fil1" d="M3.13668 7.14784c-0.00277559,-0.278685 0.227276,-0.412339 0.237555,-0.41898 -0.129264,-0.189154 -0.330626,-0.215067 -0.402378,-0.218063 -0.171366,-0.0173504 -0.334374,0.10089 -0.421346,0.10089 -0.086748,0 -0.220953,-0.0983228 -0.363075,-0.0957402 -0.18678,0.00277559 -0.359004,0.108606 -0.455181,0.275886 -0.194063,0.336748 -0.0496969,0.835614 0.139449,1.10872 0.0924213,0.133685 0.20263,0.283831 0.347331,0.278465 0.139346,-0.00555906 0.192039,-0.0901654 0.360508,-0.0901654 0.168461,0 0.215823,0.0901654 0.36328,0.0873976 0.149949,-0.00278346 0.244949,-0.13624 0.336736,-0.270335 0.106134,-0.155087 0.149835,-0.305236 0.152413,-0.312941 -0.00333071,-0.00152362 -0.292394,-0.11226 -0.295291,-0.445134zm-0.277083 -0.817843c0.0767992,-0.0931732 0.128638,-0.222445 0.114496,-0.351406 -0.110622,0.00450394 -0.244717,0.073689 -0.324087,0.166654 -0.0712165,0.0824685 -0.133559,0.214094 -0.116854,0.34048 0.1235,0.00963386 0.249563,-0.0627638 0.326445,-0.155728z"/>
   </g>
   <g>
   </g>
   <g>
   </g>
   <g>
   </g>
   <g>
   </g>
   <g>
   </g>
   <g>
   </g>
   <g>
   </g>
   <g>
   </g>
   <g>
   </g>
   <g>
   </g>
   <g>
   </g>
   <g>
   </g>
   <g>
   </g>
   <g>
   </g>
   <g>
   </g>
  </g>
  <g id="_339460032">
   <g>
    <g id="android">
     <path id="_340813072" class="fil1" d="M6.00602 7.62109c0,0.0505591 0.0337047,0.0842638 0.0842638,0.0842638l0.0842598 0 0 0.294921c0,0.0674094 0.0589843,0.126394 0.126398,0.126394 0.0674094,0 0.126394,-0.0589843 0.126394,-0.126394l0 -0.294921 0.168524 0 0 0.294921c0,0.0674094 0.0589843,0.126394 0.126398,0.126394 0.0674094,0 0.126394,-0.0589843 0.126394,-0.126394l0 -0.294921 0.0842638 0c0.0505551,0 0.0842598,-0.0337047 0.0842598,-0.0842638l0 -0.84263 -1.01115 0 0 0.84263zm-0.210657 -0.84263c-0.0674094,0 -0.126394,0.0589882 -0.126394,0.126394l0 0.589843c0,0.0674094 0.0589843,0.126394 0.126394,0.126394 0.0674094,0 0.126394,-0.0589843 0.126394,-0.126394l0 -0.589843c0,-0.0674094 -0.0589843,-0.126394 -0.126394,-0.126394zm1.43247 0c-0.0674094,0 -0.126394,0.0589882 -0.126394,0.126394l0 0.589843c0,0.0674094 0.0589843,0.126394 0.126394,0.126394 0.0674134,0 0.126398,-0.0589843 0.126398,-0.126394l0 -0.589843c0,-0.0674094 -0.0589843,-0.126394 -0.126398,-0.126394zm-0.421315 -0.488724l0.109543 -0.109539c0.0168543,-0.0168543 0.0168543,-0.0421339 0,-0.0589843 -0.0168543,-0.0168583 -0.0421299,-0.0168583 -0.0589882,0l-0.126394 0.126394c-0.0589843,-0.0421299 -0.134823,-0.0589882 -0.219083,-0.0589882 -0.0842638,0 -0.160102,0.0168543 -0.227512,0.0505591l-0.117969 -0.126398c-0.0168543,-0.0084252 -0.0505551,-0.0084252 -0.0674094,0 -0.0084252,0.0168583 -0.0084252,0.050563 0,0.0674134l0.109539 0.109539c-0.117965,0.092689 -0.202228,0.235933 -0.202228,0.404461l1.01115 0c3.93701e-006,-0.16852 -0.0842559,-0.320193 -0.210654,-0.404457zm-0.463445 0.235937l-0.0842638 0 0 -0.0842638 0.0842638 0 0 0.0842638zm0.421315 0l-0.0842638 0 0 -0.0842638 0.0842638 0 0 0.0842638z"/>
    </g>
   </g>
   <g>
   </g>
   <g>
   </g>
   <g>
   </g>
   <g>
   </g>
   <g>
   </g>
   <g>
   </g>
   <g>
   </g>
   <g>
   </g>
   <g>
   </g>
   <g>
   </g>
   <g>
   </g>
   <g>
   </g>
   <g>
   </g>
   <g>
   </g>
   <g>
   </g>
  </g>
 </g>
</svg>
