<?xml version="1.0" encoding="UTF-8"?>
<svg width="14px" height="24px" viewBox="0 0 14 24" version="1.1" xmlns="http://www.w3.org/2000/svg" xmlns:xlink="http://www.w3.org/1999/xlink">
    <!-- Generator: sketchtool 40.1 (33804) - http://www.bohemiancoding.com/sketch -->
    <title>CE0252AE-0894-4F9B-940A-9561E991D762</title>
    <desc>Created with sketchtool.</desc>
    <defs></defs>
    <g id="Main" stroke="none" stroke-width="1" fill="none" fill-rule="evenodd" stroke-linecap="square">
        <g id="Home_1440" transform="translate(-1372.000000, -1692.000000)" stroke-width="2" stroke="#FFFFFF">
            <g id="Testimonial" transform="translate(-1047.000000, 1343.000000)">
                <g id="Arrow_right" transform="translate(2411.000000, 349.000000)">
                    <polyline transform="translate(10.046367, 12.046367) rotate(-315.000000) translate(-10.046367, -12.046367) " points="2.94251274 4.94251274 17.150221 4.94251274 17.150221 19.150221"></polyline>
                </g>
            </g>
        </g>
    </g>
</svg>