<?xml version="1.0" encoding="utf-8"?>
<!-- Generator: Adobe Illustrator 16.0.0, SVG Export Plug-In . SVG Version: 6.00 Build 0)  -->
<!DOCTYPE svg PUBLIC "-//W3C//DTD SVG 1.1//EN" "http://www.w3.org/Graphics/SVG/1.1/DTD/svg11.dtd">
<svg version="1.1" id="Layer_1" xmlns="http://www.w3.org/2000/svg" xmlns:xlink="http://www.w3.org/1999/xlink" x="0px" y="0px"
	 width="371px" height="196px" viewBox="0 0 371 196" enable-background="new 0 0 371 196" xml:space="preserve">
<title>deticated_team</title>
<desc>Created with Sketch.</desc>
<path id="Client_x2019_s-Team" fill="#606068" d="M44.648,151.133c-1.456,0-2.64,0.455-3.563,1.352
	c-0.923,0.897-1.378,2.106-1.378,3.654c0,1.533,0.455,2.756,1.378,3.652s2.119,1.352,3.575,1.352c1.196,0,2.223-0.324,3.068-0.988
	c0.845-0.662,1.364-1.547,1.547-2.678l-2.106-0.182c-0.26,1.339-1.222,2.066-2.574,2.066c-0.831,0-1.521-0.285-2.054-0.844
	c-0.533-0.56-0.793-1.353-0.793-2.379c0-0.976,0.26-1.756,0.768-2.341c0.52-0.585,1.209-0.884,2.066-0.884
	c1.353,0,2.314,0.754,2.587,2.105l2.093-0.182c-0.169-1.131-0.688-2.041-1.547-2.704C46.87,151.471,45.843,151.133,44.648,151.133z
	 M52.967,150.898H51.07V161h1.897V150.898z M56.126,150.938c-0.949-0.051-1.534,1.301-0.806,1.951c0.429,0.428,1.183,0.428,1.612,0
	c0.221-0.222,0.338-0.494,0.338-0.807C57.271,151.445,56.764,150.938,56.126,150.938z M57.075,154.279h-1.898V161h1.898V154.279z
	 M65.551,157.49c0-1.04-0.285-1.859-0.87-2.444c-0.586-0.599-1.365-0.897-2.341-0.897c-1.014,0-1.833,0.313-2.47,0.949
	c-0.637,0.625-0.949,1.469-0.949,2.549c0,1.065,0.313,1.91,0.949,2.547c0.637,0.638,1.482,0.949,2.522,0.949
	c0.793,0,1.469-0.207,2.041-0.611c0.585-0.402,0.936-0.936,1.053-1.572l-1.911-0.091c-0.143,0.493-0.559,0.741-1.235,0.741
	c-0.845,0-1.364-0.521-1.403-1.365h4.614V157.49z M62.327,155.631c0.832,0,1.274,0.508,1.313,1.352h-2.704
	C60.989,156.139,61.508,155.631,62.327,155.631z M70.986,154.148c-0.858,0-1.456,0.273-1.808,0.82v-0.689h-1.794V161h1.898v-3.73
	c0-0.819,0.507-1.353,1.248-1.353c0.728,0,1.183,0.494,1.183,1.339V161h1.898v-4.107C73.612,155.176,72.559,154.148,70.986,154.148z
	 M79.656,155.917v-1.638h-1.573l0.014-2.223h-1.898l-0.013,2.223H74.95v1.638h1.222l-0.013,2.951
	c-0.013,1.508,0.923,2.262,2.444,2.262c0.338,0,0.688-0.026,1.053-0.077v-1.691c-0.247,0.039-0.442,0.066-0.585,0.066
	c-0.585,0-1.014-0.326-1.014-1.015l0.013-2.496H79.656z M81.762,150.925c-0.637,0-1.117,0.507-1.117,1.144
	c0,0.611,0.468,1.093,1.053,1.132c-0.117,0.493-0.403,0.884-0.858,1.17v0.793c1.326-0.677,1.989-1.664,1.989-2.978
	C82.828,151.419,82.425,150.925,81.762,150.925z M86.859,154.148c-1.677,0-2.691,0.82-2.691,2.119
	c0.052,0.832,0.299,1.248,0.923,1.573c0.469,0.208,0.768,0.3,1.456,0.468c0.988,0.248,1.223,0.364,1.223,0.768
	c0,0.377-0.325,0.611-0.846,0.611c-0.624,0-0.948-0.273-0.975-0.832l-1.898,0.104c0.144,1.404,1.145,2.184,2.86,2.184
	c1.729,0,2.756-0.845,2.756-2.236c0-1.131-0.741-1.586-2.288-1.988c-0.441-0.117-0.806-0.195-1.026-0.313
	c-0.195-0.09-0.286-0.221-0.286-0.428c0-0.378,0.26-0.572,0.767-0.572c0.546,0,0.832,0.272,0.858,0.818l1.885-0.104
	C89.458,155.02,88.509,154.148,86.859,154.148z M102.549,151.275h-8.515v1.769h3.263V161h2.002v-7.956h3.25V151.275z
	 M110.025,157.49c0-1.04-0.286-1.859-0.871-2.444c-0.585-0.599-1.365-0.897-2.34-0.897c-1.015,0-1.833,0.313-2.471,0.949
	c-0.637,0.625-0.948,1.469-0.948,2.549c0,1.065,0.312,1.91,0.948,2.547c0.638,0.638,1.482,0.949,2.522,0.949
	c0.793,0,1.469-0.207,2.041-0.611c0.585-0.402,0.936-0.936,1.053-1.572l-1.911-0.091c-0.143,0.493-0.559,0.741-1.234,0.741
	c-0.846,0-1.365-0.521-1.404-1.365h4.615V157.49z M106.8,155.631c0.832,0,1.274,0.508,1.313,1.352h-2.704
	C105.461,156.139,105.982,155.631,106.8,155.631z M114.484,154.148c-0.819,0-1.495,0.248-2.028,0.742
	c-0.52,0.48-0.78,1.039-0.78,1.664l1.898,0.077c0-0.481,0.325-0.884,0.936-0.884c0.585,0,0.871,0.352,0.871,1.04v0.26l-1.195,0.065
	c-1.794,0.078-2.691,0.754-2.691,2.041s0.845,1.988,2.236,1.988c0.702,0,1.273-0.233,1.716-0.688V161h1.833v-4.146
	C117.279,155.085,116.303,154.148,114.484,154.148z M115.38,158.582c0,0.689-0.494,1.092-1.209,1.092
	c-0.52,0-0.779-0.208-0.779-0.611c0-0.441,0.324-0.676,0.975-0.701l1.014-0.065V158.582z M127.158,154.148
	c-0.923,0-1.612,0.352-2.067,1.066c-0.455-0.715-1.156-1.066-2.105-1.066c-0.832,0-1.417,0.273-1.769,0.82v-0.689h-1.794V161h1.898
	v-3.73c0-0.819,0.468-1.353,1.209-1.353c0.688,0,1.092,0.494,1.092,1.339V161h1.898v-3.965c0.091-0.689,0.507-1.118,1.17-1.118
	c0.728,0,1.118,0.468,1.118,1.339V161h1.897v-4.121C129.706,155.202,128.705,154.148,127.158,154.148z"/>
<path id="Line-Copy-5" fill="none" stroke="#979797" stroke-linecap="square" stroke-dasharray="1,4" d="M15,117.5h142.76"/>
<path id="Line-Copy-8" fill="none" stroke="#ED5C37" stroke-linecap="square" stroke-dasharray="1,4" d="M160,117.5H352.82"/>
<polygon id="Triangle-3-Copy" fill="#800000018000000180000001" points="144,89.5 148,92 148,87 "/>
<polygon id="Triangle-3-Copy-3" fill="#800000018000000180000001" points="168,80.5 164,83 164,78 "/>
<g id="Rectangle-6">
	
		<rect id="path-1_1_" x="147" y="89" fill="#800000018000000180000001" stroke="#979797" stroke-width="2" stroke-dasharray="1,3" width="21" height="1"/>
</g>
<g id="Rectangle-6-Copy">
	
		<rect id="path-3_1_" x="146" y="80" fill="#800000018000000180000001" stroke="#979797" stroke-width="2" stroke-dasharray="1,3" width="21" height="1"/>
</g>
<g>
	<g>
		<rect id="path-1" x="2" y="3" fill="#FFFFFF" width="1" height="21"/>
	</g>
	<g>
		<rect id="path-3" x="11" y="2" fill="#FFFFFF" width="1" height="21"/>
	</g>
</g>
<path id="Line-Copy-6" fill="none" stroke="#979797" stroke-linecap="square" stroke-dasharray="1,4" d="M15,52.5h142.97"/>
<path id="Line-Copy-7" fill="none" stroke="#ED5C37" stroke-linecap="square" stroke-dasharray="1,4" d="M160,52.5h193.564"/>
<g id="Rectangle">
	<path id="path-5_1_" fill="#FFFFFF" stroke="#606068" stroke-width="8" d="M49.006,103.264h11.316c4.419,0,8,3.582,8,8v13.766
		c0,4.419-3.581,8-8,8H49.006c-4.419,0-8-3.581-8-8v-13.766C41.006,106.846,44.587,103.264,49.006,103.264z"/>
</g>
<g id="Rectangle-Copy">
	<path id="path-7_1_" fill="#FFFFFF" stroke="#606068" stroke-width="8" d="M54.655,87.14h0.02c4.795,0,8.682,3.887,8.682,8.682l0,0
		c0,4.795-3.887,8.682-8.682,8.682h-0.02c-4.795,0-8.682-3.887-8.682-8.682l0,0C45.973,91.027,49.86,87.14,54.655,87.14z"/>
</g>
<g id="Rectangle_1_">
	<path id="path-9_1_" fill="#FFFFFF" stroke="#606068" stroke-width="8" d="M49.006,37.329h11.316c4.419,0,8,3.582,8,8v13.766
		c0,4.418-3.581,8-8,8H49.006c-4.419,0-8-3.582-8-8V45.329C41.006,40.911,44.587,37.329,49.006,37.329z"/>
</g>
<g id="Rectangle-Copy_1_">
	<path id="path-11_1_" fill="#FFFFFF" stroke="#606068" stroke-width="8" d="M54.655,21.206h0.02c4.795,0,8.682,3.887,8.682,8.682
		l0,0c0,4.795-3.887,8.682-8.682,8.682h-0.02c-4.795,0-8.682-3.887-8.682-8.682l0,0C45.973,25.092,49.86,21.206,54.655,21.206z"/>
</g>
<g id="Rectangle_2_">
	<path id="path-13_1_" fill="#FFFFFF" stroke="#606068" stroke-width="8" d="M106.399,103.264h11.317c4.418,0,8,3.582,8,8v13.766
		c0,4.419-3.582,8-8,8h-11.317c-4.419,0-8-3.581-8-8v-13.766C98.399,106.846,101.98,103.264,106.399,103.264z"/>
</g>
<g id="Rectangle-Copy_2_">
	<path id="path-15_1_" fill="#FFFFFF" stroke="#606068" stroke-width="8" d="M112.047,87.14h0.02c4.795,0,8.683,3.887,8.683,8.682
		l0,0c0,4.795-3.888,8.682-8.683,8.682h-0.02c-4.795,0-8.682-3.887-8.682-8.682l0,0C103.365,91.027,107.252,87.14,112.047,87.14z"/>
</g>
<g id="Rectangle_3_">
	<path id="path-17_1_" fill="#FFFFFF" stroke="#606068" stroke-width="8" d="M106.399,37.329h11.317c4.418,0,8,3.582,8,8v13.766
		c0,4.418-3.582,8-8,8h-11.317c-4.419,0-8-3.582-8-8V45.329C98.399,40.911,101.98,37.329,106.399,37.329z"/>
</g>
<g id="Rectangle-Copy_3_">
	<path id="path-19_1_" fill="#FFFFFF" stroke="#606068" stroke-width="8" d="M112.047,21.206h0.02c4.795,0,8.683,3.887,8.683,8.682
		l0,0c0,4.795-3.888,8.682-8.683,8.682h-0.02c-4.795,0-8.682-3.887-8.682-8.682l0,0C103.365,25.092,107.252,21.206,112.047,21.206z"
		/>
</g>
<g id="Rectangle_4_">
	<path id="path-21_1_" fill="#FFFFFF" stroke="#ED5C37" stroke-width="8" d="M189,37h11.317c4.418,0,8,3.582,8,8v13.766
		c0,4.418-3.582,8-8,8H189c-4.419,0-8-3.582-8-8V45C181,40.582,184.581,37,189,37z"/>
</g>
<g id="Rectangle-Copy-2">
	<path id="path-23_1_" fill="#FFFFFF" stroke="#ED5C37" stroke-width="8" d="M248,37h11.317c4.418,0,8,3.582,8,8v13.766
		c0,4.418-3.582,8-8,8H248c-4.419,0-8-3.582-8-8V45C240,40.582,243.581,37,248,37z"/>
</g>
<g id="Rectangle-Copy_4_">
	<path id="path-25_1_" fill="#FFFFFF" stroke="#ED5C37" stroke-width="8" d="M194.682,21h0.02c4.795,0,8.683,3.887,8.683,8.682l0,0
		c0,4.795-3.888,8.682-8.683,8.682h-0.02c-4.795,0-8.682-3.887-8.682-8.682l0,0C186,24.887,189.887,21,194.682,21z"/>
</g>
<g id="Rectangle-Copy-3">
	<path id="path-27_1_" fill="#FFFFFF" stroke="#ED5C37" stroke-width="8" d="M253.682,21h0.02c4.795,0,8.683,3.887,8.683,8.682l0,0
		c0,4.795-3.888,8.682-8.683,8.682h-0.02c-4.795,0-8.682-3.887-8.682-8.682l0,0C245,24.887,248.887,21,253.682,21z"/>
</g>
<g id="Rectangle-Copy-4">
	<path id="path-29_1_" fill="#FFFFFF" stroke="#ED5C37" stroke-width="8" d="M247,103h11.317c4.418,0,8,3.582,8,8v13.766
		c0,4.419-3.582,8-8,8H247c-4.419,0-8-3.581-8-8V111C239,106.582,242.581,103,247,103z"/>
</g>
<g id="Rectangle-Copy-6">
	<path id="path-31_1_" fill="#FFFFFF" stroke="#ED5C37" stroke-width="8" d="M189,103h11.317c4.418,0,8,3.582,8,8v13.766
		c0,4.419-3.582,8-8,8H189c-4.419,0-8-3.581-8-8V111C181,106.582,184.581,103,189,103z"/>
</g>
<g id="Rectangle-Copy-5">
	<path id="path-33_1_" fill="#FFFFFF" stroke="#ED5C37" stroke-width="8" d="M252.682,87h0.02c4.795,0,8.683,3.887,8.683,8.682l0,0
		c0,4.795-3.888,8.682-8.683,8.682h-0.02c-4.795,0-8.682-3.887-8.682-8.682l0,0C244,90.887,247.887,87,252.682,87z"/>
</g>
<g id="Rectangle-Copy-11">
	<path id="path-35_1_" fill="#FFFFFF" stroke="#ED5C37" stroke-width="8" d="M306,37h11.316c4.419,0,8,3.582,8,8v13.766
		c0,4.418-3.581,8-8,8H306c-4.419,0-8-3.582-8-8V45C298,40.582,301.581,37,306,37z"/>
</g>
<g id="Rectangle-Copy-10">
	<path id="path-37_1_" fill="#FFFFFF" stroke="#ED5C37" stroke-width="8" d="M311.682,21h0.02c4.795,0,8.682,3.887,8.682,8.682l0,0
		c0,4.795-3.887,8.682-8.682,8.682h-0.02c-4.795,0-8.682-3.887-8.682-8.682l0,0C303,24.887,306.887,21,311.682,21z"/>
</g>
<g id="Rectangle-Copy-9">
	<path id="path-39_1_" fill="#FFFFFF" stroke="#ED5C37" stroke-width="8" d="M305,103h11.316c4.419,0,8,3.582,8,8v13.766
		c0,4.419-3.581,8-8,8H305c-4.419,0-8-3.581-8-8V111C297,106.582,300.581,103,305,103z"/>
</g>
<g id="Rectangle-Copy-8">
	<path id="path-41_1_" fill="#FFFFFF" stroke="#ED5C37" stroke-width="8" d="M310.682,87h0.02c4.795,0,8.682,3.887,8.682,8.682l0,0
		c0,4.795-3.887,8.682-8.682,8.682h-0.02c-4.795,0-8.682-3.887-8.682-8.682l0,0C302,90.887,305.887,87,310.682,87z"/>
</g>
<g id="Rectangle-Copy-7">
	<path id="path-43_1_" fill="#FFFFFF" stroke="#ED5C37" stroke-width="8" d="M194.682,87h0.02c4.795,0,8.683,3.887,8.683,8.682l0,0
		c0,4.795-3.888,8.682-8.683,8.682h-0.02c-4.795,0-8.682-3.887-8.682-8.682l0,0C186,90.887,189.887,87,194.682,87z"/>
</g>
<g>
	<g>
		<path id="path-5" fill="#FFFFFF" d="M49.006,103.264h11.316c4.419,0,8,3.582,8,8v13.766c0,4.419-3.581,8-8,8H49.006
			c-4.419,0-8-3.581-8-8v-13.766C41.006,106.846,44.587,103.264,49.006,103.264z"/>
	</g>
	<g>
		<path id="path-7" fill="#FFFFFF" d="M54.655,87.14h0.02c4.795,0,8.682,3.887,8.682,8.682l0,0c0,4.795-3.887,8.682-8.682,8.682
			h-0.02c-4.795,0-8.682-3.887-8.682-8.682l0,0C45.973,91.027,49.86,87.14,54.655,87.14z"/>
	</g>
	<g>
		<path id="path-9" fill="#FFFFFF" d="M49.006,37.329h11.316c4.419,0,8,3.582,8,8v13.766c0,4.418-3.581,8-8,8H49.006
			c-4.419,0-8-3.582-8-8V45.329C41.006,40.911,44.587,37.329,49.006,37.329z"/>
	</g>
	<g>
		<path id="path-11" fill="#FFFFFF" d="M54.655,21.206h0.02c4.795,0,8.682,3.887,8.682,8.682l0,0c0,4.795-3.887,8.682-8.682,8.682
			h-0.02c-4.795,0-8.682-3.887-8.682-8.682l0,0C45.973,25.092,49.86,21.206,54.655,21.206z"/>
	</g>
	<g>
		<path id="path-13" fill="#FFFFFF" d="M106.399,103.264h11.317c4.418,0,8,3.582,8,8v13.766c0,4.419-3.582,8-8,8h-11.317
			c-4.419,0-8-3.581-8-8v-13.766C98.399,106.846,101.98,103.264,106.399,103.264z"/>
	</g>
	<g>
		<path id="path-15" fill="#FFFFFF" d="M112.047,87.14h0.02c4.795,0,8.683,3.887,8.683,8.682l0,0c0,4.795-3.888,8.682-8.683,8.682
			h-0.02c-4.795,0-8.682-3.887-8.682-8.682l0,0C103.365,91.027,107.252,87.14,112.047,87.14z"/>
	</g>
	<g>
		<path id="path-17" fill="#FFFFFF" d="M106.399,37.329h11.317c4.418,0,8,3.582,8,8v13.766c0,4.418-3.582,8-8,8h-11.317
			c-4.419,0-8-3.582-8-8V45.329C98.399,40.911,101.98,37.329,106.399,37.329z"/>
	</g>
	<g>
		<path id="path-19" fill="#FFFFFF" d="M112.047,21.206h0.02c4.795,0,8.683,3.887,8.683,8.682l0,0c0,4.795-3.888,8.682-8.683,8.682
			h-0.02c-4.795,0-8.682-3.887-8.682-8.682l0,0C103.365,25.092,107.252,21.206,112.047,21.206z"/>
	</g>
	<g>
		<path id="path-21" fill="#FFFFFF" d="M189,37h11.317c4.418,0,8,3.582,8,8v13.766c0,4.418-3.582,8-8,8H189c-4.419,0-8-3.582-8-8V45
			C181,40.582,184.581,37,189,37z"/>
	</g>
	<g>
		<path id="path-23" fill="#FFFFFF" d="M248,37h11.317c4.418,0,8,3.582,8,8v13.766c0,4.418-3.582,8-8,8H248c-4.419,0-8-3.582-8-8V45
			C240,40.582,243.581,37,248,37z"/>
	</g>
	<g>
		<path id="path-25" fill="#FFFFFF" d="M194.682,21h0.02c4.795,0,8.683,3.887,8.683,8.682l0,0c0,4.795-3.888,8.682-8.683,8.682
			h-0.02c-4.795,0-8.682-3.887-8.682-8.682l0,0C186,24.887,189.887,21,194.682,21z"/>
	</g>
	<g>
		<path id="path-27" fill="#FFFFFF" d="M253.682,21h0.02c4.795,0,8.683,3.887,8.683,8.682l0,0c0,4.795-3.888,8.682-8.683,8.682
			h-0.02c-4.795,0-8.682-3.887-8.682-8.682l0,0C245,24.887,248.887,21,253.682,21z"/>
	</g>
	<g>
		<path id="path-29" fill="#FFFFFF" d="M247,103h11.317c4.418,0,8,3.582,8,8v13.766c0,4.419-3.582,8-8,8H247c-4.419,0-8-3.581-8-8
			V111C239,106.582,242.581,103,247,103z"/>
	</g>
	<g>
		<path id="path-31" fill="#FFFFFF" d="M189,103h11.317c4.418,0,8,3.582,8,8v13.766c0,4.419-3.582,8-8,8H189c-4.419,0-8-3.581-8-8
			V111C181,106.582,184.581,103,189,103z"/>
	</g>
	<g>
		<path id="path-33" fill="#FFFFFF" d="M252.682,87h0.02c4.795,0,8.683,3.887,8.683,8.682l0,0c0,4.795-3.888,8.682-8.683,8.682
			h-0.02c-4.795,0-8.682-3.887-8.682-8.682l0,0C244,90.887,247.887,87,252.682,87z"/>
	</g>
	<g>
		<path id="path-35" fill="#FFFFFF" d="M306,37h11.316c4.419,0,8,3.582,8,8v13.766c0,4.418-3.581,8-8,8H306c-4.419,0-8-3.582-8-8V45
			C298,40.582,301.581,37,306,37z"/>
	</g>
	<g>
		<path id="path-37" fill="#FFFFFF" d="M311.682,21h0.02c4.795,0,8.682,3.887,8.682,8.682l0,0c0,4.795-3.887,8.682-8.682,8.682
			h-0.02c-4.795,0-8.682-3.887-8.682-8.682l0,0C303,24.887,306.887,21,311.682,21z"/>
	</g>
	<g>
		<path id="path-39" fill="#FFFFFF" d="M305,103h11.316c4.419,0,8,3.582,8,8v13.766c0,4.419-3.581,8-8,8H305c-4.419,0-8-3.581-8-8
			V111C297,106.582,300.581,103,305,103z"/>
	</g>
	<g>
		<path id="path-41" fill="#FFFFFF" d="M310.682,87h0.02c4.795,0,8.682,3.887,8.682,8.682l0,0c0,4.795-3.887,8.682-8.682,8.682
			h-0.02c-4.795,0-8.682-3.887-8.682-8.682l0,0C302,90.887,305.887,87,310.682,87z"/>
	</g>
	<g>
		<path id="path-43" fill="#FFFFFF" d="M194.682,87h0.02c4.795,0,8.683,3.887,8.683,8.682l0,0c0,4.795-3.888,8.682-8.683,8.682
			h-0.02c-4.795,0-8.682-3.887-8.682-8.682l0,0C186,90.887,189.887,87,194.682,87z"/>
	</g>
</g>
<g>
	<path fill="#ED5C37" d="M175.617,156.826c0-0.724,0.111-1.369,0.335-1.937c0.223-0.567,0.525-1.048,0.905-1.44
		c0.38-0.394,0.822-0.692,1.327-0.898c0.504-0.205,1.039-0.309,1.602-0.309c0.545,0,1.039,0.114,1.481,0.342
		c0.442,0.229,0.811,0.494,1.106,0.798l-1.085,1.22c-0.224-0.205-0.449-0.366-0.677-0.482c-0.228-0.116-0.494-0.175-0.797-0.175
		s-0.588,0.065-0.851,0.194c-0.264,0.13-0.494,0.315-0.69,0.557c-0.197,0.241-0.351,0.536-0.462,0.885s-0.167,0.742-0.167,1.18
		c0,0.902,0.192,1.602,0.576,2.098s0.898,0.744,1.542,0.744c0.357,0,0.67-0.072,0.938-0.215s0.509-0.33,0.724-0.563l1.086,1.193
		c-0.367,0.429-0.784,0.751-1.253,0.965c-0.469,0.215-0.977,0.322-1.521,0.322c-0.563,0-1.095-0.097-1.595-0.288
		c-0.501-0.192-0.938-0.477-1.314-0.852c-0.375-0.375-0.67-0.842-0.884-1.4C175.724,158.205,175.617,157.56,175.617,156.826z"/>
	<path fill="#ED5C37" d="M184.651,153.516c-0.331,0-0.603-0.096-0.817-0.288s-0.322-0.439-0.322-0.744
		c0-0.304,0.107-0.549,0.322-0.737c0.214-0.188,0.487-0.281,0.817-0.281c0.34,0,0.614,0.094,0.824,0.281
		c0.209,0.188,0.315,0.434,0.315,0.737c0,0.305-0.105,0.552-0.315,0.744C185.265,153.42,184.991,153.516,184.651,153.516z
		 M183.673,154.494h1.971v6.648h-1.971V154.494z"/>
	<path fill="#ED5C37" d="M187.641,156.036h-0.912v-1.461l1.019-0.081l0.229-1.77h1.635v1.77h1.596v1.542h-1.596v2.667
		c0,0.375,0.078,0.646,0.235,0.811c0.156,0.166,0.363,0.248,0.623,0.248c0.107,0,0.217-0.013,0.328-0.04
		c0.111-0.026,0.212-0.058,0.302-0.094l0.309,1.435c-0.18,0.054-0.39,0.106-0.631,0.16s-0.522,0.081-0.844,0.081
		c-0.411,0-0.762-0.063-1.053-0.188c-0.29-0.125-0.527-0.3-0.71-0.523c-0.184-0.223-0.317-0.493-0.402-0.811
		s-0.127-0.668-0.127-1.053V156.036z"/>
	<path fill="#ED5C37" d="M192.505,154.494h1.608l0.134,1.166h0.054c0.241-0.455,0.532-0.791,0.872-1.005
		c0.339-0.215,0.679-0.322,1.019-0.322c0.188,0,0.342,0.012,0.462,0.034c0.121,0.022,0.23,0.056,0.328,0.101l-0.321,1.702
		c-0.125-0.036-0.241-0.063-0.349-0.081c-0.107-0.018-0.232-0.026-0.375-0.026c-0.25,0-0.512,0.09-0.784,0.269
		s-0.498,0.495-0.677,0.951v3.86h-1.971V154.494z"/>
	<path fill="#ED5C37" d="M197.774,154.494h1.97v3.874c0,0.482,0.067,0.813,0.201,0.992s0.344,0.268,0.63,0.268
		c0.25,0,0.46-0.058,0.63-0.174s0.354-0.304,0.55-0.563v-4.396h1.971v6.648h-1.608l-0.147-0.925h-0.041
		c-0.286,0.34-0.592,0.605-0.918,0.798c-0.326,0.191-0.717,0.288-1.173,0.288c-0.724,0-1.249-0.237-1.574-0.711
		c-0.327-0.474-0.489-1.13-0.489-1.97V154.494z"/>
	<path fill="#ED5C37" d="M205.748,159.146c0.304,0.232,0.595,0.406,0.871,0.522c0.277,0.116,0.559,0.175,0.845,0.175
		c0.295,0,0.51-0.05,0.644-0.147c0.134-0.099,0.201-0.237,0.201-0.416c0-0.107-0.038-0.203-0.114-0.288s-0.179-0.163-0.309-0.234
		c-0.129-0.071-0.274-0.137-0.436-0.194c-0.16-0.059-0.326-0.123-0.496-0.194c-0.205-0.081-0.411-0.175-0.616-0.281
		c-0.206-0.107-0.394-0.239-0.563-0.396c-0.17-0.156-0.309-0.34-0.416-0.55s-0.161-0.453-0.161-0.73
		c0-0.304,0.061-0.585,0.182-0.845c0.12-0.259,0.292-0.478,0.516-0.656s0.491-0.319,0.805-0.423
		c0.313-0.103,0.661-0.154,1.045-0.154c0.51,0,0.956,0.088,1.341,0.262c0.384,0.175,0.719,0.369,1.005,0.583l-0.885,1.18
		c-0.241-0.179-0.478-0.317-0.71-0.415c-0.232-0.099-0.465-0.147-0.697-0.147c-0.5,0-0.751,0.174-0.751,0.522
		c0,0.107,0.036,0.199,0.107,0.274c0.071,0.076,0.168,0.146,0.288,0.208c0.121,0.063,0.26,0.123,0.416,0.181
		c0.156,0.059,0.319,0.119,0.489,0.182c0.214,0.08,0.427,0.172,0.637,0.274s0.402,0.23,0.576,0.382
		c0.174,0.152,0.315,0.338,0.422,0.557c0.107,0.219,0.161,0.48,0.161,0.784s-0.059,0.585-0.174,0.844
		c-0.116,0.26-0.291,0.485-0.523,0.677c-0.232,0.192-0.518,0.345-0.857,0.456s-0.732,0.168-1.18,0.168
		c-0.438,0-0.887-0.085-1.347-0.255c-0.461-0.17-0.86-0.394-1.2-0.67L205.748,159.146z"/>
	<path fill="#ED5C37" d="M211.391,151.746h1.971v2.306l-0.054,1.019c0.259-0.231,0.538-0.413,0.838-0.543
		c0.299-0.129,0.605-0.194,0.918-0.194c0.402,0,0.764,0.081,1.086,0.242c0.321,0.16,0.596,0.386,0.824,0.677
		c0.228,0.29,0.402,0.643,0.522,1.059c0.121,0.415,0.181,0.878,0.181,1.388c0,0.571-0.078,1.081-0.234,1.527
		c-0.156,0.447-0.366,0.824-0.63,1.133s-0.563,0.543-0.897,0.704c-0.336,0.16-0.682,0.241-1.039,0.241
		c-0.295,0-0.592-0.072-0.892-0.215s-0.579-0.357-0.838-0.644h-0.054l-0.16,0.697h-1.542V151.746z M213.362,159.266
		c0.179,0.161,0.357,0.273,0.536,0.336s0.353,0.094,0.522,0.094c0.34,0,0.63-0.154,0.871-0.463s0.362-0.807,0.362-1.494
		c0-1.197-0.385-1.796-1.153-1.796c-0.393,0-0.772,0.2-1.139,0.603V159.266z"/>
	<path fill="#ED5C37" d="M219.005,154.494h1.97v3.874c0,0.482,0.067,0.813,0.201,0.992s0.344,0.268,0.63,0.268
		c0.25,0,0.46-0.058,0.63-0.174s0.354-0.304,0.55-0.563v-4.396h1.971v6.648h-1.608l-0.147-0.925h-0.041
		c-0.286,0.34-0.592,0.605-0.918,0.798c-0.326,0.191-0.717,0.288-1.173,0.288c-0.724,0-1.249-0.237-1.574-0.711
		c-0.327-0.474-0.489-1.13-0.489-1.97V154.494z"/>
	<path fill="#ED5C37" d="M226.27,162.282c0-0.536,0.316-0.983,0.951-1.341v-0.054c-0.179-0.116-0.326-0.264-0.442-0.442
		s-0.174-0.406-0.174-0.684c0-0.241,0.071-0.471,0.214-0.69c0.144-0.219,0.322-0.403,0.536-0.556v-0.054
		c-0.232-0.161-0.439-0.391-0.623-0.69c-0.183-0.299-0.274-0.646-0.274-1.039c0-0.401,0.075-0.752,0.228-1.052
		s0.355-0.55,0.61-0.751c0.254-0.201,0.547-0.351,0.878-0.449c0.33-0.098,0.674-0.147,1.032-0.147c0.393,0,0.736,0.054,1.031,0.161
		h2.427v1.435h-1.06c0.063,0.099,0.114,0.224,0.154,0.375c0.04,0.152,0.061,0.317,0.061,0.496c0,0.384-0.067,0.717-0.201,0.998
		c-0.134,0.282-0.319,0.515-0.556,0.697c-0.237,0.184-0.515,0.319-0.831,0.409c-0.317,0.089-0.659,0.134-1.025,0.134
		c-0.26,0-0.527-0.045-0.805-0.134c-0.09,0.071-0.152,0.143-0.188,0.214c-0.036,0.072-0.054,0.166-0.054,0.282
		c0,0.17,0.073,0.295,0.221,0.375s0.409,0.121,0.784,0.121h1.072c0.822,0,1.45,0.132,1.884,0.395c0.434,0.264,0.65,0.695,0.65,1.294
		c0,0.349-0.088,0.668-0.262,0.958c-0.175,0.291-0.422,0.541-0.744,0.751c-0.321,0.21-0.71,0.375-1.166,0.496
		c-0.456,0.12-0.97,0.181-1.541,0.181c-0.394,0-0.758-0.033-1.093-0.101c-0.335-0.066-0.63-0.167-0.885-0.302
		c-0.255-0.134-0.453-0.308-0.597-0.522C226.341,162.831,226.27,162.577,226.27,162.282z M227.891,161.974
		c0,0.25,0.135,0.44,0.402,0.569c0.269,0.13,0.626,0.194,1.072,0.194c0.447,0,0.813-0.078,1.1-0.234
		c0.285-0.156,0.429-0.351,0.429-0.583c0-0.206-0.087-0.344-0.262-0.415c-0.174-0.072-0.427-0.107-0.757-0.107h-0.684
		c-0.232,0-0.42-0.007-0.563-0.021c-0.143-0.014-0.268-0.033-0.375-0.061C228.012,161.531,227.891,161.75,227.891,161.974z
		 M229.205,157.846c0.259,0,0.476-0.092,0.649-0.275c0.175-0.183,0.262-0.462,0.262-0.838c0-0.349-0.087-0.614-0.262-0.797
		c-0.174-0.184-0.391-0.275-0.649-0.275c-0.26,0-0.477,0.09-0.65,0.269c-0.175,0.179-0.262,0.446-0.262,0.804
		c0,0.376,0.087,0.655,0.262,0.838C228.729,157.754,228.946,157.846,229.205,157.846z"/>
	<path fill="#ED5C37" d="M236.791,152.403h1.971v8.739h-1.971V152.403z"/>
	<path fill="#ED5C37" d="M240.664,154.494h1.608l0.134,0.845h0.054c0.286-0.269,0.599-0.503,0.938-0.704s0.737-0.302,1.193-0.302
		c0.724,0,1.248,0.237,1.574,0.711s0.489,1.131,0.489,1.971v4.128h-1.97v-3.874c0-0.482-0.065-0.813-0.194-0.991
		c-0.13-0.179-0.338-0.269-0.623-0.269c-0.251,0-0.465,0.056-0.644,0.168c-0.179,0.111-0.376,0.271-0.59,0.476v4.49h-1.971V154.494z
		"/>
	<path fill="#ED5C37" d="M248.6,156.036h-0.912v-1.461l1.019-0.081l0.229-1.77h1.635v1.77h1.596v1.542h-1.596v2.667
		c0,0.375,0.078,0.646,0.235,0.811c0.156,0.166,0.363,0.248,0.623,0.248c0.107,0,0.217-0.013,0.328-0.04
		c0.111-0.026,0.212-0.058,0.302-0.094l0.309,1.435c-0.18,0.054-0.39,0.106-0.631,0.16s-0.522,0.081-0.844,0.081
		c-0.411,0-0.762-0.063-1.053-0.188c-0.29-0.125-0.527-0.3-0.71-0.523c-0.184-0.223-0.317-0.493-0.402-0.811
		s-0.127-0.668-0.127-1.053V156.036z"/>
	<path fill="#ED5C37" d="M252.943,157.818c0-0.536,0.089-1.021,0.269-1.454c0.179-0.434,0.413-0.8,0.703-1.1
		c0.29-0.299,0.623-0.529,0.999-0.689c0.375-0.161,0.764-0.242,1.166-0.242c0.474,0,0.887,0.081,1.239,0.242
		c0.354,0.16,0.648,0.384,0.885,0.67c0.237,0.286,0.414,0.623,0.53,1.012c0.115,0.389,0.174,0.811,0.174,1.267
		c0,0.179-0.009,0.342-0.026,0.489c-0.019,0.147-0.036,0.262-0.054,0.342h-3.981c0.089,0.51,0.288,0.878,0.597,1.105
		c0.309,0.229,0.686,0.342,1.133,0.342c0.474,0,0.951-0.147,1.434-0.441l0.657,1.192c-0.34,0.232-0.717,0.416-1.133,0.55
		c-0.415,0.134-0.824,0.201-1.227,0.201c-0.474,0-0.916-0.079-1.327-0.234c-0.411-0.156-0.769-0.385-1.072-0.684
		c-0.304-0.3-0.54-0.664-0.71-1.093S252.943,158.373,252.943,157.818z M257.232,157.135c0-0.384-0.085-0.697-0.255-0.938
		c-0.169-0.241-0.455-0.361-0.857-0.361c-0.313,0-0.588,0.104-0.824,0.314c-0.237,0.21-0.391,0.539-0.463,0.985H257.232z"/>
	<path fill="#ED5C37" d="M259.725,162.282c0-0.536,0.316-0.983,0.951-1.341v-0.054c-0.179-0.116-0.326-0.264-0.442-0.442
		s-0.174-0.406-0.174-0.684c0-0.241,0.071-0.471,0.214-0.69c0.144-0.219,0.322-0.403,0.536-0.556v-0.054
		c-0.232-0.161-0.439-0.391-0.623-0.69c-0.183-0.299-0.274-0.646-0.274-1.039c0-0.401,0.075-0.752,0.228-1.052
		s0.355-0.55,0.61-0.751c0.254-0.201,0.547-0.351,0.878-0.449c0.33-0.098,0.674-0.147,1.032-0.147c0.393,0,0.736,0.054,1.031,0.161
		h2.427v1.435h-1.06c0.063,0.099,0.114,0.224,0.154,0.375c0.04,0.152,0.061,0.317,0.061,0.496c0,0.384-0.067,0.717-0.201,0.998
		c-0.134,0.282-0.319,0.515-0.556,0.697c-0.237,0.184-0.515,0.319-0.831,0.409c-0.317,0.089-0.659,0.134-1.025,0.134
		c-0.26,0-0.527-0.045-0.805-0.134c-0.09,0.071-0.152,0.143-0.188,0.214c-0.036,0.072-0.054,0.166-0.054,0.282
		c0,0.17,0.073,0.295,0.221,0.375s0.409,0.121,0.784,0.121h1.072c0.822,0,1.45,0.132,1.884,0.395c0.434,0.264,0.65,0.695,0.65,1.294
		c0,0.349-0.088,0.668-0.262,0.958c-0.175,0.291-0.422,0.541-0.744,0.751c-0.321,0.21-0.71,0.375-1.166,0.496
		c-0.456,0.12-0.97,0.181-1.541,0.181c-0.394,0-0.758-0.033-1.093-0.101c-0.335-0.066-0.63-0.167-0.885-0.302
		c-0.255-0.134-0.453-0.308-0.597-0.522C259.796,162.831,259.725,162.577,259.725,162.282z M261.346,161.974
		c0,0.25,0.135,0.44,0.402,0.569c0.269,0.13,0.626,0.194,1.072,0.194c0.447,0,0.813-0.078,1.1-0.234
		c0.285-0.156,0.429-0.351,0.429-0.583c0-0.206-0.087-0.344-0.262-0.415c-0.174-0.072-0.427-0.107-0.757-0.107h-0.684
		c-0.232,0-0.42-0.007-0.563-0.021c-0.143-0.014-0.268-0.033-0.375-0.061C261.467,161.531,261.346,161.75,261.346,161.974z
		 M262.66,157.846c0.259,0,0.476-0.092,0.649-0.275c0.175-0.183,0.262-0.462,0.262-0.838c0-0.349-0.087-0.614-0.262-0.797
		c-0.174-0.184-0.391-0.275-0.649-0.275c-0.26,0-0.477,0.09-0.65,0.269c-0.175,0.179-0.262,0.446-0.262,0.804
		c0,0.376,0.087,0.655,0.262,0.838C262.184,157.754,262.401,157.846,262.66,157.846z"/>
	<path fill="#ED5C37" d="M267.298,154.494h1.608l0.134,1.166h0.054c0.241-0.455,0.532-0.791,0.872-1.005
		c0.339-0.215,0.679-0.322,1.019-0.322c0.188,0,0.342,0.012,0.462,0.034c0.121,0.022,0.23,0.056,0.328,0.101l-0.321,1.702
		c-0.125-0.036-0.241-0.063-0.349-0.081c-0.107-0.018-0.232-0.026-0.375-0.026c-0.25,0-0.512,0.09-0.784,0.269
		s-0.498,0.495-0.677,0.951v3.86h-1.971V154.494z"/>
	<path fill="#ED5C37" d="M272.003,159.293c0-0.697,0.295-1.242,0.885-1.636c0.59-0.393,1.541-0.656,2.855-0.79
		c-0.019-0.295-0.107-0.53-0.269-0.704s-0.42-0.262-0.777-0.262c-0.286,0-0.572,0.054-0.858,0.161
		c-0.285,0.107-0.589,0.255-0.911,0.442l-0.697-1.3c0.43-0.26,0.878-0.47,1.348-0.63c0.469-0.161,0.967-0.242,1.494-0.242
		c0.858,0,1.513,0.244,1.964,0.73c0.451,0.487,0.677,1.245,0.677,2.272v3.807h-1.608l-0.147-0.684h-0.04
		c-0.286,0.25-0.588,0.454-0.905,0.61c-0.316,0.155-0.663,0.234-1.038,0.234c-0.304,0-0.576-0.052-0.818-0.154
		c-0.241-0.103-0.446-0.246-0.616-0.429c-0.17-0.184-0.302-0.396-0.396-0.637S272.003,159.579,272.003,159.293z M273.88,159.146
		c0,0.215,0.068,0.373,0.207,0.476s0.324,0.154,0.557,0.154s0.429-0.049,0.59-0.147s0.33-0.236,0.51-0.415v-1.167
		c-0.706,0.099-1.193,0.241-1.462,0.43C274.014,158.663,273.88,158.887,273.88,159.146z"/>
	<path fill="#ED5C37" d="M279.67,156.036h-0.912v-1.461l1.019-0.081l0.229-1.77h1.635v1.77h1.596v1.542h-1.596v2.667
		c0,0.375,0.078,0.646,0.235,0.811c0.156,0.166,0.363,0.248,0.623,0.248c0.107,0,0.217-0.013,0.328-0.04
		c0.111-0.026,0.212-0.058,0.302-0.094l0.309,1.435c-0.18,0.054-0.39,0.106-0.631,0.16s-0.522,0.081-0.844,0.081
		c-0.411,0-0.762-0.063-1.053-0.188c-0.29-0.125-0.527-0.3-0.71-0.523c-0.184-0.223-0.317-0.493-0.402-0.811
		s-0.127-0.668-0.127-1.053V156.036z"/>
	<path fill="#ED5C37" d="M284.013,157.818c0-0.536,0.089-1.021,0.269-1.454c0.179-0.434,0.413-0.8,0.703-1.1
		c0.29-0.299,0.623-0.529,0.999-0.689c0.375-0.161,0.764-0.242,1.166-0.242c0.474,0,0.887,0.081,1.239,0.242
		c0.354,0.16,0.648,0.384,0.885,0.67c0.237,0.286,0.414,0.623,0.53,1.012c0.115,0.389,0.174,0.811,0.174,1.267
		c0,0.179-0.009,0.342-0.026,0.489c-0.019,0.147-0.036,0.262-0.054,0.342h-3.981c0.089,0.51,0.288,0.878,0.597,1.105
		c0.309,0.229,0.686,0.342,1.133,0.342c0.474,0,0.951-0.147,1.434-0.441l0.657,1.192c-0.34,0.232-0.717,0.416-1.133,0.55
		c-0.415,0.134-0.824,0.201-1.227,0.201c-0.474,0-0.916-0.079-1.327-0.234c-0.411-0.156-0.769-0.385-1.072-0.684
		c-0.304-0.3-0.54-0.664-0.71-1.093S284.013,158.373,284.013,157.818z M288.302,157.135c0-0.384-0.085-0.697-0.255-0.938
		c-0.169-0.241-0.455-0.361-0.857-0.361c-0.313,0-0.588,0.104-0.824,0.314c-0.237,0.21-0.391,0.539-0.463,0.985H288.302z"/>
	<path fill="#ED5C37" d="M290.995,157.818c0-0.545,0.078-1.032,0.234-1.461s0.362-0.793,0.617-1.093
		c0.255-0.299,0.55-0.529,0.885-0.689c0.335-0.161,0.677-0.242,1.025-0.242c0.375,0,0.684,0.063,0.925,0.188s0.478,0.295,0.71,0.509
		l-0.08-1.019v-2.266h1.971v9.396h-1.609l-0.134-0.657h-0.054c-0.232,0.233-0.505,0.428-0.817,0.584
		c-0.313,0.155-0.63,0.234-0.951,0.234c-0.411,0-0.784-0.081-1.12-0.241c-0.335-0.161-0.621-0.392-0.857-0.69
		c-0.236-0.3-0.42-0.664-0.55-1.093C291.061,158.851,290.995,158.363,290.995,157.818z M293.02,157.792
		c0,0.661,0.104,1.144,0.314,1.447s0.508,0.456,0.892,0.456c0.215,0,0.409-0.045,0.583-0.135c0.175-0.089,0.342-0.245,0.503-0.469
		v-2.721c-0.179-0.161-0.362-0.272-0.55-0.335s-0.371-0.094-0.55-0.094c-0.313,0-0.59,0.149-0.831,0.448
		C293.14,156.69,293.02,157.157,293.02,157.792z"/>
	<path fill="#ED5C37" d="M303.676,154.065h-2.399v-1.662h6.782v1.662h-2.399v7.077h-1.983V154.065z"/>
	<path fill="#ED5C37" d="M307.858,157.818c0-0.536,0.089-1.021,0.269-1.454c0.179-0.434,0.413-0.8,0.703-1.1
		c0.29-0.299,0.623-0.529,0.999-0.689c0.375-0.161,0.764-0.242,1.166-0.242c0.474,0,0.887,0.081,1.239,0.242
		c0.354,0.16,0.648,0.384,0.885,0.67c0.237,0.286,0.414,0.623,0.53,1.012c0.115,0.389,0.174,0.811,0.174,1.267
		c0,0.179-0.009,0.342-0.026,0.489c-0.019,0.147-0.036,0.262-0.054,0.342h-3.981c0.089,0.51,0.288,0.878,0.597,1.105
		c0.309,0.229,0.686,0.342,1.133,0.342c0.474,0,0.951-0.147,1.434-0.441l0.657,1.192c-0.34,0.232-0.717,0.416-1.133,0.55
		c-0.415,0.134-0.824,0.201-1.227,0.201c-0.474,0-0.916-0.079-1.327-0.234c-0.411-0.156-0.769-0.385-1.072-0.684
		c-0.304-0.3-0.54-0.664-0.71-1.093S307.858,158.373,307.858,157.818z M312.147,157.135c0-0.384-0.085-0.697-0.255-0.938
		c-0.169-0.241-0.455-0.361-0.857-0.361c-0.313,0-0.588,0.104-0.824,0.314c-0.237,0.21-0.391,0.539-0.463,0.985H312.147z"/>
	<path fill="#ED5C37" d="M314.801,159.293c0-0.697,0.295-1.242,0.885-1.636c0.59-0.393,1.541-0.656,2.855-0.79
		c-0.019-0.295-0.107-0.53-0.269-0.704s-0.42-0.262-0.777-0.262c-0.286,0-0.572,0.054-0.858,0.161
		c-0.285,0.107-0.589,0.255-0.911,0.442l-0.697-1.3c0.43-0.26,0.878-0.47,1.348-0.63c0.469-0.161,0.967-0.242,1.494-0.242
		c0.858,0,1.513,0.244,1.964,0.73c0.451,0.487,0.677,1.245,0.677,2.272v3.807h-1.608l-0.147-0.684h-0.04
		c-0.286,0.25-0.588,0.454-0.905,0.61c-0.316,0.155-0.663,0.234-1.038,0.234c-0.304,0-0.576-0.052-0.818-0.154
		c-0.241-0.103-0.446-0.246-0.616-0.429c-0.17-0.184-0.302-0.396-0.396-0.637S314.801,159.579,314.801,159.293z M316.678,159.146
		c0,0.215,0.068,0.373,0.207,0.476s0.324,0.154,0.557,0.154s0.429-0.049,0.59-0.147s0.33-0.236,0.51-0.415v-1.167
		c-0.706,0.099-1.193,0.241-1.462,0.43C316.812,158.663,316.678,158.887,316.678,159.146z"/>
	<path fill="#ED5C37" d="M322.199,154.494h1.608l0.134,0.858h0.054c0.277-0.277,0.572-0.517,0.885-0.718s0.688-0.302,1.126-0.302
		c0.474,0,0.855,0.097,1.146,0.289c0.29,0.191,0.521,0.467,0.69,0.824c0.295-0.304,0.604-0.565,0.932-0.784
		c0.325-0.219,0.712-0.329,1.159-0.329c0.715,0,1.239,0.239,1.575,0.718c0.335,0.478,0.502,1.133,0.502,1.964v4.128h-1.97v-3.874
		c0-0.482-0.065-0.813-0.194-0.991c-0.13-0.179-0.338-0.269-0.624-0.269c-0.33,0-0.71,0.215-1.139,0.644v4.49h-1.971v-3.874
		c0-0.482-0.064-0.813-0.194-0.991s-0.338-0.269-0.623-0.269c-0.34,0-0.715,0.215-1.126,0.644v4.49h-1.971V154.494z"/>
</g>
</svg>
