<?xml version="1.0" encoding="UTF-8"?>
<svg width="80px" height="81px" viewBox="0 0 80 81" version="1.1" xmlns="http://www.w3.org/2000/svg" xmlns:xlink="http://www.w3.org/1999/xlink">
    <!-- Generator: Sketch 41.2 (35397) - http://www.bohemiancoding.com/sketch -->
    <title>dial</title>
    <desc>Created with Sketch.</desc>
    <defs></defs>
    <g id="Company---Overview" stroke="none" stroke-width="1" fill="none" fill-rule="evenodd">
        <g id="Comapny_About-us_1920-1440" transform="translate(-970.000000, -1410.000000)">
            <g id="Clock" transform="translate(970.000000, 1410.000000)">
                <g id="dial">
                    <circle id="Oval-5" fill="#C3C3C3" cx="40" cy="3" r="3"></circle>
                    <circle id="Oval-4" cx="40" cy="40" r="37"></circle>
                    <circle id="Oval-5-Copy-2" fill="#C3C3C3" cx="3" cy="40" r="3"></circle>
                    <circle id="Oval-5-Copy-3" fill="#C3C3C3" cx="77" cy="40" r="3"></circle>
                    <circle id="Oval-5-Copy" fill="#C3C3C3" cx="40" cy="77.5" r="3"></circle>
                    <g id="Group-11" transform="translate(40.000000, 40.500000) rotate(45.000000) translate(-40.000000, -40.500000) translate(38.000000, 1.000000)" fill="#D8D8D8">
                        <circle id="Oval-5-Copy-4" cx="2" cy="2" r="2"></circle>
                        <circle id="Oval-5-Copy-5" cx="2" cy="76.5" r="2"></circle>
                    </g>
                    <circle id="Oval-5-Copy-4" fill="#D8D8D8" cx="12.6550686" cy="15.9834957" r="2"></circle>
                    <circle id="Oval-5-Copy-5" fill="#D8D8D8" cx="65.3345238" cy="68.6629509" r="2"></circle>
                    <g id="Group-11-Copy-2" transform="translate(40.000000, 40.500000) rotate(-65.000000) translate(-40.000000, -40.500000) translate(38.000000, 1.000000)" fill="#D8D8D8">
                        <circle id="Oval-5-Copy-4" cx="2" cy="2" r="2"></circle>
                        <circle id="Oval-5-Copy-5" cx="2" cy="76.5" r="2"></circle>
                    </g>
                    <g id="Group-11-Copy-4" transform="translate(40.000000, 40.500000) rotate(-25.000000) translate(-40.000000, -40.500000) translate(38.000000, 1.000000)" fill="#D8D8D8">
                        <circle id="Oval-5-Copy-4" cx="2" cy="2" r="2"></circle>
                        <circle id="Oval-5-Copy-5" cx="2" cy="76.5" r="2"></circle>
                    </g>
                    <g id="Group-11-Copy-5" transform="translate(40.000000, 40.500000) rotate(25.000000) translate(-40.000000, -40.500000) translate(38.000000, 1.000000)" fill="#D8D8D8">
                        <circle id="Oval-5-Copy-4" cx="2" cy="2" r="2"></circle>
                        <circle id="Oval-5-Copy-5" cx="2" cy="76.5" r="2"></circle>
                    </g>
                    <g id="Group-11-Copy-3" transform="translate(40.000000, 40.500000) rotate(65.000000) translate(-40.000000, -40.500000) translate(38.000000, 1.000000)" fill="#D8D8D8">
                        <circle id="Oval-5-Copy-4" cx="2" cy="2" r="2"></circle>
                        <circle id="Oval-5-Copy-5" cx="2" cy="76.5" r="2"></circle>
                    </g>
                </g>
            </g>
        </g>
    </g>
</svg>