<?xml version="1.0" encoding="utf-8"?>
<!-- Generator: Adobe Illustrator 16.0.0, SVG Export Plug-In . SVG Version: 6.00 Build 0)  -->
<!DOCTYPE svg PUBLIC "-//W3C//DTD SVG 1.1//EN" "http://www.w3.org/Graphics/SVG/1.1/DTD/svg11.dtd">
<svg version="1.1" id="Layer_1" xmlns="http://www.w3.org/2000/svg" xmlns:xlink="http://www.w3.org/1999/xlink" x="0px" y="0px"
	 width="232.5px" height="124.5px" viewBox="0 0 232.5 124.5" enable-background="new 0 0 232.5 124.5" xml:space="preserve">
<title>Map</title>
<desc>Created with Sketch.</desc>
<path id="Line" fill="none" stroke="#F26B35" stroke-linecap="square" d="M9.151,1.091l0.263,0.263"/>
<g id="Map">
	<circle id="Oval-3" fill="#F26B35" cx="101.371" cy="41.706" r="0.701"/>
	<circle id="Oval-3-2" fill="#F26B35" cx="99.968" cy="38.901" r="0.701"/>
	<circle id="Oval-3-Copy-5" fill="#F26B35" cx="31.255" cy="51.522" r="0.701"/>
	<circle id="Oval-3-Copy-6" fill="#F26B35" cx="113.991" cy="41.18" r="0.701"/>
	<circle id="Oval-3-Copy-6-2" fill="#F26B35" cx="122.055" cy="31.539" r="0.701"/>
	<circle id="Oval-3-Copy-2" fill="#F26B35" cx="107.681" cy="46.193" r="0.701"/>
	<circle id="Oval-3-Copy-2-2" fill="#F26B35" cx="224.599" cy="108.842" r="0.701"/>
	<circle id="Oval-3-Copy-2-3" fill="#F26B35" cx="222.583" cy="116.729" r="0.701"/>
	<circle id="Oval-3-Copy-2-4" fill="#F26B35" cx="108.382" cy="48.542" r="0.701"/>
	<circle id="Oval-3-3" fill="#F26B35" cx="105.683" cy="41.881" r="0.701"/>
	<circle id="Oval-3-4" fill="#F26B35" cx="96.322" cy="38.919" r="0.701"/>
	<circle id="Oval-3-Copy-5-2" fill="#F26B35" cx="38.179" cy="50.313" r="0.701"/>
	<circle id="Oval-3-Copy-5-4" fill="#F26B35" cx="13.007" cy="53.818" r="0.701"/>
	<circle id="Oval-3-Copy-5-5" fill="#F26B35" cx="23.507" cy="62.74" r="0.701"/>
	<circle id="Oval-3-Copy-5-6" fill="#F26B35" cx="8.73" cy="59.498" r="0.701"/>
	<circle id="Oval-3-Copy-7" fill="#F26B35" cx="39.739" cy="54.958" r="0.701"/>
	<g id="Notes-_-Callout-S-Copy" transform="translate(0.000000, 93.000000)">
		<path id="Callout-Background" fill="#F26B35" d="M2.175-44.633C1.421-43.879,1-42.845,1-41.776s0.421,2.104,1.175,2.857
			l2.629,2.629c0.052,0.053,0.14,0.088,0.228,0.088c0.088,0,0.175-0.035,0.228-0.088l2.629-2.629c1.578-1.578,1.578-4.137,0-5.714
			S3.752-46.211,2.175-44.633L2.175-44.633z"/>
	</g>
	<g id="Group" transform="translate(16.000000, 110.000000)">
		<path id="Shape" fill="#F26B35" d="M-11.266-59.617c0.105,0.087,0.175,0.21,0.175,0.351l-0.333,0.017
			c0-0.07-0.018-0.123-0.07-0.158c-0.052-0.052-0.123-0.07-0.175-0.07c-0.052-0.018-0.123,0-0.158,0.035
			c-0.035,0.035-0.07,0.105-0.07,0.158c0,0.052,0.018,0.105,0.07,0.123c0.07,0.035,0.158,0.07,0.246,0.087
			c0.123,0.035,0.263,0.088,0.386,0.175c0.087,0.07,0.14,0.175,0.14,0.298c0,0.14-0.053,0.28-0.158,0.351
			c-0.14,0.087-0.281,0.123-0.421,0.123c-0.158,0-0.315-0.035-0.456-0.14c-0.123-0.088-0.175-0.228-0.175-0.368l0.333-0.018
			c0,0.07,0.035,0.14,0.105,0.175c0.07,0.035,0.123,0.07,0.193,0.053c0.175,0,0.246-0.07,0.246-0.175
			c0-0.123-0.088-0.158-0.315-0.21c-0.105-0.018-0.158-0.035-0.21-0.053c-0.053-0.018-0.123-0.052-0.158-0.087
			c-0.105-0.07-0.175-0.175-0.158-0.315c0-0.141,0.052-0.263,0.14-0.351c0.123-0.088,0.263-0.141,0.42-0.141
			C-11.529-59.758-11.371-59.705-11.266-59.617z"/>
		<polygon id="Shape_1_" fill="#F26B35" points="-9.513,-59.442 -10.197,-59.442 -10.197,-59.109 -9.636,-59.109 -9.636,-58.811 
			-10.197,-58.811 -10.197,-58.163 -10.512,-58.163 -10.512,-59.74 -9.496,-59.74 -9.496,-59.442 		"/>
	</g>
	<g id="Notes-_-Callout-S-Copy-2" transform="translate(684.000000, 30.000000)">
		<path id="Callout-Background-2" fill="#F26B35" d="M-564.627,5.396c-0.754,0.753-1.175,1.788-1.175,2.857s0.421,2.104,1.175,2.857
			l2.63,2.629c0.052,0.052,0.14,0.087,0.227,0.087c0.088,0,0.176-0.035,0.229-0.087l2.629-2.629c1.035-1.017,1.42-2.507,1.053-3.909
			c-0.369-1.402-1.473-2.471-2.857-2.839S-563.61,4.379-564.627,5.396L-564.627,5.396z"/>
		<g id="Group_1_" transform="translate(9.000000, 18.000000)">
			<polygon id="Shape_2_" fill="#F26B35" points="-573.065,-9.379 -572.382,-9.379 -572.382,-9.099 -573.399,-9.099 
				-573.399,-10.676 -573.065,-10.676 			"/>
			<polygon id="Shape_3_" fill="#F26B35" points="-571.384,-9.099 -571.663,-9.099 -572.33,-10.676 -571.979,-10.676 
				-571.523,-9.607 -571.085,-10.676 -570.735,-10.676 			"/>
			<polygon id="Shape_4_" fill="#F26B35" points="-569.911,-9.099 -570.244,-9.099 -570.244,-10.676 -569.911,-10.676 			"/>
			<polygon id="Shape_5_" fill="#F26B35" points="-568.509,-9.099 -568.771,-9.099 -569.438,-10.676 -569.087,-10.676 
				-568.649,-9.607 -568.192,-10.676 -567.843,-10.676 			"/>
		</g>
	</g>
	<path id="Line_1_" fill="none" stroke="#F26B35" d="M9.432,0.601l0.263,0.263"/>
</g>
<g id="Group-11-Copy" transform="translate(1310.000000, 1988.500000) rotate(-45.000000) translate(-1310.000000, -1988.500000) translate(1308.000000, 1949.000000)">
</g>
</svg>
