<?xml version="1.0" encoding="utf-8"?>
<!-- Generator: Adobe Illustrator 16.0.0, SVG Export Plug-In . SVG Version: 6.00 Build 0)  -->
<!DOCTYPE svg PUBLIC "-//W3C//DTD SVG 1.1//EN" "http://www.w3.org/Graphics/SVG/1.1/DTD/svg11.dtd">
<svg version="1.1" id="Layer_1" xmlns="http://www.w3.org/2000/svg" xmlns:xlink="http://www.w3.org/1999/xlink" x="0px" y="0px"
	 width="78.44px" height="88.96px" viewBox="0 0 78.44 88.96" enable-background="new 0 0 78.44 88.96" xml:space="preserve">
<metadata><?xpacket begin="﻿" id="W5M0MpCehiHzreSzNTczkc9d"?>
<x:xmpmeta xmlns:x="adobe:ns:meta/" x:xmptk="Adobe XMP Core 5.3-c011 66.145661, 2012/02/06-14:56:27        ">
   <rdf:RDF xmlns:rdf="http://www.w3.org/1999/02/22-rdf-syntax-ns#">
      <rdf:Description rdf:about=""
            xmlns:dc="http://purl.org/dc/elements/1.1/">
         <dc:format>image/svg+xml</dc:format>
         <dc:title>
            <rdf:Alt>
               <rdf:li xml:lang="x-default">Print</rdf:li>
            </rdf:Alt>
         </dc:title>
      </rdf:Description>
      <rdf:Description rdf:about=""
            xmlns:xmp="http://ns.adobe.com/xap/1.0/"
            xmlns:xmpGImg="http://ns.adobe.com/xap/1.0/g/img/">
         <xmp:MetadataDate>2018-08-10T11:06:41+05:30</xmp:MetadataDate>
         <xmp:ModifyDate>2018-08-10T11:06:41+05:30</xmp:ModifyDate>
         <xmp:CreateDate>2018-08-10T11:06:40+05:30</xmp:CreateDate>
         <xmp:CreatorTool>Adobe Illustrator CS6 (Windows)</xmp:CreatorTool>
         <xmp:Thumbnails>
            <rdf:Alt>
               <rdf:li rdf:parseType="Resource">
                  <xmpGImg:width>228</xmpGImg:width>
                  <xmpGImg:height>256</xmpGImg:height>
                  <xmpGImg:format>JPEG</xmpGImg:format>
                  <xmpGImg:image>/9j/4AAQSkZJRgABAgEASABIAAD/7QAsUGhvdG9zaG9wIDMuMAA4QklNA+0AAAAAABAASAAAAAEA&#xA;AQBIAAAAAQAB/+4ADkFkb2JlAGTAAAAAAf/bAIQABgQEBAUEBgUFBgkGBQYJCwgGBggLDAoKCwoK&#xA;DBAMDAwMDAwQDA4PEA8ODBMTFBQTExwbGxscHx8fHx8fHx8fHwEHBwcNDA0YEBAYGhURFRofHx8f&#xA;Hx8fHx8fHx8fHx8fHx8fHx8fHx8fHx8fHx8fHx8fHx8fHx8fHx8fHx8fHx8f/8AAEQgBAADkAwER&#xA;AAIRAQMRAf/EAaIAAAAHAQEBAQEAAAAAAAAAAAQFAwIGAQAHCAkKCwEAAgIDAQEBAQEAAAAAAAAA&#xA;AQACAwQFBgcICQoLEAACAQMDAgQCBgcDBAIGAnMBAgMRBAAFIRIxQVEGE2EicYEUMpGhBxWxQiPB&#xA;UtHhMxZi8CRygvElQzRTkqKyY3PCNUQnk6OzNhdUZHTD0uIIJoMJChgZhJRFRqS0VtNVKBry4/PE&#xA;1OT0ZXWFlaW1xdXl9WZ2hpamtsbW5vY3R1dnd4eXp7fH1+f3OEhYaHiImKi4yNjo+Ck5SVlpeYmZ&#xA;qbnJ2en5KjpKWmp6ipqqusra6voRAAICAQIDBQUEBQYECAMDbQEAAhEDBCESMUEFURNhIgZxgZEy&#xA;obHwFMHR4SNCFVJicvEzJDRDghaSUyWiY7LCB3PSNeJEgxdUkwgJChgZJjZFGidkdFU38qOzwygp&#xA;0+PzhJSktMTU5PRldYWVpbXF1eX1RlZmdoaWprbG1ub2R1dnd4eXp7fH1+f3OEhYaHiImKi4yNjo&#xA;+DlJWWl5iZmpucnZ6fkqOkpaanqKmqq6ytrq+v/aAAwDAQACEQMRAD8AQuofQuZof99Oyb/5JpnF&#xA;kUX1eEuKIPepYs3Yq7FXYq7FXYq7FXYq7FXYq7FXYq7FXYq7FXYq7FXYq7FXYq7FXYq7FXYq7FXY&#xA;q7FXuH1M/wDKk/S/5cfW6/8AFnq5vuH/AAOvL9NvD+J/rnf9Ovsp5J5rg+r+aNXhpQJeXAX5eq1O&#xA;ntmm1ArJIeZet0MuLBA/0Y/clWVOW7FXYq7FXYq7FXYq7FXYq7FXYq7FXYq7FXYq7FXYq7FXYq7F&#xA;XYq7FXYq7FXYq7FXYq+kfqX/ACDj6lQ1/Q/pU2rX6tx69K51HD/g9f0P0Pm/if4bxf7bf+yeJ/mR&#xA;B6HnjV0pSswk6U/vEV/+Ns0GtjWaXve17HlxaWB8vuNMazGdm7FXYq7FXYq7FXYq7FXYq7FXYq7F&#xA;XYqjksoWRSa1IB65UZlhxLvqMPi334OMrxO+ow+LffjxleJ31GHxb78eMrxO+ow+LffjxleJ31GH&#xA;xb78eMrxO+ow+LffjxleJ31GHxb78eMrxO+ow+LffjxleJ31GHxb78eMrxO+ow+LffjxleJRubaO&#xA;KMMtak03yUZEpBQuWMm1VnYKoqzEAD3OKCafV31SP6l9U/3X6fpdO3Hj0zseD08Pk+U+IeLi87eC&#xA;/nBB6fni6elPWihfpStIwn0/YznO0h++Pw+57z2flelA7ifvYVmC7t2KuxV2KuxV2KuxV2KuxV2K&#xA;uxV2KuxVNYv7tP8AVH6sxzzaivwK7FXYq7FXYq7FXYq7FXYq7FUJfn4EHicsxsooLLWaO0KD6xre&#xA;n29K+tcwx0pX7UgHTvk8cbkB5tGplw4pHuifufU+di+WPD/zxgCeaLSYCnq2aA/NZJP4EZz3aw/e&#xA;j+r+t7f2aleCQ7pfoDzrNY9G7FXYq7FXYq7FXYq7FXYq7FXYq7FXYqmsX92n+qP1Zjnm1FfgV2Ku&#xA;xV2KuxV2KuxV2KuxV2KoLUDug+eW42UUJljNPvIcHr+ctGSlaXUb9K/3Z5/8a5kaQXlj7w4HakuH&#xA;TZD/AET9r6XzrHzR4/8AnzBS70e4/njnj/4Aof8AjfNH2vH1RPvew9l5emY8x+n9TyrNO9U7FXYq&#xA;7FUfbaBrt1Atxa6ddTwPXhLFDI6GhoaMqkGhFMtjgySFiJI9zjZNZhgeGU4g9xkFX/C3mb/q0Xv/&#xA;AEjy/wDNOH8tl/my+RYfyhp/9Uh/ph+t3+FvM3/Vovf+keX/AJpx/LZf5svkV/lDT/6pD/TD9bv8&#xA;LeZv+rRe/wDSPL/zTj+Wy/zZfIr/AChp/wDVIf6Yfrd/hbzN/wBWi9/6R5f+acfy2X+bL5Ff5Q0/&#xA;+qQ/0w/W7/C3mb/q0Xv/AEjy/wDNOP5bL/Nl8iv8oaf/AFSH+mH63f4W8zf9Wi9/6R5f+acfy2X+&#xA;bL5Ff5Q0/wDqkP8ATD9bv8LeZv8Aq0Xv/SPL/wA04/lsv82XyK/yhp/9Uh/ph+t3+FvM3/Vovf8A&#xA;pHl/5px/LZf5svkV/lDT/wCqQ/0w/WmsXlbzP6af7iL37I/495fD/Vyk6XL/ADJfIsDr9P8A6pD/&#xA;AEw/Wu/wt5n/AOrRe/8ASPL/AM04PyuX+ZL5FH5/B/qkP9MHf4W8z/8AVovf+keX/mnH8rl/mS+R&#xA;X8/g/wBUh/pg7/C3mf8A6tF7/wBI8v8AzTj+Vy/zJfIr+fwf6pD/AEwd/hbzP/1aL3/pHl/5px/K&#xA;5f5kvkV/P4P9Uh/pg7/C3mf/AKtF7/0jy/8ANOP5XL/Ml8iv5/B/qkP9MHf4W8z/APVovf8ApHl/&#xA;5px/K5f5kvkV/P4P9Uh/pg7/AAt5n/6tF7/0jy/804/lcv8AMl8iv5/B/qkP9MHHyv5lUEnSb0Ab&#xA;km3loB/wOP5XL/Nl8ika7B/qkP8ATBLMx3KdiqAvz+9A8F/icuhyZxQ2TZMu/KiAS+e9OqKrGJpD&#xA;17QvTp7kZmdni80fx0dR27KtJPzr7w+h86h88eYfnvDXStLm/knkT/g0B/40zT9rj0xPveo9mJfv&#xA;JjyDxnNG9k7FXYq7FXuH5WTep5Otkr/cyTJ97l/+Ns6XsyV4R5Evn/tBGtUT3gfdTLc2DpHYq7FX&#xA;Yq7FXYq7FXYqm0X92nyH6sCV2KuxV2KuxV2KuxV2KoDX5fR0LUpv992sz/8AAxscp1JrHI/0T9zk&#xA;aSN5oDvkPvfOOcQ+muxVLrw1nPsAPwy6HJnHkoZNkz/8lIPU84u/++bSV/vZE/43zY9lxvL7g6D2&#xA;jlWmrvkP0l7tnRvCMA/OyH1PJ8T/AO+byJ/vR0/42zWdqj90P6363f8As3KtQR3xP6HhOc8927FX&#xA;Yq7FXsX5OzcvLdzGesd29Pk0aH9dc6Dsk/uyPP8AU8N7SxrPE98P0lnebV512KuxV2KuxV2KuxV2&#xA;KptF/dp8h+rAldirsVdirsVdirsVdiqReepvS8o6o/jAU/4MhP8AjbMPtA1gl7nYdlRvUw975/zj&#xA;n0V2KpZcms7/ADp92Xx5NgUskl6f+RMNdY1Of+S3RP8Ag3r/AMaZteyR6yfJ5j2nl+7gP6X6Hs2b&#xA;94xiH5swer5E1AjcxGGQD5TID+BzB7SjeE/D73b9hSrVR87+4vnnOZfQ3Yq7FXYq9U/JaWtrqsP8&#xA;jwv/AMGHH/Gmbvsc7S+H6Xj/AGoj6sZ8j+h6Tm6eUdirsVdirsVdirsVdiqbRf3afIfqwJXYq7FX&#xA;Yq7FXYq7FXYqxT80JvT8mXi95XhQf8jVb/jXNd2rKsB86+92/YUb1UfK/ueG5yb3zsVSqU1lc/5R&#xA;/XmQOTYFmFL1/wDIaGltrM/87wJX/UEh/wCN83XZA+r4fpeQ9qJerGP636Hq2bp5RIPP0Hr+TNYS&#xA;laWzydK/3fx/8a5i62N4Ze52HZUuHUwP9L79nzTnKvpTsVdirsVejfkxNTUtSh/nhR/+AYj/AI3z&#xA;bdkH1yHk8v7Tx/dwPmfx9j1fN+8Y7FXYq801z81tS03WLywFhC620zxq5ZwSqmgJ+jNJm7TnCZjQ&#xA;2L1mk9nseXFGfEfUAeiC/wCVzap/1boP+DfK/wCV59wb/wDQxj/ny+x3/K5tU/6t0H/Bvj/K8+4L&#xA;/oYx/wA+X2O/5XNqn/Vug/4N8f5Xn3Bf9DGP+fL7Hf8AK5tU/wCrdB/wb4/yvPuC/wChjH/Pl9ia&#xA;x/nPqnpr/uOg6D9t/DKz21P+aGP+hrH/AD5fYu/5XPqn/Vug/wCCfB/LU/5oX/Q1j/ny+x3/ACuf&#xA;VP8Aq3Qf8E+P8tT/AJoX/Q1j/ny+x3/K59U/6t0H/BPj/LU/5oX/AENY/wCfL7Hf8rn1T/q3Qf8A&#xA;BPj/AC1P+aF/0NY/58vsd/yufVP+rdB/wT4/y1P+aF/0NY/58vsd/wArn1T/AKt0H/BPj/LU/wCa&#xA;F/0NY/58vsd/yufVP+rdB/wT4/y1P+aF/wBDWP8Any+xKPNH5iX3mDTBYTWscCeoshdGYk8Qdt/n&#xA;mNqu0ZZo8JADm6HsaGnycYkTtTEs1zuHYVSgmpJ8cvbGsKXt/wCRtvw8sXk5G8t4wHySNP4sc3/Z&#xA;Mf3ZPm8R7SzvPEd0f0l6Nm1ecQGvwfWNB1KClfVtZkpSteUbDplWcXjkPIuRpZcOWB7pD73yznIP&#xA;qTsVdirsVZx+UM3DzTKldpbWRae4dG/41zZdlSrL7w8/7SRvTg90h9xey50bwjsVdirwX8xIfR85&#xA;6mvi6P8A8HErfxzldfGs0n0bsWXFpYHyP2EsczEdq7FXYq7FU1i/u0/1R+rMc82or8CuxV2KuxV2&#xA;KuxV2KuxV2KrXNEY+AOEKlOZDa7FXv8A+TsHpeR7d6U9eaaTpStH4fT9jOk7MjWH3kvAe0Er1RHc&#xA;B+tm2bB0jToroyMKqwIYexwEWkGjb5OljaKV42+0jFT8waZxj6vE2LWYsnYq7FWVfljN6XnOyBNB&#xA;KsqHen+6mI/EZm9nGs0fj9zp+3o3pJeVfeHuedQ+eOxV2KvE/wA14uHm6Rv9+wRP9wK/8a5zPaYr&#xA;Mfg9/wCz0r0o8iWHZgO8dirsVdiqaxf3af6o/VmOebUV+BXYq7FXYq7FXYq7FXYq7FVOc0hf5HJR&#xA;5pCV5e2OxV9IflrB6HkbSUpSsTP0p/eSM/8AxtnUaAVhj+Or5x2xLi1Uz5/cGS5mOsdir5b8yQfV&#xA;/MWqQf76u50/4GRh3zj80amR3EvqOjlxYYHviPuS7K3JdirsVTzyRN6Xm3SmrStwqf8AB/B/xtmR&#xA;pDWWPvdf2rG9NkH9H7n0DnWvmjsVdiryL85Iqa7ZTfz2oT/gJHP/ABtnPdrD94P6v6S9t7My/cyH&#xA;9L9Aef5q3pXYq7FXYqmsX92n+qP1Zjnm1FfgV2KuxV2KuxV2KuxV2KuxVRuzS3b6P15KHNI5pbl7&#xA;Y7FX1B5SgEHlbSIaUKWcAbr9r01J6++dbphWKPuD5hr5cWeZ/pS+9NcvcR2Kvmv8wofR866wnjcM&#xA;/wDwYD/8bZyesFZZe99J7Jlemh/VY9mO7F2KuxVHaHN6GtafNWnpXML1/wBWQHvlmKVTB7iHH1ce&#xA;LFMd8T9z6PzsXyx2KuxVY8MMhBkRXI6FgD+vImIPNkJEcit+qWv++U/4Ef0weHHuDLxJd5d9Utf9&#xA;8p/wI/pj4ce4L4ku8u+qWv8AvlP+BH9MfDj3BfEl3l31S1/3yn/Aj+mPhx7gviS7ym0dpa+mv7mP&#xA;oP2R4fLB4ce4L4ku8rvqlp/vmP8A4Ef0x8OPcF8SXeXfVLT/AHzH/wACP6Y+HHuC+JLvLvqlp/vm&#xA;P/gR/THw49wXxJd5d9UtP98x/wDAj+mPhx7gviS7y76paf75j/4Ef0x8OPcF8SXeXfVLT/fMf/Aj&#xA;+mPhx7gviS7y76paf75j/wCBH9MfDj3BfEl3l4j+ZzJ/jG7jRQqxJCtFFBvGrf8AG2cr2pXjkDy+&#xA;57vsMH8tEnrf3sVzXu3Q98aQfMgZOHNlFL8uZuxV9YWcHoWkEH++o1Tx+yoGdlCNRAfKMkuKRPeV&#xA;XJMHYq+fPzch9Pz3fN/v1IH/AOSSr/xrnMdoj98fh9z6D2DK9LHyv7yw3MJ3LsVdiq5HKOrr9pSC&#xA;PmMUEWKfTMbh0V16MAw+R3ztAbFvk0hRpdhQ7FXYq7FXYq7FXYqm0X92nyH6sCV2KuxV2KuxV2Ku&#xA;xV2Kvn/z3N6vm/VH8Jin/AAJ/wAa5xuuN5pe99F7KjWmh7kizEdghb8/u1Hia5ZjZRQOWs0XpMPr&#xA;6rZwf79niT/gnAyUBZAac8uHHI9wL6qzsnyt2KuxV4Z+d1v6fm2CUDaazjJPuski/qAzne1Y1l94&#xA;e59m53pyO6R+4PPc1r0LsVdirsVfR2gy+toWnTf78tYX/wCCjU51+nN44/1R9z5brI8OaY7pS+9H&#xA;5c4zsVdirsVdirsVdiqbRf3afIfqwJXYq7FXYq7FXYq7FXYq+cvMM3r6/qU3aS6mcfIyMc4jUSvJ&#xA;I95P3vpujjw4YDuiPuS/KXIQeoHdB8/4ZbjZRQeWM078kQ+t5w0ZPC8hf/gHDd/9XL9KLyx/rBwe&#xA;0pVp8h/on7n01nWvmbsVdirxz894OOo6TcU/vIZY60/kZT1/2eaHtePqifJ7H2Yl6JjzH4+x5bmp&#xA;epdirsVdir07QPzV0rT9FsrGe0uHltoliZ04cTxFNqtXNzg7TjCAiQdnktZ7PZMuWUxKIEjfVH/8&#xA;rl0P/lhuv+Sf/NWW/wArw/mlxv8AQxm/nR+39Tv+Vy6H/wAsN1/yT/5qx/leH80r/oYzfzo/b+p3&#xA;/K5dD/5Ybr/kn/zVj/K8P5pX/Qxm/nR+39Tv+Vy6H/yw3X/JP/mrH+V4fzSv+hjN/Oj9v6nf8rl0&#xA;P/lhuv8Akn/zVj/K8P5pX/Qxm/nR+39Tv+Vy6H/yw3X/ACT/AOasf5Xh/NK/6GM386P2/qd/yuXQ&#xA;/wDlhuv+Sf8AzVj/ACvD+aV/0MZv50ft/Um0f5y6H6a/6DddB/vvw/1sge2ofzSj/Q1l/nR+1d/y&#xA;uXQ/+WG5/wCSf/NWP8tQ/mlf9DeX+dH7Xf8AK5dD/wCWG5/5J/8ANWP8tQ/mlf8AQ3l/nR+13/K5&#xA;dD/5Ybn/AJJ/81Y/y1D+aV/0N5f50ftZN5V81WnmO0mubaGSFIZPTIl41JoG24k+OZ2k1YzgkCqd&#xA;Xr9BLTSEZEGxeydZluA7FWmYKpZjRQKknwGJKgW+ZppDLK8rdXYse+5Nc4Mmy+pxFClmBkgb8/vV&#xA;Hgv8cthyZxQuWMmV/lZb+t570sEfChlkP+whcj8aZl6CN5o/jo6ntufDpZ/D7w+is6l87dirsVeW&#xA;fnxBWx0ien2JZkr/AK6qf+NM03a42iff+h6n2Xl65jyH6XjuaR7F2KuxV2KuxV2KuxV2KuxV2Kux&#xA;V2KprF/dp/qj9WY55tRX4FdirsVez/lDFw8qu3+/bqR/uVF/41zqOxxWE/1v1PEe0Ur1A8oj9LNs&#xA;2roXYqg9Zm9DR76atPSt5Xr0+yhOVZzWOR8i36aPFliO+Q+983Zw76c7FUvvTWc+wGXQ5M48kPk2&#xA;TO/yYt/V86K9K+hbSydK0rxT6Pt5sOzI3m9wLovaKVaau+Q/W96zpHgnYq7FXnn53wB/KltKB8UV&#xA;4hrv9lo5Afxpmr7WH7sHz/W9D7NSrUEd8T94eG5z73LsVdirsVeifl55L8v69os1zfJIbiK4aL4J&#xA;Co4hEYGlP8o5tdBo8eWBMru3mO2u1M+nyiMK4TG+XmWUf8qo8o/77n/5Gn+mZ38lYvN1H+iLU98f&#xA;k7/lVHlH/fc//I0/0x/krF5r/oi1PfH5KV3+VflVLWZ4o5vUVGKVlNOQBpXbIz7LxCJItnj9oNSZ&#xA;AEir7njGc8927FXYq7FU1i/u0/1R+rMc82or8CuxV2Kvdfyzh9LyXYE9ZDK5+mVgPwGdb2XGsEfj&#xA;97wHbkr1UvKvuDKM2DqXYqkvnWb0fKeqvWlbZ0/4McP+NsxNdKsMvc53ZkeLUwH9IfZu+fM419Hd&#xA;iqWXRrcP/n2y+PJsHJSySXpf5FQV17UZ6fYtQlf9eRT/AMaZteyR+8J8nmfaaX7qI/pfoe1Zv3i3&#xA;Yq7FWGfm9B6nkW8f/fMkD/fKqf8AG+YHacbwnyp3PYEq1UR3g/db59zmn0F2KuxV2KvV/wAmJq6f&#xA;qcNfsSxvT/XUj/jTN52OdpD3PG+1EfXA+R/H2vRs3LyzsVdir5nuovRuZYf99uyf8CaZxZFF9YhL&#xA;iiD3hSwM3Yq7FU1i/u0/1R+rMc82or8CuxV2KvoPyVD6PlPSkpStsj/8jBz/AONs7LQxrDH3PnHa&#xA;cuLUzP8ASP2bJ1mW4LsVYv8AmZN6Xku/HeQxIPplUn8Ac1/akqwS+H3u27Ejeqj5X9xeFZyT37sV&#xA;SqY1mc/5R/XmQOTYFmFL1z8hoBx1qcjcm3jU79vUJ/hm57IH1H3fpeR9qJf3Y/rfoes5u3k3Yq7F&#xA;WO/mJD63knV08IC//AMH/wCNcxNcLwydj2RKtVD3vmzOWfSXYq7FXYq9J/Jeal5qkNftxxPT/UZh&#xA;/wAb5t+yJeqQ8nlfaiPogfM/o/U9UzfPHOxV2KvnXzND6HmPVIugS7mC/L1DTp7Zx+oFZJDzL6ho&#xA;ZcWCB/ox+5LMqct2KuxVNYv7tP8AVH6sxzzaivwK7FXYq+kdFh9DRrCGlPSt4kpSn2UA6Z3GAVji&#xA;PIPmOqlxZZHvkfvRmWtDsVYT+bsvDyqi/wC/bqNPuV2/41zVdsGsI/rfrd77OxvUHyif0PGM5d7h&#xA;2KpQxqxPia5kNjWFL2z8i4KeXtQn/wB+XfD/AICJD/xvm+7Ij6CfN4r2ml++iP6P6T+p6Tm2eadi&#xA;rsVS3zND6/lvVYe8tncIP9lEw75TqBeOX9U/c5Oilw5oHulH73y5nIvqLsVdirsVZ3+T03DzLcRn&#xA;pJaPT5rIh/VXNn2Sayn3fqed9pY3pwe6Y+4vYs6J4Z2KuxVj+seQ/K+qyyT3NpwuZCS88TMjEnua&#xA;HiT8xmHl0OKZsjd2em7X1GEARl6R0O7EdS/Jkbtpmo08I7lf+N0/5pzAydkfzZfN3WD2n/1SH+l/&#xA;Uf1sV1L8uvN1hUtYm4jH+7LYiWv+xHx/8LmBk0GaPS/du7nB21psn8XCfPb9n2sdlhmhkMcyNHIv&#xA;2kcFSPmDmIRTs4yEhYNhM4QSiACpIAAGY55sCn+m+R/NWo0Nvp0qxn/dkw9JaeNZONfozKxaHNPl&#xA;E/c6/N2pp8f1THw3+5lWm/k1fPRtSv44R1McCmQ/Lk3AD7jmwxdiyP1Sr3Opz+0kB9ESfft+tlem&#xA;/lh5SsqF7dryQft3Dlh/wK8U+8ZscXZWGPMcXvdRm7c1M+R4R5fi2VgBQABQDYAdAM2LpyXYq7FX&#xA;nf5zzU0vTof553f/AIBKf8b5pO2z6Yjzel9mo/vJnyeTZzr2DTGik+ArhVKMyG12KvfPyah9PyVG&#xA;/wDv64mf7iE/41zouyxWL4vA+0Mr1PuiGc5snRuxV2KrJ4lmgkhb7MilD32YUwSFimUZUQe58nMr&#xA;KxVhRlNCPcZxj6uDbWKXYq7FWWfldLw85Wi/79SZPujZv+NczuzT++Hx+50vb8b0svIj73uOdO+f&#xA;OxV2KuxV2KuxVD3mnaffJ6d5bRXKdllRXA+XIHK544y+oAtuLPPGbhIx9xTDStD0bTok+o2UNu3E&#xA;fHGihtx3alchj0+OH0gBszarLl+uRl8Uwy5x3Yq7FXYq7FXYq8t/Omes+lQV+wszkf6xQD/iOc/2&#xA;3LeI971vszHaZ936XmmaJ6hZOaQuf8k/qyUeaQlWXtjsVfRn5YQ+j5E0pe5SR/8Ag5nb+OdR2eKw&#xA;x+P3vnPbUr1U/h9wZTmY6t2KuxV2KvljXLf6vreoW9KejczR0pT7MhHT6M47JGpEeb6nppcWKJ74&#xA;j7kDkG92KuxVPfI91Ha+bNNmkcRxiXizsaAB1K7n/ZZkaSXDliT3uu7VxmemmBuae/qysoZSGU7g&#xA;jcEZ1gNvmxFN4UOxV2KuxV2KuxVNov7tPkP1YErsVdirsVdirsVdirxz837yGfzDbRxSLIsNsA3F&#xA;gwDtI9QadDQDOY7YmDlFHlH9Je29ncZjhJIq5foDBc1Lv1G6NLd/o/Xko80jmluXtjsVfTvky3+r&#xA;+UtHipQizgLD3aMMenuc6zSRrFH3B8x7RnxaiZ/pH704zIcN2KuxV2Kvmjz5D6PnLWUpSt1I/wDy&#xA;MPP/AI2zktWKyy95fS+y5Xpsf9UJDlDnuxV2KuxVHadresaa1bC8mtt6lY3IU/Nfsn6RlmPLOH0k&#xA;hx82lxZfriJfBlWmfm55ktqLeJDfJ3LL6b/8Enw/8Lmdj7Uyx51J0+f2cwT+kmH2j7f1ss0z83fL&#xA;tzRb2Kaxc9WI9WMfSnxf8Lmfj7Vxn6gY/a6XP7N54/QRP7D9u32sr07XdG1IA2F7DcE/sI4Lj5r9&#xA;ofdmdjzwn9JBdPn0mXF9cTFHZc4zsVdiqbRf3afIfqwJXYq7FUPe6lp9jH6l7cxWydQ0rqlflUiu&#xA;V5MsYfUQG3FgnkNQBl7mLal+avlW0qsDyXsg7QoQtfdn4/hXNfl7Wwx5XJ22DsDUT51Eef7GJ6n+&#xA;cWszVXT7SK0Q9HkJmf5j7C/8Kc1+XtnIfpAj9rt8Hs5ij9cjL7AxTU/NPmLU6i91CaVD1iDcI/8A&#xA;gE4r+Ga7LqsmT6pEu4waDDi+iIH3/NKsx3LdiqHvTSA+5GThzTFL8ubHYq+rNMt/q+m2lvSnowxx&#xA;0pT7KgdPozscUaiB5PlWaXFOR7yUTk2p2KuxV2Kvnj814BF571GgosghkHXvClevuDnL9oCs0vx0&#xA;fQ+wpXpIeV/eWI5hu3dirsVdirsVdirsVbVmVgykhgagjYgjFBCe6b5581adQQahI8Y/3XNSVaeH&#xA;x8iPozJx6zLDlJ1+fsnTZfqgL8tvuZZpv5zXK0XUtPSQd5Ldih/4B+Vf+CzPx9ry/ij8nS5/ZiJ/&#xA;u517/wBjK9N/MnyjfUBuzaSH9i5X0/vYck/4bM7H2jhl1r3umz9h6nH/AA8Q/o7/ALfsT2+8/eU9&#xA;PiAl1COaQKP3dv8AvidulUqo+k4cvaGGHOV+7drwdk6nJyiR79vvYtqf5zRCq6Zp5bwluW4/8Ilf&#xA;+JZrsvbX8yPz/H6Xb4PZo/5Sfy/Wf1MU1P8AMbzbf8lN6baM/wC67YCKn+yFX/4bNfl7SzT/AIq9&#xA;2zuMHY2mx/w8R89/2fYxyWaaaQyTO0kjfadyWJ+ZOYJJO5dlGIiKAoLMDJ2KuxV2KuxVC35/dqPf&#xA;+GWQ5sooHLWaIsIPXvraClfVlRKdftMBhiLNNeWXDAnuD6tzs3yl2KuxV2KuxV4R+dcHp+cUf/f1&#xA;pE/3M6f8aZznakay+8Pd+zkr01d0j+gsBzXO/dirsVdirsVdirsVdirsVdirsVTWL+7T/VH6sxzz&#xA;aivwK7FXYq7FXYq7FXYq7FUHqB+wPn/DLcbKKDyxmnHk+AT+a9HiIqrXkBYb/ZEgJ6ewy7TC8kR5&#xA;hw+0JcOnmf6J+59O51z5i7FXYq7FXYq8Z/PaGmsaZN/Pbun/AAD1/wCN80Haw9YPk9n7MS/dzH9L&#xA;9DzDNU9O7FXYq7FXYq7FXYq7FXYq7FXYqmsX92n+qP1Zjnm1FfgV2KuxV2KuwqpPcwr1YE+A3wiJ&#xA;TSi9+P2F+k5IY08Kg93O37XEe22TEQmlIkk1JqcKWsKWUfllB63nrSU8JHf/AJFxO/8AxrmVoY3m&#xA;i6vtmXDpZny+8gPo3OqfOXYq7FXYq7FXmX526LqN/baXc2VrLci2M4mMKFyquEILBQTT4M1HauKU&#xA;hEgXV/oem9m9TDHKcZEDiqr+LxhlZWKsCrDYg7EHNE9mDbWKXYq7FXYq7FXYq7FXYq7FXYqmsX92&#xA;n+qP1Zjnm1FfgVa8safaYDCAtKD30Q+yC34DJCBZcKi99Kfs0UfecmIBPCoPI7/aYn55IBNLcKXY&#xA;q7FXYq7FXof5P6Fqv+KYdRks5o7KKKWly6MsZZl4gBiKH7XbNl2bil4glW27zvtBqsfgGAkOIkbd&#xA;XuWdE8O7FXYq7FXYq7FUv1Ty/oeqrTUbGC6NKB5EUuB7P9ofQcqyYIT+oAuRh1eXF9EjH4sO1b8l&#xA;fK91VrGWfT5D0VW9WP8A4F/i/wCGzAydlYz9JMftdxg9o88frAn9h+z9TDdV/JTzRa1axlg1BB0V&#xA;W9KQ/wCxf4f+HzBydl5RyqTucHtHgl9YMPtH2fqYbqnl7XNKYjUbGe2A25yIQh7bP9k/QcwZ4pw+&#xA;oEO5w6vFl+iQkl+VuQ7FXYq7FXYq7FXYqivrzBAqqNgBU5XwMeFSe4mfqxp4Db9WSEQmlLJJdirs&#xA;VdirsVRVjpepahL6Vjay3Un8sKM5Hz4g5KMJSNAW1Zc0MYuZER5su0r8nvON7xa4iisIjvWdwWp/&#xA;qR8z99MzcfZuWXMV73UZ/aDTQ5EzPl+1mWlfkdokNG1O9mvHG5SICFPkftsfvGZ+PsmI+okumz+0&#xA;uWX0REffv+pmeleTvK+lUNjpsETr0lK+pJ/wb8m/HM7HpccOUQ6bP2hny/XMn7B8gnGZDhuxV2Ku&#xA;xV2KuxV2KuxV2KuxVplVlKsAysKEHcEHEhINMe1X8vPJ2p8jcabFHK3+7YKwtXx/d8QfpGYmTQ4p&#xA;84/LZ2GDtbU4uUzXnv8AewzVfyKtW5PpOpPGf2YrlQ4/4NONP+BOYOTsgfwy+bucHtPIf3kL936j&#xA;+thuq/lX5006p+pfXIx/uy0b1K/JPhk/4XMDJoMsel+53ODtzTZP4uE/0tv2faxW4tri2lMVxE8M&#xA;q/ajkUqw+YNDmIQRzdpCYkLBsKeBm7FXYq7FXYq7FVyI7sFRSzHYKBUk/LFBNMi0r8uvOWp0aDTZ&#xA;Iojv6txSFaeI58SfoGZOPR5Z8o/oddn7X02LnME+W/3Mz0n8irhuL6tqSoP2orVSx/5GPxp/wOZ+&#xA;Psg/xS+Tps/tOP8AJw+f6h+tmWk/lb5L07iwsfrcq/7sumMtfmm0f/C5nY+zsUel+902ftvU5P4u&#xA;Ef0dv2/aymC3gt4hFBGkMS/ZjjUKo+QG2ZsYgChs6uUzI2TZX4WLsVdirsVdirsVdirsVdirsVdi&#xA;rsVdirsVdirsVdiqHvtN06/i9K+tYrqP+SZFcfcwOQnjjL6gC2Ys08ZuJMT5FiGrfk/5OvqtBFJY&#xA;Sn9q3c8a/wCpJzH3UzBydmYpcvS7fB7QamHMiY8/2MN1b8jdZh5Ppl9DdoNxHKDC/wAh9tT94zBy&#xA;dkzH0kH7Hc4PaXEfriY+7dhureTPNOk8jfabPHGvWZV9SP8A4NOS/jmBk02SH1RLucHaODL9Ex9x&#xA;+RQ2l+Xdd1U006wnuR/OiEoPm/2R9+Rx4Zz+kEtmbV4sX1yEWZaV+Sfme5o1/NBYIaclJ9aQf7FP&#xA;g/4fM7H2XkPOounz+0mCP0Az+wfbv9jMtK/JXyta0a+kn1CQdQzelH/wMdG/4bM/H2VjH1Ey+x02&#xA;f2jzy+gCH2n7f1Mx0zQNE0tQunWMFrtQtGihj82pyP0nM7HghD6QA6fNqsuX65GXxR+WuO7FXYq7&#xA;FXYq7FXYq7FXYq7FXYq//9k=</xmpGImg:image>
               </rdf:li>
            </rdf:Alt>
         </xmp:Thumbnails>
      </rdf:Description>
      <rdf:Description rdf:about=""
            xmlns:xmpMM="http://ns.adobe.com/xap/1.0/mm/"
            xmlns:stRef="http://ns.adobe.com/xap/1.0/sType/ResourceRef#"
            xmlns:stEvt="http://ns.adobe.com/xap/1.0/sType/ResourceEvent#">
         <xmpMM:InstanceID>xmp.iid:AE8FC6F65E9CE811AA58FF8E78FE6F1E</xmpMM:InstanceID>
         <xmpMM:DocumentID>xmp.did:AE8FC6F65E9CE811AA58FF8E78FE6F1E</xmpMM:DocumentID>
         <xmpMM:OriginalDocumentID>uuid:5D20892493BFDB11914A8590D31508C8</xmpMM:OriginalDocumentID>
         <xmpMM:RenditionClass>proof:pdf</xmpMM:RenditionClass>
         <xmpMM:DerivedFrom rdf:parseType="Resource">
            <stRef:instanceID>uuid:ba5dc92b-6d0a-484a-ab90-b9370a4a0965</stRef:instanceID>
            <stRef:documentID>xmp.did:0980117407206811822A897E387FE54C</stRef:documentID>
            <stRef:originalDocumentID>uuid:5D20892493BFDB11914A8590D31508C8</stRef:originalDocumentID>
            <stRef:renditionClass>proof:pdf</stRef:renditionClass>
         </xmpMM:DerivedFrom>
         <xmpMM:History>
            <rdf:Seq>
               <rdf:li rdf:parseType="Resource">
                  <stEvt:action>saved</stEvt:action>
                  <stEvt:instanceID>xmp.iid:AE8FC6F65E9CE811AA58FF8E78FE6F1E</stEvt:instanceID>
                  <stEvt:when>2018-08-10T11:06:41+05:30</stEvt:when>
                  <stEvt:softwareAgent>Adobe Illustrator CS6 (Windows)</stEvt:softwareAgent>
                  <stEvt:changed>/</stEvt:changed>
               </rdf:li>
            </rdf:Seq>
         </xmpMM:History>
      </rdf:Description>
      <rdf:Description rdf:about=""
            xmlns:illustrator="http://ns.adobe.com/illustrator/1.0/">
         <illustrator:StartupProfile>Print</illustrator:StartupProfile>
      </rdf:Description>
      <rdf:Description rdf:about=""
            xmlns:xmpTPg="http://ns.adobe.com/xap/1.0/t/pg/"
            xmlns:stDim="http://ns.adobe.com/xap/1.0/sType/Dimensions#"
            xmlns:xmpG="http://ns.adobe.com/xap/1.0/g/">
         <xmpTPg:HasVisibleOverprint>False</xmpTPg:HasVisibleOverprint>
         <xmpTPg:HasVisibleTransparency>False</xmpTPg:HasVisibleTransparency>
         <xmpTPg:NPages>1</xmpTPg:NPages>
         <xmpTPg:MaxPageSize rdf:parseType="Resource">
            <stDim:w>78.440430</stDim:w>
            <stDim:h>88.959961</stDim:h>
            <stDim:unit>Pixels</stDim:unit>
         </xmpTPg:MaxPageSize>
         <xmpTPg:PlateNames>
            <rdf:Seq>
               <rdf:li>Cyan</rdf:li>
               <rdf:li>Magenta</rdf:li>
               <rdf:li>Yellow</rdf:li>
               <rdf:li>Black</rdf:li>
            </rdf:Seq>
         </xmpTPg:PlateNames>
         <xmpTPg:SwatchGroups>
            <rdf:Seq>
               <rdf:li rdf:parseType="Resource">
                  <xmpG:groupName>Default Swatch Group</xmpG:groupName>
                  <xmpG:groupType>0</xmpG:groupType>
                  <xmpG:Colorants>
                     <rdf:Seq>
                        <rdf:li rdf:parseType="Resource">
                           <xmpG:swatchName>White</xmpG:swatchName>
                           <xmpG:mode>CMYK</xmpG:mode>
                           <xmpG:type>PROCESS</xmpG:type>
                           <xmpG:cyan>0.000000</xmpG:cyan>
                           <xmpG:magenta>0.000000</xmpG:magenta>
                           <xmpG:yellow>0.000000</xmpG:yellow>
                           <xmpG:black>0.000000</xmpG:black>
                        </rdf:li>
                        <rdf:li rdf:parseType="Resource">
                           <xmpG:swatchName>Black</xmpG:swatchName>
                           <xmpG:mode>CMYK</xmpG:mode>
                           <xmpG:type>PROCESS</xmpG:type>
                           <xmpG:cyan>0.000000</xmpG:cyan>
                           <xmpG:magenta>0.000000</xmpG:magenta>
                           <xmpG:yellow>0.000000</xmpG:yellow>
                           <xmpG:black>100.000000</xmpG:black>
                        </rdf:li>
                        <rdf:li rdf:parseType="Resource">
                           <xmpG:swatchName>CMYK Red</xmpG:swatchName>
                           <xmpG:mode>CMYK</xmpG:mode>
                           <xmpG:type>PROCESS</xmpG:type>
                           <xmpG:cyan>0.000000</xmpG:cyan>
                           <xmpG:magenta>100.000000</xmpG:magenta>
                           <xmpG:yellow>100.000000</xmpG:yellow>
                           <xmpG:black>0.000000</xmpG:black>
                        </rdf:li>
                        <rdf:li rdf:parseType="Resource">
                           <xmpG:swatchName>CMYK Yellow</xmpG:swatchName>
                           <xmpG:mode>CMYK</xmpG:mode>
                           <xmpG:type>PROCESS</xmpG:type>
                           <xmpG:cyan>0.000000</xmpG:cyan>
                           <xmpG:magenta>0.000000</xmpG:magenta>
                           <xmpG:yellow>100.000000</xmpG:yellow>
                           <xmpG:black>0.000000</xmpG:black>
                        </rdf:li>
                        <rdf:li rdf:parseType="Resource">
                           <xmpG:swatchName>CMYK Green</xmpG:swatchName>
                           <xmpG:mode>CMYK</xmpG:mode>
                           <xmpG:type>PROCESS</xmpG:type>
                           <xmpG:cyan>100.000000</xmpG:cyan>
                           <xmpG:magenta>0.000000</xmpG:magenta>
                           <xmpG:yellow>100.000000</xmpG:yellow>
                           <xmpG:black>0.000000</xmpG:black>
                        </rdf:li>
                        <rdf:li rdf:parseType="Resource">
                           <xmpG:swatchName>CMYK Cyan</xmpG:swatchName>
                           <xmpG:mode>CMYK</xmpG:mode>
                           <xmpG:type>PROCESS</xmpG:type>
                           <xmpG:cyan>100.000000</xmpG:cyan>
                           <xmpG:magenta>0.000000</xmpG:magenta>
                           <xmpG:yellow>0.000000</xmpG:yellow>
                           <xmpG:black>0.000000</xmpG:black>
                        </rdf:li>
                        <rdf:li rdf:parseType="Resource">
                           <xmpG:swatchName>CMYK Blue</xmpG:swatchName>
                           <xmpG:mode>CMYK</xmpG:mode>
                           <xmpG:type>PROCESS</xmpG:type>
                           <xmpG:cyan>100.000000</xmpG:cyan>
                           <xmpG:magenta>100.000000</xmpG:magenta>
                           <xmpG:yellow>0.000000</xmpG:yellow>
                           <xmpG:black>0.000000</xmpG:black>
                        </rdf:li>
                        <rdf:li rdf:parseType="Resource">
                           <xmpG:swatchName>CMYK Magenta</xmpG:swatchName>
                           <xmpG:mode>CMYK</xmpG:mode>
                           <xmpG:type>PROCESS</xmpG:type>
                           <xmpG:cyan>0.000000</xmpG:cyan>
                           <xmpG:magenta>100.000000</xmpG:magenta>
                           <xmpG:yellow>0.000000</xmpG:yellow>
                           <xmpG:black>0.000000</xmpG:black>
                        </rdf:li>
                        <rdf:li rdf:parseType="Resource">
                           <xmpG:swatchName>C=15 M=100 Y=90 K=10</xmpG:swatchName>
                           <xmpG:mode>CMYK</xmpG:mode>
                           <xmpG:type>PROCESS</xmpG:type>
                           <xmpG:cyan>14.999998</xmpG:cyan>
                           <xmpG:magenta>100.000000</xmpG:magenta>
                           <xmpG:yellow>90.000000</xmpG:yellow>
                           <xmpG:black>10.000002</xmpG:black>
                        </rdf:li>
                        <rdf:li rdf:parseType="Resource">
                           <xmpG:swatchName>C=0 M=90 Y=85 K=0</xmpG:swatchName>
                           <xmpG:mode>CMYK</xmpG:mode>
                           <xmpG:type>PROCESS</xmpG:type>
                           <xmpG:cyan>0.000000</xmpG:cyan>
                           <xmpG:magenta>90.000000</xmpG:magenta>
                           <xmpG:yellow>85.000000</xmpG:yellow>
                           <xmpG:black>0.000000</xmpG:black>
                        </rdf:li>
                        <rdf:li rdf:parseType="Resource">
                           <xmpG:swatchName>C=0 M=80 Y=95 K=0</xmpG:swatchName>
                           <xmpG:mode>CMYK</xmpG:mode>
                           <xmpG:type>PROCESS</xmpG:type>
                           <xmpG:cyan>0.000000</xmpG:cyan>
                           <xmpG:magenta>80.000000</xmpG:magenta>
                           <xmpG:yellow>95.000000</xmpG:yellow>
                           <xmpG:black>0.000000</xmpG:black>
                        </rdf:li>
                        <rdf:li rdf:parseType="Resource">
                           <xmpG:swatchName>C=0 M=50 Y=100 K=0</xmpG:swatchName>
                           <xmpG:mode>CMYK</xmpG:mode>
                           <xmpG:type>PROCESS</xmpG:type>
                           <xmpG:cyan>0.000000</xmpG:cyan>
                           <xmpG:magenta>50.000000</xmpG:magenta>
                           <xmpG:yellow>100.000000</xmpG:yellow>
                           <xmpG:black>0.000000</xmpG:black>
                        </rdf:li>
                        <rdf:li rdf:parseType="Resource">
                           <xmpG:swatchName>C=0 M=35 Y=85 K=0</xmpG:swatchName>
                           <xmpG:mode>CMYK</xmpG:mode>
                           <xmpG:type>PROCESS</xmpG:type>
                           <xmpG:cyan>0.000000</xmpG:cyan>
                           <xmpG:magenta>35.000004</xmpG:magenta>
                           <xmpG:yellow>85.000000</xmpG:yellow>
                           <xmpG:black>0.000000</xmpG:black>
                        </rdf:li>
                        <rdf:li rdf:parseType="Resource">
                           <xmpG:swatchName>C=5 M=0 Y=90 K=0</xmpG:swatchName>
                           <xmpG:mode>CMYK</xmpG:mode>
                           <xmpG:type>PROCESS</xmpG:type>
                           <xmpG:cyan>5.000001</xmpG:cyan>
                           <xmpG:magenta>0.000000</xmpG:magenta>
                           <xmpG:yellow>90.000000</xmpG:yellow>
                           <xmpG:black>0.000000</xmpG:black>
                        </rdf:li>
                        <rdf:li rdf:parseType="Resource">
                           <xmpG:swatchName>C=20 M=0 Y=100 K=0</xmpG:swatchName>
                           <xmpG:mode>CMYK</xmpG:mode>
                           <xmpG:type>PROCESS</xmpG:type>
                           <xmpG:cyan>19.999998</xmpG:cyan>
                           <xmpG:magenta>0.000000</xmpG:magenta>
                           <xmpG:yellow>100.000000</xmpG:yellow>
                           <xmpG:black>0.000000</xmpG:black>
                        </rdf:li>
                        <rdf:li rdf:parseType="Resource">
                           <xmpG:swatchName>C=50 M=0 Y=100 K=0</xmpG:swatchName>
                           <xmpG:mode>CMYK</xmpG:mode>
                           <xmpG:type>PROCESS</xmpG:type>
                           <xmpG:cyan>50.000000</xmpG:cyan>
                           <xmpG:magenta>0.000000</xmpG:magenta>
                           <xmpG:yellow>100.000000</xmpG:yellow>
                           <xmpG:black>0.000000</xmpG:black>
                        </rdf:li>
                        <rdf:li rdf:parseType="Resource">
                           <xmpG:swatchName>C=75 M=0 Y=100 K=0</xmpG:swatchName>
                           <xmpG:mode>CMYK</xmpG:mode>
                           <xmpG:type>PROCESS</xmpG:type>
                           <xmpG:cyan>75.000000</xmpG:cyan>
                           <xmpG:magenta>0.000000</xmpG:magenta>
                           <xmpG:yellow>100.000000</xmpG:yellow>
                           <xmpG:black>0.000000</xmpG:black>
                        </rdf:li>
                        <rdf:li rdf:parseType="Resource">
                           <xmpG:swatchName>C=85 M=10 Y=100 K=10</xmpG:swatchName>
                           <xmpG:mode>CMYK</xmpG:mode>
                           <xmpG:type>PROCESS</xmpG:type>
                           <xmpG:cyan>85.000000</xmpG:cyan>
                           <xmpG:magenta>10.000002</xmpG:magenta>
                           <xmpG:yellow>100.000000</xmpG:yellow>
                           <xmpG:black>10.000002</xmpG:black>
                        </rdf:li>
                        <rdf:li rdf:parseType="Resource">
                           <xmpG:swatchName>C=90 M=30 Y=95 K=30</xmpG:swatchName>
                           <xmpG:mode>CMYK</xmpG:mode>
                           <xmpG:type>PROCESS</xmpG:type>
                           <xmpG:cyan>90.000000</xmpG:cyan>
                           <xmpG:magenta>30.000002</xmpG:magenta>
                           <xmpG:yellow>95.000000</xmpG:yellow>
                           <xmpG:black>30.000002</xmpG:black>
                        </rdf:li>
                        <rdf:li rdf:parseType="Resource">
                           <xmpG:swatchName>C=75 M=0 Y=75 K=0</xmpG:swatchName>
                           <xmpG:mode>CMYK</xmpG:mode>
                           <xmpG:type>PROCESS</xmpG:type>
                           <xmpG:cyan>75.000000</xmpG:cyan>
                           <xmpG:magenta>0.000000</xmpG:magenta>
                           <xmpG:yellow>75.000000</xmpG:yellow>
                           <xmpG:black>0.000000</xmpG:black>
                        </rdf:li>
                        <rdf:li rdf:parseType="Resource">
                           <xmpG:swatchName>C=80 M=10 Y=45 K=0</xmpG:swatchName>
                           <xmpG:mode>CMYK</xmpG:mode>
                           <xmpG:type>PROCESS</xmpG:type>
                           <xmpG:cyan>80.000000</xmpG:cyan>
                           <xmpG:magenta>10.000002</xmpG:magenta>
                           <xmpG:yellow>45.000000</xmpG:yellow>
                           <xmpG:black>0.000000</xmpG:black>
                        </rdf:li>
                        <rdf:li rdf:parseType="Resource">
                           <xmpG:swatchName>C=70 M=15 Y=0 K=0</xmpG:swatchName>
                           <xmpG:mode>CMYK</xmpG:mode>
                           <xmpG:type>PROCESS</xmpG:type>
                           <xmpG:cyan>70.000000</xmpG:cyan>
                           <xmpG:magenta>14.999998</xmpG:magenta>
                           <xmpG:yellow>0.000000</xmpG:yellow>
                           <xmpG:black>0.000000</xmpG:black>
                        </rdf:li>
                        <rdf:li rdf:parseType="Resource">
                           <xmpG:swatchName>C=85 M=50 Y=0 K=0</xmpG:swatchName>
                           <xmpG:mode>CMYK</xmpG:mode>
                           <xmpG:type>PROCESS</xmpG:type>
                           <xmpG:cyan>85.000000</xmpG:cyan>
                           <xmpG:magenta>50.000000</xmpG:magenta>
                           <xmpG:yellow>0.000000</xmpG:yellow>
                           <xmpG:black>0.000000</xmpG:black>
                        </rdf:li>
                        <rdf:li rdf:parseType="Resource">
                           <xmpG:swatchName>C=100 M=95 Y=5 K=0</xmpG:swatchName>
                           <xmpG:mode>CMYK</xmpG:mode>
                           <xmpG:type>PROCESS</xmpG:type>
                           <xmpG:cyan>100.000000</xmpG:cyan>
                           <xmpG:magenta>95.000000</xmpG:magenta>
                           <xmpG:yellow>5.000001</xmpG:yellow>
                           <xmpG:black>0.000000</xmpG:black>
                        </rdf:li>
                        <rdf:li rdf:parseType="Resource">
                           <xmpG:swatchName>C=100 M=100 Y=25 K=25</xmpG:swatchName>
                           <xmpG:mode>CMYK</xmpG:mode>
                           <xmpG:type>PROCESS</xmpG:type>
                           <xmpG:cyan>100.000000</xmpG:cyan>
                           <xmpG:magenta>100.000000</xmpG:magenta>
                           <xmpG:yellow>25.000000</xmpG:yellow>
                           <xmpG:black>25.000000</xmpG:black>
                        </rdf:li>
                        <rdf:li rdf:parseType="Resource">
                           <xmpG:swatchName>C=75 M=100 Y=0 K=0</xmpG:swatchName>
                           <xmpG:mode>CMYK</xmpG:mode>
                           <xmpG:type>PROCESS</xmpG:type>
                           <xmpG:cyan>75.000000</xmpG:cyan>
                           <xmpG:magenta>100.000000</xmpG:magenta>
                           <xmpG:yellow>0.000000</xmpG:yellow>
                           <xmpG:black>0.000000</xmpG:black>
                        </rdf:li>
                        <rdf:li rdf:parseType="Resource">
                           <xmpG:swatchName>C=50 M=100 Y=0 K=0</xmpG:swatchName>
                           <xmpG:mode>CMYK</xmpG:mode>
                           <xmpG:type>PROCESS</xmpG:type>
                           <xmpG:cyan>50.000000</xmpG:cyan>
                           <xmpG:magenta>100.000000</xmpG:magenta>
                           <xmpG:yellow>0.000000</xmpG:yellow>
                           <xmpG:black>0.000000</xmpG:black>
                        </rdf:li>
                        <rdf:li rdf:parseType="Resource">
                           <xmpG:swatchName>C=35 M=100 Y=35 K=10</xmpG:swatchName>
                           <xmpG:mode>CMYK</xmpG:mode>
                           <xmpG:type>PROCESS</xmpG:type>
                           <xmpG:cyan>35.000004</xmpG:cyan>
                           <xmpG:magenta>100.000000</xmpG:magenta>
                           <xmpG:yellow>35.000004</xmpG:yellow>
                           <xmpG:black>10.000002</xmpG:black>
                        </rdf:li>
                        <rdf:li rdf:parseType="Resource">
                           <xmpG:swatchName>C=10 M=100 Y=50 K=0</xmpG:swatchName>
                           <xmpG:mode>CMYK</xmpG:mode>
                           <xmpG:type>PROCESS</xmpG:type>
                           <xmpG:cyan>10.000002</xmpG:cyan>
                           <xmpG:magenta>100.000000</xmpG:magenta>
                           <xmpG:yellow>50.000000</xmpG:yellow>
                           <xmpG:black>0.000000</xmpG:black>
                        </rdf:li>
                        <rdf:li rdf:parseType="Resource">
                           <xmpG:swatchName>C=0 M=95 Y=20 K=0</xmpG:swatchName>
                           <xmpG:mode>CMYK</xmpG:mode>
                           <xmpG:type>PROCESS</xmpG:type>
                           <xmpG:cyan>0.000000</xmpG:cyan>
                           <xmpG:magenta>95.000000</xmpG:magenta>
                           <xmpG:yellow>19.999998</xmpG:yellow>
                           <xmpG:black>0.000000</xmpG:black>
                        </rdf:li>
                        <rdf:li rdf:parseType="Resource">
                           <xmpG:swatchName>C=25 M=25 Y=40 K=0</xmpG:swatchName>
                           <xmpG:mode>CMYK</xmpG:mode>
                           <xmpG:type>PROCESS</xmpG:type>
                           <xmpG:cyan>25.000000</xmpG:cyan>
                           <xmpG:magenta>25.000000</xmpG:magenta>
                           <xmpG:yellow>39.999996</xmpG:yellow>
                           <xmpG:black>0.000000</xmpG:black>
                        </rdf:li>
                        <rdf:li rdf:parseType="Resource">
                           <xmpG:swatchName>C=40 M=45 Y=50 K=5</xmpG:swatchName>
                           <xmpG:mode>CMYK</xmpG:mode>
                           <xmpG:type>PROCESS</xmpG:type>
                           <xmpG:cyan>39.999996</xmpG:cyan>
                           <xmpG:magenta>45.000000</xmpG:magenta>
                           <xmpG:yellow>50.000000</xmpG:yellow>
                           <xmpG:black>5.000001</xmpG:black>
                        </rdf:li>
                        <rdf:li rdf:parseType="Resource">
                           <xmpG:swatchName>C=50 M=50 Y=60 K=25</xmpG:swatchName>
                           <xmpG:mode>CMYK</xmpG:mode>
                           <xmpG:type>PROCESS</xmpG:type>
                           <xmpG:cyan>50.000000</xmpG:cyan>
                           <xmpG:magenta>50.000000</xmpG:magenta>
                           <xmpG:yellow>60.000004</xmpG:yellow>
                           <xmpG:black>25.000000</xmpG:black>
                        </rdf:li>
                        <rdf:li rdf:parseType="Resource">
                           <xmpG:swatchName>C=55 M=60 Y=65 K=40</xmpG:swatchName>
                           <xmpG:mode>CMYK</xmpG:mode>
                           <xmpG:type>PROCESS</xmpG:type>
                           <xmpG:cyan>55.000000</xmpG:cyan>
                           <xmpG:magenta>60.000004</xmpG:magenta>
                           <xmpG:yellow>65.000000</xmpG:yellow>
                           <xmpG:black>39.999996</xmpG:black>
                        </rdf:li>
                        <rdf:li rdf:parseType="Resource">
                           <xmpG:swatchName>C=25 M=40 Y=65 K=0</xmpG:swatchName>
                           <xmpG:mode>CMYK</xmpG:mode>
                           <xmpG:type>PROCESS</xmpG:type>
                           <xmpG:cyan>25.000000</xmpG:cyan>
                           <xmpG:magenta>39.999996</xmpG:magenta>
                           <xmpG:yellow>65.000000</xmpG:yellow>
                           <xmpG:black>0.000000</xmpG:black>
                        </rdf:li>
                        <rdf:li rdf:parseType="Resource">
                           <xmpG:swatchName>C=30 M=50 Y=75 K=10</xmpG:swatchName>
                           <xmpG:mode>CMYK</xmpG:mode>
                           <xmpG:type>PROCESS</xmpG:type>
                           <xmpG:cyan>30.000002</xmpG:cyan>
                           <xmpG:magenta>50.000000</xmpG:magenta>
                           <xmpG:yellow>75.000000</xmpG:yellow>
                           <xmpG:black>10.000002</xmpG:black>
                        </rdf:li>
                        <rdf:li rdf:parseType="Resource">
                           <xmpG:swatchName>C=35 M=60 Y=80 K=25</xmpG:swatchName>
                           <xmpG:mode>CMYK</xmpG:mode>
                           <xmpG:type>PROCESS</xmpG:type>
                           <xmpG:cyan>35.000004</xmpG:cyan>
                           <xmpG:magenta>60.000004</xmpG:magenta>
                           <xmpG:yellow>80.000000</xmpG:yellow>
                           <xmpG:black>25.000000</xmpG:black>
                        </rdf:li>
                        <rdf:li rdf:parseType="Resource">
                           <xmpG:swatchName>C=40 M=65 Y=90 K=35</xmpG:swatchName>
                           <xmpG:mode>CMYK</xmpG:mode>
                           <xmpG:type>PROCESS</xmpG:type>
                           <xmpG:cyan>39.999996</xmpG:cyan>
                           <xmpG:magenta>65.000000</xmpG:magenta>
                           <xmpG:yellow>90.000000</xmpG:yellow>
                           <xmpG:black>35.000004</xmpG:black>
                        </rdf:li>
                        <rdf:li rdf:parseType="Resource">
                           <xmpG:swatchName>C=40 M=70 Y=100 K=50</xmpG:swatchName>
                           <xmpG:mode>CMYK</xmpG:mode>
                           <xmpG:type>PROCESS</xmpG:type>
                           <xmpG:cyan>39.999996</xmpG:cyan>
                           <xmpG:magenta>70.000000</xmpG:magenta>
                           <xmpG:yellow>100.000000</xmpG:yellow>
                           <xmpG:black>50.000000</xmpG:black>
                        </rdf:li>
                        <rdf:li rdf:parseType="Resource">
                           <xmpG:swatchName>C=50 M=70 Y=80 K=70</xmpG:swatchName>
                           <xmpG:mode>CMYK</xmpG:mode>
                           <xmpG:type>PROCESS</xmpG:type>
                           <xmpG:cyan>50.000000</xmpG:cyan>
                           <xmpG:magenta>70.000000</xmpG:magenta>
                           <xmpG:yellow>80.000000</xmpG:yellow>
                           <xmpG:black>70.000000</xmpG:black>
                        </rdf:li>
                     </rdf:Seq>
                  </xmpG:Colorants>
               </rdf:li>
               <rdf:li rdf:parseType="Resource">
                  <xmpG:groupName>Grays</xmpG:groupName>
                  <xmpG:groupType>1</xmpG:groupType>
                  <xmpG:Colorants>
                     <rdf:Seq>
                        <rdf:li rdf:parseType="Resource">
                           <xmpG:swatchName>C=0 M=0 Y=0 K=100</xmpG:swatchName>
                           <xmpG:mode>CMYK</xmpG:mode>
                           <xmpG:type>PROCESS</xmpG:type>
                           <xmpG:cyan>0.000000</xmpG:cyan>
                           <xmpG:magenta>0.000000</xmpG:magenta>
                           <xmpG:yellow>0.000000</xmpG:yellow>
                           <xmpG:black>100.000000</xmpG:black>
                        </rdf:li>
                        <rdf:li rdf:parseType="Resource">
                           <xmpG:swatchName>C=0 M=0 Y=0 K=90</xmpG:swatchName>
                           <xmpG:mode>CMYK</xmpG:mode>
                           <xmpG:type>PROCESS</xmpG:type>
                           <xmpG:cyan>0.000000</xmpG:cyan>
                           <xmpG:magenta>0.000000</xmpG:magenta>
                           <xmpG:yellow>0.000000</xmpG:yellow>
                           <xmpG:black>89.999405</xmpG:black>
                        </rdf:li>
                        <rdf:li rdf:parseType="Resource">
                           <xmpG:swatchName>C=0 M=0 Y=0 K=80</xmpG:swatchName>
                           <xmpG:mode>CMYK</xmpG:mode>
                           <xmpG:type>PROCESS</xmpG:type>
                           <xmpG:cyan>0.000000</xmpG:cyan>
                           <xmpG:magenta>0.000000</xmpG:magenta>
                           <xmpG:yellow>0.000000</xmpG:yellow>
                           <xmpG:black>79.998795</xmpG:black>
                        </rdf:li>
                        <rdf:li rdf:parseType="Resource">
                           <xmpG:swatchName>C=0 M=0 Y=0 K=70</xmpG:swatchName>
                           <xmpG:mode>CMYK</xmpG:mode>
                           <xmpG:type>PROCESS</xmpG:type>
                           <xmpG:cyan>0.000000</xmpG:cyan>
                           <xmpG:magenta>0.000000</xmpG:magenta>
                           <xmpG:yellow>0.000000</xmpG:yellow>
                           <xmpG:black>69.999702</xmpG:black>
                        </rdf:li>
                        <rdf:li rdf:parseType="Resource">
                           <xmpG:swatchName>C=0 M=0 Y=0 K=60</xmpG:swatchName>
                           <xmpG:mode>CMYK</xmpG:mode>
                           <xmpG:type>PROCESS</xmpG:type>
                           <xmpG:cyan>0.000000</xmpG:cyan>
                           <xmpG:magenta>0.000000</xmpG:magenta>
                           <xmpG:yellow>0.000000</xmpG:yellow>
                           <xmpG:black>59.999104</xmpG:black>
                        </rdf:li>
                        <rdf:li rdf:parseType="Resource">
                           <xmpG:swatchName>C=0 M=0 Y=0 K=50</xmpG:swatchName>
                           <xmpG:mode>CMYK</xmpG:mode>
                           <xmpG:type>PROCESS</xmpG:type>
                           <xmpG:cyan>0.000000</xmpG:cyan>
                           <xmpG:magenta>0.000000</xmpG:magenta>
                           <xmpG:yellow>0.000000</xmpG:yellow>
                           <xmpG:black>50.000000</xmpG:black>
                        </rdf:li>
                        <rdf:li rdf:parseType="Resource">
                           <xmpG:swatchName>C=0 M=0 Y=0 K=40</xmpG:swatchName>
                           <xmpG:mode>CMYK</xmpG:mode>
                           <xmpG:type>PROCESS</xmpG:type>
                           <xmpG:cyan>0.000000</xmpG:cyan>
                           <xmpG:magenta>0.000000</xmpG:magenta>
                           <xmpG:yellow>0.000000</xmpG:yellow>
                           <xmpG:black>39.999401</xmpG:black>
                        </rdf:li>
                        <rdf:li rdf:parseType="Resource">
                           <xmpG:swatchName>C=0 M=0 Y=0 K=30</xmpG:swatchName>
                           <xmpG:mode>CMYK</xmpG:mode>
                           <xmpG:type>PROCESS</xmpG:type>
                           <xmpG:cyan>0.000000</xmpG:cyan>
                           <xmpG:magenta>0.000000</xmpG:magenta>
                           <xmpG:yellow>0.000000</xmpG:yellow>
                           <xmpG:black>29.998802</xmpG:black>
                        </rdf:li>
                        <rdf:li rdf:parseType="Resource">
                           <xmpG:swatchName>C=0 M=0 Y=0 K=20</xmpG:swatchName>
                           <xmpG:mode>CMYK</xmpG:mode>
                           <xmpG:type>PROCESS</xmpG:type>
                           <xmpG:cyan>0.000000</xmpG:cyan>
                           <xmpG:magenta>0.000000</xmpG:magenta>
                           <xmpG:yellow>0.000000</xmpG:yellow>
                           <xmpG:black>19.999701</xmpG:black>
                        </rdf:li>
                        <rdf:li rdf:parseType="Resource">
                           <xmpG:swatchName>C=0 M=0 Y=0 K=10</xmpG:swatchName>
                           <xmpG:mode>CMYK</xmpG:mode>
                           <xmpG:type>PROCESS</xmpG:type>
                           <xmpG:cyan>0.000000</xmpG:cyan>
                           <xmpG:magenta>0.000000</xmpG:magenta>
                           <xmpG:yellow>0.000000</xmpG:yellow>
                           <xmpG:black>9.999103</xmpG:black>
                        </rdf:li>
                        <rdf:li rdf:parseType="Resource">
                           <xmpG:swatchName>C=0 M=0 Y=0 K=5</xmpG:swatchName>
                           <xmpG:mode>CMYK</xmpG:mode>
                           <xmpG:type>PROCESS</xmpG:type>
                           <xmpG:cyan>0.000000</xmpG:cyan>
                           <xmpG:magenta>0.000000</xmpG:magenta>
                           <xmpG:yellow>0.000000</xmpG:yellow>
                           <xmpG:black>4.998803</xmpG:black>
                        </rdf:li>
                     </rdf:Seq>
                  </xmpG:Colorants>
               </rdf:li>
               <rdf:li rdf:parseType="Resource">
                  <xmpG:groupName>Brights</xmpG:groupName>
                  <xmpG:groupType>1</xmpG:groupType>
                  <xmpG:Colorants>
                     <rdf:Seq>
                        <rdf:li rdf:parseType="Resource">
                           <xmpG:swatchName>C=0 M=100 Y=100 K=0</xmpG:swatchName>
                           <xmpG:mode>CMYK</xmpG:mode>
                           <xmpG:type>PROCESS</xmpG:type>
                           <xmpG:cyan>0.000000</xmpG:cyan>
                           <xmpG:magenta>100.000000</xmpG:magenta>
                           <xmpG:yellow>100.000000</xmpG:yellow>
                           <xmpG:black>0.000000</xmpG:black>
                        </rdf:li>
                        <rdf:li rdf:parseType="Resource">
                           <xmpG:swatchName>C=0 M=75 Y=100 K=0</xmpG:swatchName>
                           <xmpG:mode>CMYK</xmpG:mode>
                           <xmpG:type>PROCESS</xmpG:type>
                           <xmpG:cyan>0.000000</xmpG:cyan>
                           <xmpG:magenta>75.000000</xmpG:magenta>
                           <xmpG:yellow>100.000000</xmpG:yellow>
                           <xmpG:black>0.000000</xmpG:black>
                        </rdf:li>
                        <rdf:li rdf:parseType="Resource">
                           <xmpG:swatchName>C=0 M=10 Y=95 K=0</xmpG:swatchName>
                           <xmpG:mode>CMYK</xmpG:mode>
                           <xmpG:type>PROCESS</xmpG:type>
                           <xmpG:cyan>0.000000</xmpG:cyan>
                           <xmpG:magenta>10.000002</xmpG:magenta>
                           <xmpG:yellow>95.000000</xmpG:yellow>
                           <xmpG:black>0.000000</xmpG:black>
                        </rdf:li>
                        <rdf:li rdf:parseType="Resource">
                           <xmpG:swatchName>C=85 M=10 Y=100 K=0</xmpG:swatchName>
                           <xmpG:mode>CMYK</xmpG:mode>
                           <xmpG:type>PROCESS</xmpG:type>
                           <xmpG:cyan>85.000000</xmpG:cyan>
                           <xmpG:magenta>10.000002</xmpG:magenta>
                           <xmpG:yellow>100.000000</xmpG:yellow>
                           <xmpG:black>0.000000</xmpG:black>
                        </rdf:li>
                        <rdf:li rdf:parseType="Resource">
                           <xmpG:swatchName>C=100 M=90 Y=0 K=0</xmpG:swatchName>
                           <xmpG:mode>CMYK</xmpG:mode>
                           <xmpG:type>PROCESS</xmpG:type>
                           <xmpG:cyan>100.000000</xmpG:cyan>
                           <xmpG:magenta>90.000000</xmpG:magenta>
                           <xmpG:yellow>0.000000</xmpG:yellow>
                           <xmpG:black>0.000000</xmpG:black>
                        </rdf:li>
                        <rdf:li rdf:parseType="Resource">
                           <xmpG:swatchName>C=60 M=90 Y=0 K=0</xmpG:swatchName>
                           <xmpG:mode>CMYK</xmpG:mode>
                           <xmpG:type>PROCESS</xmpG:type>
                           <xmpG:cyan>60.000004</xmpG:cyan>
                           <xmpG:magenta>90.000000</xmpG:magenta>
                           <xmpG:yellow>0.003099</xmpG:yellow>
                           <xmpG:black>0.003099</xmpG:black>
                        </rdf:li>
                     </rdf:Seq>
                  </xmpG:Colorants>
               </rdf:li>
            </rdf:Seq>
         </xmpTPg:SwatchGroups>
      </rdf:Description>
      <rdf:Description rdf:about=""
            xmlns:pdf="http://ns.adobe.com/pdf/1.3/">
         <pdf:Producer>Adobe PDF library 10.01</pdf:Producer>
      </rdf:Description>
   </rdf:RDF>
</x:xmpmeta>
                                                                                                    
                                                                                                    
                                                                                                    
                                                                                                    
                                                                                                    
                                                                                                    
                                                                                                    
                                                                                                    
                                                                                                    
                                                                                                    
                                                                                                    
                                                                                                    
                                                                                                    
                                                                                                    
                                                                                                    
                                                                                                    
                                                                                                    
                                                                                                    
                                                                                                    
                                                                                                    
                           
<?xpacket end="w"?>
	</metadata>
<g>
	<path fill="#E44F26" d="M78.967,0.109L71.82,80.161L39.7,89.066L7.667,80.173L0.528,0.109H78.967z"/>
	<path fill="#F1662A" d="M39.748,82.26l25.956-7.195l6.106-68.408H39.748V82.26z"/>
	<path fill="#EBEBEB" d="M25.857,26.295h13.892v-9.819H15.125l0.235,2.634l2.414,27.06h21.975v-9.819H26.754L25.857,26.295z
		 M28.07,51.08h-9.857l1.376,15.418l20.115,5.583l0.045-0.013V61.852l-0.043,0.013L28.77,58.911L28.07,51.08L28.07,51.08z"/>
	<path fill="#FFFFFF" d="M39.714,46.17h12.093l-1.141,12.736l-10.952,2.955v10.217l20.131-5.579l0.148-1.659l2.308-25.852
		l0.24-2.637H39.714V46.17L39.714,46.17z M39.714,26.271v0.024h23.72l0.196-2.207l0.448-4.978l0.234-2.634H39.714V26.271z"/>
</g>
</svg>
