<?xml version="1.0" encoding="utf-8"?>
<!-- Generator: Adobe Illustrator 16.0.0, SVG Export Plug-In . SVG Version: 6.00 Build 0)  -->
<!DOCTYPE svg PUBLIC "-//W3C//DTD SVG 1.1//EN" "http://www.w3.org/Graphics/SVG/1.1/DTD/svg11.dtd">
<svg version="1.1" id="Layer_1" xmlns="http://www.w3.org/2000/svg" xmlns:xlink="http://www.w3.org/1999/xlink" x="0px" y="0px"
	 width="30px" height="30px" viewBox="0 0 30 30" enable-background="new 0 0 30 30" xml:space="preserve">
<title>Office</title>
<desc>Created with Sketch.</desc>
<g id="Contact-us-Copy-2">
	<g id="Contacts_1920-1440" transform="translate(-1234.000000, -1346.000000)">
		<rect id="Rectangle-6" x="1170" y="990" fill="none" width="380" height="627"/>
		<path id="Page-1" fill="#727272" enable-background="new    " d="M1249.143,1359.71c1.078,0,1.952-0.837,1.952-1.87
			s-0.874-1.869-1.952-1.869c-1.078,0-1.952,0.837-1.952,1.87S1248.065,1359.71,1249.143,1359.71 M1249.143,1351
			c3.945,0,7.143,3.063,7.143,6.84s-7.143,13.16-7.143,13.16s-7.143-9.382-7.143-13.159C1242,1354.063,1245.198,1351,1249.143,1351"
			/>
	</g>
</g>
</svg>
