<?xml version="1.0" encoding="UTF-8"?>
<!DOCTYPE svg PUBLIC "-//W3C//DTD SVG 1.1//EN" "http://www.w3.org/Graphics/SVG/1.1/DTD/svg11.dtd">
<!-- Creator: CorelDRAW -->
<svg xmlns="http://www.w3.org/2000/svg" xml:space="preserve" width="6.66666in" height="1.73333in" style="shape-rendering:geometricPrecision; text-rendering:geometricPrecision; image-rendering:optimizeQuality; fill-rule:evenodd; clip-rule:evenodd"
viewBox="0 0 6.66666 1.73333"
 xmlns:xlink="http://www.w3.org/1999/xlink">
 <defs>
  <style type="text/css">
   <![CDATA[
    .fil1 {fill:#FEFEFE}
    .fil0 {fill:#4E6CAC}
    .fil3 {fill:#4B4B4D;fill-rule:nonzero}
    .fil4 {fill:#848688;fill-rule:nonzero}
    .fil2 {fill:#4E6CAC;fill-rule:nonzero}
   ]]>
  </style>
 </defs>
 <g id="Layer_x0020_1">
  <metadata id="CorelCorpID_0Corel-Layer"/>
  <path class="fil0" d="M0.899752 0.0116654c0.454406,0 0.822906,0.368508 0.822906,0.822906 0,0.454398 -0.3685,0.822906 -0.822906,0.822906 -0.454406,0 -0.822906,-0.368508 -0.822906,-0.822906 0,-0.454398 0.3685,-0.822906 0.822906,-0.822906z"/>
  <path class="fil1" d="M1.30785 0.510441c-0.253138,0 -0.506287,0 -0.759441,0 -0.0545433,0.00798425 -0.0902087,0.0348661 -0.0982795,0.0893465 0,0.208469 0,0.416949 0,0.625421 0.00975591,0.0305394 0.0335787,0.045437 0.0714764,0.0446732 0.274,0 0.547996,0 0.821988,0 0.044311,-0.00768898 0.115988,-0.0410866 0.081315,-0.0832087 -0.0967913,-0.0967953 -0.311449,-0.232138 -0.309146,-0.278638 0.00311024,-0.0626299 0.192083,-0.201839 0.294843,-0.292346 0.029685,-0.0348504 -0.0193583,-0.100114 -0.102756,-0.105248zm-0.264787 0.106185c-0.0973701,0.0969449 -0.194732,0.184469 -0.292102,0.281409 -0.0108268,0.00998031 -0.00615354,0.0144055 0.000204724,0.021l0.297339 0.23563c-0.0756299,-0.0644921 -0.138209,-0.139843 -0.141512,-0.247941 0.00387795,-0.11815 0.0672047,-0.210118 0.136071,-0.290098z"/>
  <path class="fil2" d="M2.53795 0.846165c0.00570079,0 0.0108661,0.00231496 0.0155039,0.00695276l0.0406181 0.0443622c-0.0313583,0.0363465 -0.0693071,0.0646772 -0.114028,0.0849882 -0.0447205,0.0203071 -0.0987047,0.0304646 -0.16178,0.0304646 -0.0552283,0 -0.105295,-0.00962205 -0.150197,-0.028685 -0.0448976,-0.0190669 -0.0832047,-0.0457913 -0.114917,-0.0801772 -0.0317165,-0.0343858 -0.0562992,-0.0755433 -0.0737638,-0.12365 -0.0174606,-0.0481063 -0.026189,-0.10102 -0.026189,-0.158748 0,-0.0577244 0.00944094,-0.110646 0.0281496,-0.158752 0.0187047,-0.0481024 0.0448976,-0.089437 0.078752,-0.124004 0.0338504,-0.034563 0.0744764,-0.0614685 0.121689,-0.0805354 0.0472165,-0.019063 0.0992402,-0.0285039 0.156256,-0.0285039 0.0563031,0 0.104941,0.00873228 0.145744,0.0261929 0.0407953,0.0174606 0.0769685,0.0411535 0.108681,0.0710866l-0.0336732 0.0475748c-0.00249213,0.00355906 -0.00534252,0.00640945 -0.00855118,0.00872835 -0.00320866,0.00231496 -0.00784252,0.00356299 -0.0139016,0.00356299 -0.00462992,0 -0.00944094,-0.00177953 -0.0146102,-0.00516929 -0.00516142,-0.00338189 -0.0114016,-0.00748031 -0.0185236,-0.0124724 -0.00712992,-0.00498819 -0.0155039,-0.0103307 -0.025122,-0.0160315 -0.00962205,-0.00570079 -0.0210236,-0.0110472 -0.0342126,-0.0160354 -0.0131811,-0.00498819 -0.0285039,-0.00926772 -0.0459646,-0.0126496 -0.0174646,-0.00338583 -0.0375945,-0.00498819 -0.0604055,-0.00498819 -0.0409764,0 -0.0783898,0.00694882 -0.112421,0.0210236 -0.0340315,0.0140709 -0.0634291,0.0342087 -0.0880157,0.0602205 -0.0245866,0.0260118 -0.0436496,0.0577283 -0.0573701,0.0951417 -0.0137205,0.0374173 -0.0206693,0.0792874 -0.0206693,0.12561 0,0.047748 0.00694882,0.0903307 0.0206693,0.127748 0.0137205,0.0374134 0.0324252,0.0689528 0.056126,0.0947874 0.0236929,0.0258307 0.0516654,0.0456102 0.0840906,0.0591535 0.0324291,0.0135394 0.0673504,0.020311 0.104768,0.020311 0.0228031,0 0.0432953,-0.00142913 0.0614685,-0.00409843 0.0181693,-0.00267323 0.0350984,-0.00677165 0.0505984,-0.0124724 0.0155,-0.00570079 0.0299331,-0.0130079 0.0432953,-0.0217402 0.0133622,-0.00872835 0.0267244,-0.019063 0.0402677,-0.0311772 0.00605906,-0.00534646 0.011937,-0.00801969 0.0176378,-0.00801969zm0.283291 -0.383244l0 0.541461 -0.0951417 0 0 -0.541461 0.0951417 0zm0.0213819 -0.169969c0,0.00926378 -0.00178346,0.017815 -0.00552756,0.0258346 -0.00374016,0.00801181 -0.00872835,0.0151417 -0.0149646,0.021378 -0.00623622,0.00623622 -0.0135394,0.0112244 -0.0217402,0.0147874 -0.00819291,0.00356693 -0.0169213,0.00534646 -0.026185,0.00534646 -0.00926772,0 -0.0178189,-0.00177953 -0.0258386,-0.00534646 -0.00801575,-0.00356299 -0.0151417,-0.00855118 -0.021378,-0.0147874 -0.00623622,-0.00623622 -0.0112244,-0.0133661 -0.0147874,-0.021378 -0.00356299,-0.00801969 -0.00534646,-0.0165709 -0.00534646,-0.0258346 0,-0.00926772 0.00178346,-0.0181772 0.00534646,-0.0265512 0.00356299,-0.00837008 0.00855118,-0.0156811 0.0147874,-0.0219134 0.00623622,-0.00623622 0.0133622,-0.0110472 0.021378,-0.0146102 0.00801969,-0.00356299 0.0165709,-0.00534252 0.0258386,-0.00534252 0.00926378,0 0.0179921,0.00177953 0.026185,0.00534252 0.00820079,0.00356299 0.0155039,0.00837402 0.0217402,0.0146102 0.00623622,0.00623228 0.0112244,0.0135433 0.0149646,0.0219134 0.00374409,0.00837402 0.00552756,0.0172835 0.00552756,0.0265512zm0.310551 0.71998c-0.0427638,0 -0.0755472,-0.011937 -0.0985276,-0.035811 -0.0229843,-0.023874 -0.0345669,-0.0582598 -0.0345669,-0.103161l0 -0.331394 -0.0652126 0c-0.00570079,0 -0.0105118,-0.00177953 -0.0144291,-0.00516929 -0.00392126,-0.00338189 -0.00588189,-0.00855118 -0.00588189,-0.0156811l0 -0.0379449 0.0887283 -0.0112283 0.0219173 -0.167299c0.000712598,-0.00534646 0.00302756,-0.00979921 0.00694488,-0.013185 0.00392126,-0.00338583 0.00890945,-0.00498819 0.0149685,-0.00498819l0.0481063 0 0 0.186543 0.155008 0 0 0.0689528 -0.155008 0 0 0.32498c0,0.0228071 0.00552362,0.0397323 0.0165709,0.0507795 0.0110433,0.0110472 0.0252992,0.0165669 0.0427598,0.0165669 0.00997638,0 0.0187087,-0.0014252 0.0260118,-0.00409843 0.00730709,-0.00266929 0.0135394,-0.00551969 0.0188858,-0.00872835 0.00534646,-0.00320472 0.00998031,-0.00623622 0.0137205,-0.00890945 0.00374016,-0.00267323 0.00694488,-0.00392126 0.00979921,-0.00392126 0.00498819,0 0.00944488,0.0030315 0.0133622,0.00909055l0.0277953 0.0454331c-0.0163898,0.0153228 -0.0361693,0.0272598 -0.0593307,0.0359921 -0.0231654,0.00872835 -0.0470394,0.0131811 -0.071622,0.0131811zm0.234646 -0.00855118l0 -0.541461 0.0545197 0c0.0103346,0 0.0174606,0.00196063 0.0213819,0.00588189 0.00392126,0.00392126 0.00659055,0.010689 0.00801575,0.020311l0.00641732 0.0844528c0.0185236,-0.0377717 0.0415118,-0.0673504 0.0687677,-0.0885512 0.0272638,-0.0212008 0.0591535,-0.0317126 0.0958583,-0.0317126 0.0149646,0 0.0285039,0.0016063 0.040622,0.00498819 0.0121142,0.00338583 0.0233425,0.00819685 0.0336732,0.014252l-0.0122913 0.0710945c-0.00249606,0.00890551 -0.00801969,0.0133622 -0.0165709,0.0133622 -0.00498819,0 -0.0126496,-0.00178346 -0.0229843,-0.00516929 -0.0103346,-0.00338583 -0.0247677,-0.00498819 -0.0432913,-0.00498819 -0.0331417,0 -0.0607559,0.00961811 -0.0830276,0.0288622 -0.0222717,0.0192402 -0.0409843,0.0472126 -0.0559449,0.0839173l0 0.34476 -0.0951457 0zm0.51313 -0.541461l0 0.345295c0,0.0409803 0.00944094,0.0726929 0.0283307,0.0951457 0.0188819,0.0224449 0.0473937,0.0336732 0.0855197,0.0336732 0.0277953,0 0.0539843,-0.00659449 0.0785748,-0.0197795 0.0245866,-0.013185 0.0472126,-0.0315354 0.067878,-0.0550551l0 -0.39928 0.0951457 0 0 0.541461 -0.0566614 0c-0.0135394,0 -0.0220906,-0.00659055 -0.0256535,-0.0197795l-0.00748031 -0.0582598c-0.0235197,0.0260157 -0.0498937,0.0468583 -0.0791102,0.0627165 -0.0292205,0.0158543 -0.0627126,0.023874 -0.100488,0.023874 -0.0295748,0 -0.0555866,-0.00498819 -0.0782165,-0.0147874 -0.022626,-0.00980315 -0.0416929,-0.0235157 -0.0570157,-0.0413346 -0.0153189,-0.017815 -0.0267244,-0.039378 -0.0343819,-0.0646772 -0.00766142,-0.0253031 -0.0115827,-0.0532756 -0.0115827,-0.0839173l0 -0.345295 0.0951417 0zm0.822075 0.0892677c-0.00427953,0.00783858 -0.0108701,0.0117598 -0.0197795,0.0117598 -0.00534252,0 -0.0114016,-0.00196063 -0.0181732,-0.00588189 -0.00676772,-0.00391732 -0.0149646,-0.00837402 -0.0247638,-0.013185 -0.00979921,-0.00481102 -0.0215591,-0.00926378 -0.0351024,-0.0133622 -0.0135394,-0.00409843 -0.0295748,-0.00605906 -0.0481024,-0.00605906 -0.0160354,0 -0.0304646,0.00196063 -0.0432953,0.00605906 -0.0128307,0.00409843 -0.0236969,0.00979921 -0.0327835,0.0169252 -0.00909055,0.00712598 -0.0160354,0.0153228 -0.0208465,0.0247677 -0.00480709,0.00944094 -0.00730709,0.0197717 -0.00730709,0.0308228 0,0.0138976 0.00410236,0.0254803 0.0121181,0.0347402 0.00801575,0.00926378 0.0185276,0.0172835 0.0317165,0.0240551 0.0131811,0.00677165 0.0281496,0.0126496 0.0448937,0.0178189 0.016752,0.00516535 0.0340315,0.010685 0.0516732,0.0165669 0.0176378,0.00587795 0.0347441,0.0124724 0.0514882,0.0195984 0.016748,0.00712992 0.0317126,0.0160354 0.0449016,0.0267244 0.013185,0.010689 0.023874,0.0237008 0.0318937,0.0392008 0.00801181,0.0155 0.0119331,0.0342047 0.0119331,0.0559449 0,0.0249449 -0.00445276,0.0479252 -0.0133622,0.0691299 -0.00890945,0.0212008 -0.0220906,0.0395512 -0.0395512,0.0550551 -0.0174646,0.0155 -0.0388425,0.0277913 -0.0641417,0.0367008 -0.0252992,0.00890945 -0.0545197,0.0133622 -0.0876614,0.0133622 -0.0377677,0 -0.0719803,-0.00623622 -0.102626,-0.0185315 -0.0306417,-0.0122913 -0.0566535,-0.0279724 -0.0780354,-0.0472126l0.0224488 -0.0363465c0.00285039,-0.00462992 0.00623622,-0.00819685 0.0101535,-0.010689 0.00392126,-0.00249606 0.00909055,-0.00374409 0.0155039,-0.00374409 0.00640945,0 0.0131811,0.00249606 0.020311,0.00748425 0.00712205,0.00498819 0.0158543,0.0105118 0.0260118,0.0165709 0.0101535,0.00605906 0.0224488,0.0115787 0.0368819,0.0165709 0.0144331,0.00498425 0.0324252,0.00748031 0.0541614,0.00748031 0.0185276,0 0.0347402,-0.00249606 0.0486417,-0.00730709 0.0138976,-0.00481102 0.0254803,-0.0112244 0.0347441,-0.0194173 0.00925984,-0.00819685 0.0162126,-0.0176378 0.0206693,-0.0283307 0.00445276,-0.010689 0.00659055,-0.0220906 0.00659055,-0.0342087 0,-0.0149646 -0.00392126,-0.027437 -0.0119409,-0.0372362 -0.00801575,-0.00979921 -0.0187087,-0.0181732 -0.0318898,-0.025122 -0.013185,-0.00694882 -0.0281535,-0.0130039 -0.0450787,-0.0181732 -0.0169252,-0.00516929 -0.0342087,-0.0105118 -0.0518465,-0.0162126 -0.0176378,-0.00570079 -0.0349213,-0.0122913 -0.0518504,-0.0195984 -0.0169213,-0.00730315 -0.0320669,-0.0163937 -0.045252,-0.027437 -0.013185,-0.0110472 -0.0236969,-0.0247677 -0.0317165,-0.0409803 -0.00801181,-0.0162126 -0.0121142,-0.035815 -0.0121142,-0.0589764 0,-0.0206654 0.00427559,-0.040622 0.0128307,-0.059685 0.00855118,-0.019063 0.0210236,-0.035815 0.0374134,-0.0502441 0.0163937,-0.0144331 0.0365276,-0.0258346 0.0604016,-0.0343858 0.023874,-0.00855118 0.0511339,-0.0128307 0.0817756,-0.0128307 0.0356339,0 0.0677087,0.00552362 0.0960394,0.016752 0.0283228,0.0112205 0.0527362,0.0267244 0.0734055,0.0463228l-0.0213819 0.0347441z"/>
  <path class="fil3" d="M4.87108 1.00438l0 -0.794283 0.132024 0 0 0.313224c0.0217402,-0.0231614 0.0463228,-0.041689 0.0737638,-0.0554094 0.027437,-0.0137205 0.0595079,-0.0204921 0.0962126,-0.0204921 0.0299331,0 0.0573701,0.00605906 0.0821339,0.0183504 0.0247677,0.0122992 0.0461457,0.0302913 0.0641417,0.053811 0.0179961,0.0235157 0.0318898,0.0525591 0.0416929,0.087122 0.00979921,0.0345669 0.0146102,0.0742992 0.0146102,0.119201 0,0.0409764 -0.00552362,0.0789252 -0.0165709,0.11385 -0.0110433,0.0349173 -0.0267244,0.0652087 -0.0472165,0.0908622 -0.0204882,0.0256575 -0.045252,0.0456142 -0.0742953,0.0600433 -0.0290433,0.0144331 -0.0616457,0.0217402 -0.0976378,0.0217402 -0.016748,0 -0.0320669,-0.0017874 -0.0459685,-0.00516929 -0.0138976,-0.00338583 -0.0265433,-0.00801969 -0.0379488,-0.0140787 -0.0114016,-0.00605512 -0.0219134,-0.0135354 -0.0317165,-0.0222677 -0.00979921,-0.00872835 -0.0192402,-0.0183504 -0.0281457,-0.0290394l-0.00588189 0.036878c-0.0021378,0.00926772 -0.00570079,0.0158583 -0.0108661,0.0197756 -0.00516929,0.00392126 -0.0122953,0.00588189 -0.0212047,0.00588189l-0.087126 0zm0.256563 -0.454335c-0.0274331,0 -0.0507756,0.00570079 -0.0701969,0.0172835 -0.0194213,0.0115827 -0.0375945,0.0279724 -0.0543425,0.0489961l0 0.245874c0.0149685,0.0185315 0.0313583,0.0313583 0.049,0.0386614 0.0176378,0.00730709 0.0367008,0.0110512 0.0573701,0.0110512 0.0199528,0 0.0379488,-0.00374409 0.0539843,-0.0112283 0.0160315,-0.00748031 0.029752,-0.0188858 0.0409803,-0.0342047 0.0112244,-0.0153228 0.0197756,-0.0347441 0.0258346,-0.0580866 0.00605512,-0.0233386 0.00908268,-0.0507756 0.00908268,-0.0824882 0,-0.0320748 -0.00249213,-0.0593346 -0.00766142,-0.0816063 -0.00516142,-0.0222717 -0.0126496,-0.0402638 -0.0222717,-0.0541654 -0.00961811,-0.0138937 -0.0212008,-0.0240512 -0.0349173,-0.0304646 -0.0137205,-0.00641339 -0.0293976,-0.00962205 -0.0468622,-0.00962205zm0.471972 -0.0940709l0 0.3485c0,0.0334921 0.00784252,0.0593307 0.0233425,0.0776811 0.0154961,0.0183543 0.0386575,0.0276142 0.0696614,0.0276142 0.0228071,0 0.044185,-0.00516535 0.0641417,-0.0153189 0.0199567,-0.0101575 0.0388425,-0.0240551 0.0566575,-0.041874l0 -0.396602 0.132024 0 0 0.548406 -0.0807087 0c-0.0171024,0 -0.0283307,-0.00801969 -0.0336732,-0.0240512l-0.00909055 -0.0438346c-0.0114016,0.0114055 -0.0231614,0.0217402 -0.0352756,0.0311811 -0.0121181,0.00944488 -0.0249409,0.0174606 -0.0386614,0.0240551 -0.0137205,0.00659055 -0.0285118,0.0117598 -0.0443661,0.0155 -0.0158583,0.00374016 -0.0329606,0.00570079 -0.0511339,0.00570079 -0.0299331,0 -0.0563031,-0.00516929 -0.0792874,-0.0153228 -0.0229803,-0.0101575 -0.0424016,-0.0244094 -0.0580827,-0.0429409 -0.0156772,-0.0185236 -0.027437,-0.040622 -0.0354567,-0.0660984 -0.00801575,-0.0254803 -0.0121142,-0.0534528 -0.0121142,-0.0840945l0 -0.3485 0.132024 0zm0.676689 -0.00962205c0.0235197,0 0.0456102,0.00231496 0.0662756,0.00712598 0.0206693,0.00481102 0.0395551,0.0119409 0.0566614,0.0212008l0.157677 0 0 0.0491772c0,0.00819685 -0.0021378,0.0146102 -0.00640945,0.0192402 -0.00427953,0.00463386 -0.0115827,0.00784252 -0.0219213,0.00962205l-0.0491732 0.00908661c0.00356693,0.00926378 0.00641732,0.0190669 0.00837795,0.0293976 0.00196063,0.0103386 0.00285039,0.0212008 0.00285039,0.0326063 0,0.0270787 -0.00534646,0.0514921 -0.0162126,0.0734055 -0.0108701,0.0219173 -0.0258386,0.040622 -0.0449016,0.0559449 -0.019063,0.0153228 -0.0416929,0.0270827 -0.0678819,0.0354567 -0.026189,0.00837402 -0.0547008,0.0126496 -0.0853425,0.0126496 -0.0206693,0 -0.0408031,-0.00196063 -0.0604016,-0.00587795 -0.0171063,0.0105118 -0.0256575,0.0220945 -0.0256575,0.0350984 0,0.0110472 0.00516929,0.0192402 0.0153228,0.0245866 0.0101575,0.00516535 0.0235197,0.00890551 0.0400906,0.0110472 0.0165709,0.0021378 0.0352756,0.00320866 0.0562992,0.00320866 0.0210276,0 0.0425827,0.000889764 0.0646772,0.00266929 0.0220906,0.00178346 0.0436496,0.00499213 0.0646732,0.00944488 0.0210276,0.00445669 0.0399134,0.0114016 0.0564843,0.0212008 0.0165709,0.00962205 0.0299331,0.0226299 0.0400866,0.039374 0.0101575,0.0165709 0.0151417,0.0379528 0.0151417,0.0639646 0,0.0242323 -0.00587402,0.0479252 -0.017815,0.0707362 -0.011937,0.0229803 -0.0292205,0.0432913 -0.0518465,0.0611063 -0.0226299,0.0178189 -0.0504213,0.032252 -0.0832047,0.043122 -0.0327835,0.0108661 -0.0702008,0.0163898 -0.112248,0.0163898 -0.041689,0 -0.0778622,-0.00409843 -0.108504,-0.0121181 -0.0306457,-0.00801181 -0.0559449,-0.0187047 -0.0760787,-0.0320669 -0.0201339,-0.0133661 -0.0352795,-0.028689 -0.0452559,-0.0461496 -0.00997638,-0.0174567 -0.0149685,-0.0356339 -0.0149685,-0.0545157 0,-0.0256575 0.00784252,-0.0472165 0.0235197,-0.0646772 0.0156811,-0.0174606 0.0374173,-0.0313543 0.0652087,-0.0416929 -0.0135394,-0.00748031 -0.0244055,-0.0174606 -0.0326024,-0.0299331 -0.00819291,-0.0124724 -0.0122953,-0.028685 -0.0122953,-0.0486378 0,-0.00819685 0.0014252,-0.016748 0.00427559,-0.0254803 0.00285039,-0.00872835 0.00730709,-0.0172795 0.013189,-0.0258307 0.00587795,-0.00855512 0.0131811,-0.016752 0.0220906,-0.0244134 0.00890945,-0.00766142 0.0194213,-0.0144291 0.0315354,-0.0204882 -0.0277953,-0.0149646 -0.0495315,-0.0349213 -0.0653898,-0.0598622 -0.0158583,-0.0249488 -0.0238701,-0.0541654 -0.0238701,-0.0876614 0,-0.0270787 0.00551969,-0.0516693 0.0163898,-0.0735827 0.0108661,-0.0219173 0.0260118,-0.040622 0.0454331,-0.056126 0.0194173,-0.0155 0.0424055,-0.0272598 0.0689488,-0.0354528 0.0265472,-0.00819685 0.0554134,-0.0122953 0.0867717,-0.0122953zm0.14485 0.581012c0,-0.0108701 -0.00320866,-0.0197795 -0.00962205,-0.0267244 -0.00641339,-0.00694882 -0.0151417,-0.0122992 -0.026189,-0.0160394 -0.0110472,-0.00391732 -0.023874,-0.00659055 -0.0386654,-0.00855118 -0.0147874,-0.00177953 -0.0304646,-0.00267323 -0.0470354,-0.00267323 -0.0165709,0 -0.0336732,0 -0.051311,0 -0.0176417,0 -0.0347441,-0.00195669 -0.0511378,-0.00587795 -0.0149646,0.00819685 -0.0269016,0.0178189 -0.0359921,0.0290433 -0.00908268,0.0112205 -0.0137126,0.0242283 -0.0137126,0.0388425 0,0.00961811 0.00249213,0.0185236 0.00730315,0.0269016 0.00481102,0.00837402 0.0124685,0.0156811 0.0229803,0.0217362 0.0105118,0.00605906 0.0240551,0.010689 0.0408031,0.0140748 0.016748,0.00338583 0.0372362,0.00516535 0.0614685,0.00516535 0.0245906,0 0.0457913,-0.00196063 0.0636063,-0.00570079 0.0178189,-0.00392126 0.0326024,-0.00908268 0.044185,-0.0158543 0.0115827,-0.00677165 0.0199567,-0.0147913 0.0252992,-0.0240512 0.00535039,-0.00926772 0.00801969,-0.0194213 0.00801969,-0.0302913zm-0.14485 -0.310551c0.0163898,0 0.0306417,-0.0023189 0.0427598,-0.00677165 0.0121142,-0.00445276 0.0222717,-0.0105118 0.0302874,-0.0183504 0.00801969,-0.00783858 0.0140787,-0.0172835 0.0181732,-0.0283307 0.00409843,-0.0110433 0.00605906,-0.0231614 0.00605906,-0.0363465 0,-0.0270787 -0.00801969,-0.0486378 -0.0242323,-0.0644961 -0.0162126,-0.0158583 -0.040622,-0.0236929 -0.0730472,-0.0236929 -0.0324252,0 -0.0566575,0.00783465 -0.0728701,0.0236929 -0.0162165,0.0158583 -0.0244134,0.0374173 -0.0244134,0.0644961 0,0.0128307 0.00214173,0.0247677 0.00623622,0.035815 0.00409843,0.0110472 0.0101575,0.0204882 0.0181772,0.0285039 0.00801181,0.00801969 0.0181732,0.0142559 0.0304646,0.0187087 0.0122913,0.00445276 0.0263701,0.00677165 0.0424055,0.00677165z"/>
  <path class="fil4" d="M2.11085 1.43395c0,0.00573228 -0.00143307,0.00988189 -0.00429921,0.0122953 -0.00286614,0.00241339 -0.0061063,0.00361811 -0.00980315,0.00361811l-0.130374 0c0,0.0110827 0.00113386,0.0209606 0.0033189,0.0298583 0.00218898,0.00882283 0.00588189,0.0163622 0.0110866,0.0226969 0.00512992,0.00633465 0.0118386,0.0112323 0.0200551,0.0146299 0.00829528,0.00338976 0.0183228,0.00505118 0.030315,0.00505118 0.0094252,0 0.0177953,-0.000755906 0.025185,-0.00233858 0.00731496,-0.00150787 0.0137244,-0.00324409 0.0190748,-0.00520472 0.00535827,-0.00188189 0.00980315,-0.00361811 0.0132717,-0.00512598 0.0034685,-0.00158268 0.00603543,-0.00233858 0.00784252,-0.00233858 0.000980315,0 0.00196063,0.000228346 0.00271654,0.000755906 0.000826772,0.000527559 0.00142913,0.00127953 0.00188189,0.00233465 0.000452756,0.00105512 0.000830709,0.00249213 0.00105512,0.00430315 0.000153543,0.00180709 0.00030315,0.00407087 0.00030315,0.00670866 0,0.00196063 -7.48031e-005,0.00361811 -0.000224409,0.00497638 -0.000149606,0.00143307 -0.00030315,0.00264173 -0.000531496,0.00377165 -0.000224409,0.00112992 -0.000602362,0.00211024 -0.00112598,0.00301575 -0.000531496,0.000826772 -0.00120866,0.00173228 -0.00196063,0.00248425 -0.000834646,0.000834646 -0.00324803,0.00218898 -0.00724016,0.004 -0.00392126,0.00181102 -0.00912205,0.00361811 -0.0154567,0.00542913 -0.00633465,0.00173228 -0.0136496,0.0033189 -0.0219449,0.00474803 -0.00829528,0.00135827 -0.0171929,0.00211417 -0.0266142,0.00211417 -0.0163622,0 -0.0306929,-0.00233858 -0.0429803,-0.0068622 -0.0122953,-0.00460236 -0.022622,-0.0113858 -0.0310709,-0.0203583 -0.00836614,-0.00897244 -0.0147008,-0.0202087 -0.0190039,-0.0337795 -0.00421654,-0.0135748 -0.00640551,-0.0293346 -0.00640551,-0.0472835 0,-0.0170394 0.00226378,-0.0324213 0.00663386,-0.0460669 0.00444882,-0.0135748 0.0107835,-0.025189 0.0191575,-0.034689 0.0082874,-0.0095 0.0183189,-0.0167402 0.0301575,-0.0218661 0.0117638,-0.00505118 0.0249606,-0.00761811 0.0395118,-0.00761811 0.0156102,0 0.028878,0.00249213 0.0398898,0.00754331 0.0109331,0.00497638 0.0199803,0.0117638 0.0270709,0.0202087 0.00708661,0.00844488 0.0122165,0.0183976 0.0155315,0.0297835 0.0033189,0.0114606 0.00497638,0.0236024 0.00497638,0.0365709l0 0.00663386zm-0.0366457 -0.0107795c0.000452756,-0.0191575 -0.00377165,-0.0342323 -0.0127441,-0.0450945 -0.00889764,-0.0109291 -0.0220906,-0.0163583 -0.0395866,-0.0163583 -0.00904724,0 -0.0168898,0.00173228 -0.0236772,0.00512598 -0.00678346,0.0033189 -0.012437,0.00783858 -0.0169646,0.0134173 -0.00460236,0.00558268 -0.00814173,0.0121457 -0.0106339,0.0195315 -0.00248819,0.0074685 -0.00392126,0.0152323 -0.00422441,0.023378l0.107831 0zm0.263307 0.118835c0,0.00112992 -0.000299213,0.00218504 -0.000905512,0.00294094 -0.000602362,0.000830709 -0.00150394,0.00150787 -0.00285827,0.00211024 -0.00135827,0.000602362 -0.00316929,0.00105512 -0.00550787,0.00135827 -0.00241339,0.000299213 -0.00535433,0.000452756 -0.00882283,0.000452756 -0.00369685,0 -0.0067126,-0.000153543 -0.00912598,-0.000452756 -0.00233465,-0.00030315 -0.00414567,-0.000755906 -0.00550394,-0.00135827 -0.00127953,-0.000602362 -0.00225984,-0.00127953 -0.0028622,-0.00211024 -0.000606299,-0.000755906 -0.000905512,-0.00181102 -0.000905512,-0.00294094l0 -0.116425c0,-0.0113819 -0.000830709,-0.0205079 -0.0026378,-0.0273701 -0.00173622,-0.00693701 -0.00429921,-0.0128937 -0.00769291,-0.0179488 -0.0033937,-0.00497638 -0.00776772,-0.0088189 -0.0131929,-0.0114567 -0.00535827,-0.00264173 -0.0115394,-0.004 -0.0186299,-0.004 -0.00912205,0 -0.0182441,0.00324409 -0.0273701,0.00972835 -0.00919685,0.00648425 -0.0187756,0.0159843 -0.0287283,0.0285039l0 0.138969c0,0.00112992 -0.00030315,0.00218504 -0.000905512,0.00294094 -0.000602362,0.000830709 -0.00158268,0.00150787 -0.0028622,0.00211024 -0.00135827,0.000602362 -0.00316929,0.00105512 -0.00550787,0.00135827 -0.00241339,0.000299213 -0.00542913,0.000452756 -0.00912205,0.000452756 -0.0034685,0 -0.00641339,-0.000153543 -0.00882677,-0.000452756 -0.00233465,-0.00030315 -0.00421654,-0.000755906 -0.0055748,-0.00135827 -0.00143307,-0.000602362 -0.00241339,-0.00127953 -0.00286614,-0.00211024 -0.000527559,-0.000755906 -0.000830709,-0.00181102 -0.000830709,-0.00294094l0 -0.198839c0,-0.00120866 0.000228346,-0.00218504 0.000681102,-0.00301969 0.000452756,-0.000751969 0.00135827,-0.00150787 0.0026378,-0.0021811 0.00135827,-0.000681102 0.00301575,-0.00105906 0.00512598,-0.0012874 0.00203543,-0.000224409 0.00474803,-0.000374016 0.00814567,-0.000374016 0.00324016,0 0.00595669,0.000149606 0.00806693,0.000374016 0.00211024,0.000228346 0.00377165,0.000606299 0.00497638,0.0012874 0.00113386,0.000673228 0.00203937,0.00142913 0.00256299,0.0021811 0.000452756,0.000834646 0.000755906,0.00181102 0.000755906,0.00301969l0 0.026315c0.0111614,-0.0125197 0.0223189,-0.0217165 0.0334764,-0.0275236 0.0110866,-0.00580315 0.0223228,-0.00874803 0.0336339,-0.00874803 0.0132717,0 0.0244291,0.00226378 0.0334764,0.0067874 0.00905118,0.00445276 0.0164409,0.0104803 0.0220197,0.0179488 0.00558268,0.00753937 0.0095748,0.0163622 0.0119882,0.0263898 0.00248819,0.0101024 0.00369291,0.0222441 0.00369291,0.0363465l0 0.121323zm0.209398 -0.030315c0,0.00256693 -7.48031e-005,0.00467717 -0.000224409,0.00656299 -0.000149606,0.00181102 -0.000452756,0.0033937 -0.000755906,0.00459843 -0.000377953,0.00128346 -0.000830709,0.00241339 -0.00135433,0.0033189 -0.000531496,0.000980315 -0.00166142,0.00241339 -0.00354724,0.00422441 -0.00181102,0.00180709 -0.00497638,0.00414567 -0.00935039,0.00685827 -0.00444882,0.00271654 -0.0094252,0.00512992 -0.0149291,0.00724016 -0.00550394,0.00218898 -0.0115394,0.00392126 -0.0180236,0.00520472 -0.00648031,0.00135827 -0.0131929,0.00203543 -0.0201339,0.00203543 -0.014248,0 -0.0269173,-0.00241339 -0.0379252,-0.00709055 -0.0110866,-0.00474803 -0.0202835,-0.0116102 -0.027748,-0.0206575 -0.00746457,-0.00905118 -0.013122,-0.0202087 -0.0170433,-0.0333307 -0.00384252,-0.0131969 -0.00580315,-0.0284291 -0.00580315,-0.0456181 0,-0.0196063 0.00233465,-0.0364213 0.00716142,-0.0505197 0.00475197,-0.0140276 0.011311,-0.025563 0.0196811,-0.0345354 0.00829134,-0.00897244 0.0180945,-0.015685 0.0293307,-0.0199843 0.011311,-0.00437402 0.0234528,-0.00655906 0.0365709,-0.00655906 0.00633465,0 0.0125197,0.000606299 0.0184724,0.00181102 0.00596063,0.00112992 0.0114646,0.00271654 0.0164409,0.00459843 0.00497638,0.00188583 0.0095,0.00414961 0.0133465,0.00663386 0.00392126,0.00248819 0.00678346,0.00459843 0.00852362,0.00640945 0.00180709,0.00173622 0.00301575,0.00316535 0.00361811,0.00422441 0.000677165,0.000980315 0.00127953,0.00218898 0.00165748,0.00361811 0.000452756,0.00143307 0.000755906,0.00294488 0.000905512,0.00475197 0.000149606,0.00173228 0.000224409,0.00399606 0.000224409,0.0066378 0,0.00572441 -0.000677165,0.00972441 -0.00196063,0.0119882 -0.00135827,0.00233465 -0.00293701,0.0034685 -0.00489764,0.0034685 -0.00218898,0 -0.00475591,-0.00120866 -0.00761811,-0.00362205 -0.00286614,-0.00248819 -0.00648819,-0.00512598 -0.0109331,-0.00807087 -0.00437402,-0.00293701 -0.00972835,-0.00565354 -0.0159882,-0.00806299 -0.00625591,-0.00248819 -0.0136457,-0.00369685 -0.0222441,-0.00369685 -0.0174921,0 -0.0309134,0.0067874 -0.0402638,0.0202087 -0.00935039,0.0135 -0.0140276,0.0330276 -0.0140276,0.0586654 0,0.0128189 0.00120866,0.0240512 0.00362205,0.0337047 0.00241339,0.00965354 0.0060315,0.0177205 0.0107087,0.0242047 0.00474803,0.00648425 0.0104764,0.011311 0.0173425,0.0144764 0.00685827,0.00316929 0.0147008,0.00475197 0.0235236,0.00475197 0.00837402,0 0.0157598,-0.00135827 0.0220945,-0.00399606 0.00633465,-0.00264173 0.0118386,-0.00557874 0.016437,-0.00874803 0.00467717,-0.00316535 0.00859843,-0.0060315 0.0117638,-0.00859449 0.00316929,-0.00256693 0.00558268,-0.00384646 0.00738976,-0.00384646 0.000980315,0 0.00188583,0.00030315 0.0026378,0.000826772 0.000755906,0.000606299 0.00135827,0.00158661 0.00188976,0.00301969 0.000523622,0.00143307 0.000826772,0.00316535 0.00105512,0.00527559 0.000224409,0.00218898 0.000374016,0.00467717 0.000374016,0.00761417zm0.229453 -0.0713268c0,0.0162087 -0.00211417,0.0311417 -0.00640945,0.0447087 -0.00422441,0.0136535 -0.0106299,0.0254134 -0.0190748,0.0352953 -0.00844882,0.00987402 -0.0190787,0.0175669 -0.0318228,0.0230709 -0.0127441,0.00550394 -0.0275236,0.00829528 -0.0442598,0.00829528 -0.0163661,0 -0.0306181,-0.00248819 -0.0427559,-0.00731496 -0.0121378,-0.00482677 -0.0223228,-0.0119134 -0.0303898,-0.021189 -0.00806693,-0.00927559 -0.0140984,-0.0205827 -0.0180984,-0.0338543 -0.00399213,-0.0131969 -0.00595276,-0.0282756 -0.00595276,-0.0450197 0,-0.0162087 0.00211024,-0.0311417 0.00625591,-0.0447126 0.00422441,-0.0136496 0.0105551,-0.0254134 0.0190039,-0.0352913 0.00844488,-0.00987402 0.0190748,-0.0174921 0.0317441,-0.0229173 0.0126693,-0.00550787 0.0274449,-0.00822441 0.0443386,-0.00822441 0.0163622,0 0.0306142,0.00241339 0.042752,0.0073189 0.0121417,0.00482677 0.0223189,0.0119094 0.0303898,0.021189 0.00814567,0.00927165 0.0141732,0.0205827 0.0182441,0.0337795 0.0040748,0.0132717 0.00603543,0.0282008 0.00603543,0.0448661zm-0.038378 0.00241339c0,-0.0107087 -0.00105512,-0.0208898 -0.00301575,-0.0304685 -0.00196063,-0.0095748 -0.00527953,-0.0179409 -0.00980315,-0.0251811 -0.00460236,-0.00724016 -0.0107874,-0.0128976 -0.0185512,-0.0171181 -0.00784252,-0.00422047 -0.0175709,-0.00633071 -0.0291811,-0.00633071 -0.0107835,0 -0.0199843,0.00196063 -0.027748,0.00580315 -0.00769291,0.00377165 -0.0141024,0.00920079 -0.0190787,0.0162126 -0.00505118,0.00701181 -0.00874409,0.0153031 -0.0111575,0.0248819 -0.00241339,0.0095748 -0.00362205,0.0199843 -0.00362205,0.0313661 0,0.0108622 0.000980315,0.0211181 0.00294094,0.0306929 0.00196063,0.0095748 0.00527953,0.0179449 0.00995276,0.0250354 0.00459843,0.00716142 0.0108583,0.012815 0.018626,0.0170394 0.00784252,0.00422047 0.0175669,0.00625984 0.0291811,0.00625984 0.0106299,0 0.0198307,-0.00188976 0.0275984,-0.00573228 0.00784252,-0.00384646 0.014252,-0.00920079 0.0192283,-0.0161378 0.00505118,-0.00685827 0.00874803,-0.0151535 0.0110827,-0.0247283 0.00233858,-0.00957874 0.00354724,-0.0200591 0.00354724,-0.0315945zm0.262402 0.0992283c0,0.00112992 -0.000228346,0.00218504 -0.000751969,0.00309055 -0.000531496,0.000830709 -0.00143701,0.00158661 -0.00264173,0.00211024 -0.00127953,0.000452756 -0.00294094,0.000905512 -0.00497638,0.00120866 -0.00211417,0.000299213 -0.00459843,0.000452756 -0.00754331,0.000452756 -0.00308661,0 -0.00565354,-0.000153543 -0.00768504,-0.000452756 -0.00211417,-0.00030315 -0.00377165,-0.000755906 -0.00512992,-0.00120866 -0.00128346,-0.000523622 -0.00225984,-0.00127953 -0.00286614,-0.00211024 -0.000602362,-0.000905512 -0.000901575,-0.00196063 -0.000901575,-0.00309055l0 -0.026315c-0.0104094,0.0113858 -0.0212677,0.0202047 -0.0325787,0.0265394 -0.0112323,0.00633465 -0.0236024,0.00950394 -0.0369449,0.00950394 -0.0146299,0 -0.0270709,-0.00286614 -0.0374016,-0.00851969 -0.0102559,-0.00565748 -0.018622,-0.0133465 -0.0250354,-0.023 -0.00640945,-0.00964961 -0.0110827,-0.0209646 -0.0140276,-0.0340079 -0.00293701,-0.0130433 -0.00444488,-0.0267677 -0.00444488,-0.0411693 0,-0.0171181 0.00188583,-0.0325748 0.00550394,-0.0462953 0.00369685,-0.0138031 0.00919685,-0.0255669 0.0163622,-0.0352165 0.00724016,-0.00972835 0.0162126,-0.0171929 0.0268425,-0.0224724 0.0107087,-0.00520079 0.023,-0.00784252 0.0370236,-0.00784252 0.0116142,0 0.0222441,0.00256693 0.0318976,0.00761811 0.00965354,0.00512598 0.0192283,0.0125945 0.0286535,0.0224685l0 -0.115591c0,-0.000984252 0.000224409,-0.00196063 0.000751969,-0.00294488 0.000531496,-0.000976378 0.00150787,-0.00173228 0.00301575,-0.00218504 0.00143701,-0.000527559 0.0033189,-0.000980315 0.00558268,-0.00135827 0.00225984,-0.000377953 0.00520472,-0.000527559 0.00874409,-0.000527559 0.00369685,0 0.0067126,0.000149606 0.00905118,0.000527559 0.00233465,0.000377953 0.00422441,0.000830709 0.00550394,0.00135827 0.00135433,0.000452756 0.00233858,0.00120866 0.00301575,0.00218504 0.000681102,0.000984252 0.000980315,0.00196063 0.000980315,0.00294488l0 0.294299zm-0.0366457 -0.139874c-0.00987795,-0.0122165 -0.0194528,-0.0214882 -0.0286535,-0.0279016 -0.00920079,-0.00640551 -0.0187756,-0.00964961 -0.0288071,-0.00964961 -0.00927165,0 -0.017189,0.00226378 -0.0236024,0.0066378 -0.00648425,0.00444882 -0.0117598,0.010252 -0.0158307,0.0174921 -0.00407087,0.00716535 -0.00701575,0.0153819 -0.00882283,0.0245039 -0.00188583,0.00912598 -0.00279134,0.0184016 -0.00279134,0.0278268 0,0.0100315 0.000755906,0.0198307 0.00233858,0.0294094 0.00150787,0.0095 0.00422047,0.0180197 0.00807087,0.0254843 0.00384252,0.00746457 0.0088937,0.0134213 0.0152283,0.0178701 0.00633465,0.00452362 0.0143268,0.0067874 0.0238268,0.0067874 0.00490157,0 0.00957874,-0.000677165 0.0141024,-0.00203543 0.00444882,-0.00128346 0.00904724,-0.00354724 0.0137953,-0.0066378 0.00467717,-0.00309449 0.00965354,-0.00708661 0.0147835,-0.0119882 0.00512598,-0.00497638 0.0106299,-0.0110079 0.0163622,-0.018248l0 -0.0795512zm0.140476 0.139874c0,0.00112992 -0.00030315,0.00218504 -0.000905512,0.00294094 -0.000606299,0.000830709 -0.00158268,0.00150787 -0.00286614,0.00211024 -0.00135827,0.000602362 -0.00316929,0.00105512 -0.00550394,0.00135827 -0.00241339,0.000299213 -0.00542913,0.000452756 -0.00912205,0.000452756 -0.0034685,0 -0.00641339,-0.000153543 -0.00882677,-0.000452756 -0.00233465,-0.00030315 -0.00422047,-0.000755906 -0.00557874,-0.00135827 -0.00142913,-0.000602362 -0.00241339,-0.00127953 -0.00286614,-0.00211024 -0.000523622,-0.000755906 -0.000826772,-0.00181102 -0.000826772,-0.00294094l0 -0.198839c0,-0.00105512 0.00030315,-0.00196063 0.000826772,-0.00286614 0.000452756,-0.000905512 0.00143701,-0.00166142 0.00286614,-0.00218504 0.00135827,-0.000602362 0.00324409,-0.00105512 0.00557874,-0.00135827 0.00241339,-0.00030315 0.00535827,-0.000452756 0.00882677,-0.000452756 0.00369291,0 0.00670866,0.000149606 0.00912205,0.000452756 0.00233465,0.00030315 0.00414567,0.000755906 0.00550394,0.00135827 0.00128346,0.000523622 0.00225984,0.00127953 0.00286614,0.00218504 0.000602362,0.000905512 0.000905512,0.00181102 0.000905512,0.00286614l0 0.198839zm0.00414567 -0.266024c0,0.00859843 -0.00158268,0.0144016 -0.00482283,0.0174921 -0.00324409,0.00309055 -0.00920079,0.00460236 -0.0178701,0.00460236 -0.00859843,0 -0.0144055,-0.00151181 -0.0175748,-0.00452756 -0.00316535,-0.00301575 -0.00474803,-0.00866929 -0.00474803,-0.0171142 0,-0.00852362 0.00158268,-0.0143268 0.00482677,-0.0174173 0.00324016,-0.00309449 0.00920079,-0.00467717 0.0178701,-0.00467717 0.00859449,0 0.0144016,0.00150787 0.0175669,0.00452362 0.00316929,0.00301969 0.00475197,0.00874409 0.00475197,0.0171181zm0.234433 0.266024c0,0.00112992 -0.000299213,0.00218504 -0.000905512,0.00294094 -0.000602362,0.000830709 -0.00150787,0.00150787 -0.0028622,0.00211024 -0.00135827,0.000602362 -0.00316929,0.00105512 -0.00550787,0.00135827 -0.00241339,0.000299213 -0.00535433,0.000452756 -0.00882283,0.000452756 -0.00369291,0 -0.00670866,-0.000153543 -0.00912205,-0.000452756 -0.00233858,-0.00030315 -0.00414961,-0.000755906 -0.00550787,-0.00135827 -0.00127953,-0.000602362 -0.00225984,-0.00127953 -0.0028622,-0.00211024 -0.000606299,-0.000755906 -0.000905512,-0.00181102 -0.000905512,-0.00294094l0 -0.116425c0,-0.0113819 -0.000830709,-0.0205079 -0.0026378,-0.0273701 -0.00173622,-0.00693701 -0.00429528,-0.0128937 -0.00769291,-0.0179488 -0.00338976,-0.00497638 -0.00776378,-0.0088189 -0.0131929,-0.0114567 -0.00535827,-0.00264173 -0.0115354,-0.004 -0.018626,-0.004 -0.00912598,0 -0.018248,0.00324409 -0.0273701,0.00972835 -0.00920079,0.00648425 -0.0187756,0.0159843 -0.0287283,0.0285039l0 0.138969c0,0.00112992 -0.00030315,0.00218504 -0.000905512,0.00294094 -0.000606299,0.000830709 -0.00158661,0.00150787 -0.00286614,0.00211024 -0.00135827,0.000602362 -0.00316929,0.00105512 -0.00550787,0.00135827 -0.00241339,0.000299213 -0.0054252,0.000452756 -0.00912205,0.000452756 -0.0034685,0 -0.00640945,-0.000153543 -0.00882283,-0.000452756 -0.00233858,-0.00030315 -0.00422047,-0.000755906 -0.00557874,-0.00135827 -0.00143307,-0.000602362 -0.00241339,-0.00127953 -0.00286614,-0.00211024 -0.000527559,-0.000755906 -0.000830709,-0.00181102 -0.000830709,-0.00294094l0 -0.198839c0,-0.00120866 0.000228346,-0.00218504 0.000681102,-0.00301969 0.000452756,-0.000751969 0.00135827,-0.00150787 0.0026378,-0.0021811 0.00135827,-0.000681102 0.00301575,-0.00105906 0.00512598,-0.0012874 0.00203937,-0.000224409 0.00475197,-0.000374016 0.00814567,-0.000374016 0.00324409,0 0.00596063,0.000149606 0.00806693,0.000374016 0.00211024,0.000228346 0.00377165,0.000606299 0.00497638,0.0012874 0.00113386,0.000673228 0.00203937,0.00142913 0.00256299,0.0021811 0.000452756,0.000834646 0.000755906,0.00181102 0.000755906,0.00301969l0 0.026315c0.0111614,-0.0125197 0.0223189,-0.0217165 0.0334803,-0.0275236 0.0110827,-0.00580315 0.0223189,-0.00874803 0.0336299,-0.00874803 0.0132717,0 0.0244331,0.00226378 0.0334764,0.0067874 0.00905118,0.00445276 0.0164409,0.0104803 0.0220197,0.0179488 0.00558268,0.00753937 0.0095748,0.0163622 0.0119882,0.0263898 0.00249213,0.0101024 0.00369685,0.0222441 0.00369685,0.0363465l0 0.121323zm0.232543 -0.189791c0,0.00520079 -0.000677165,0.00889764 -0.00203543,0.0111614 -0.00143307,0.00226378 -0.00324016,0.0034685 -0.00542913,0.0034685l-0.0285 0c0.00512205,0.00527953 0.00874409,0.0110827 0.0107795,0.0174921 0.00211417,0.00640945 0.00309055,0.013122 0.00309055,0.0200591 0,0.0114606 -0.00181102,0.0216378 -0.00550394,0.0304606 -0.00369291,0.00882283 -0.00889764,0.0162874 -0.0157559,0.0223937 -0.00686614,0.00611024 -0.0150079,0.0107874 -0.0244331,0.0140276 -0.0094252,0.00324409 -0.0199055,0.00490157 -0.0313661,0.00490157 -0.00807087,0 -0.0158386,-0.00105512 -0.0230748,-0.00324409 -0.00731496,-0.00211024 -0.0129724,-0.00482677 -0.0168898,-0.00806693 -0.00264173,0.0026378 -0.00482677,0.00565354 -0.00656299,0.00905118 -0.00165748,0.00338976 -0.00248425,0.00731102 -0.00248425,0.0117598 0,0.00512598 0.00233465,0.0094252 0.00716142,0.0128189 0.00474803,0.0033937 0.0111614,0.00520472 0.0190748,0.00550787l0.0519567 0.00218504c0.00987795,0.000299213 0.0189252,0.00165748 0.0271417,0.00407087 0.00822441,0.00248819 0.0153858,0.00588189 0.0214173,0.0104055 0.0060315,0.00452362 0.0107835,0.0100276 0.0141772,0.0165866 0.00338976,0.00656299 0.00505118,0.0141772 0.00505118,0.0228504 0,0.00912205 -0.00188583,0.0177953 -0.00573228,0.0260906 -0.00384252,0.00821654 -0.00972441,0.0154567 -0.0175669,0.0217165 -0.00791732,0.00625591 -0.0179488,0.0112323 -0.0301654,0.0148543 -0.0122126,0.00353937 -0.0266181,0.00535039 -0.0432795,0.00535039 -0.016063,0 -0.0297087,-0.00135827 -0.0410197,-0.00407087 -0.0112362,-0.00271654 -0.0205118,-0.00640945 -0.0276732,-0.0111575 -0.00724016,-0.00467717 -0.0124409,-0.0103346 -0.015685,-0.0168898 -0.00324016,-0.00656299 -0.00490157,-0.0136496 -0.00490157,-0.0213425 0,-0.00482283 0.000606299,-0.00957874 0.00181102,-0.0140984 0.00112992,-0.00460236 0.00294094,-0.00889764 0.00535433,-0.0130472 0.00248819,-0.00414567 0.00550394,-0.00806693 0.00912598,-0.0118386 0.00353937,-0.00376772 0.00776378,-0.00746063 0.0124409,-0.0111575 -0.00724016,-0.00369685 -0.0125197,-0.00829528 -0.0159882,-0.013878 -0.0034685,-0.0055748 -0.00520079,-0.011685 -0.00520079,-0.0181693 0,-0.00897244 0.00180709,-0.0169685 0.00550394,-0.0240551 0.00369685,-0.00709055 0.00829134,-0.0134213 0.0137244,-0.019 -0.00459843,-0.00542913 -0.00822047,-0.0116142 -0.0108622,-0.0183976 -0.0026378,-0.0068622 -0.00399213,-0.0151575 -0.00399213,-0.0248858 0,-0.0113071 0.00196063,-0.0214921 0.00580315,-0.0304606 0.00377165,-0.00897244 0.00912205,-0.0165906 0.0159094,-0.0227756 0.0067126,-0.00618504 0.0148583,-0.0109331 0.0243543,-0.014252 0.00950394,-0.00331496 0.0199094,-0.00497638 0.0310709,-0.00497638 0.0060315,0 0.011685,0.00030315 0.0168858,0.000984252 0.00520472,0.000677165 0.0101063,0.00157874 0.0147087,0.0027874l0.0600945 0c0.00248819,0 0.00437402,0.00120472 0.00557874,0.00361811 0.00128346,0.00241339 0.00188583,0.00618504 0.00188583,0.0111614zm-0.0569291 0.0523307c0,-0.0134961 -0.00377165,-0.0240551 -0.0111614,-0.0316693 -0.00746457,-0.00761811 -0.0180197,-0.0113858 -0.0317441,-0.0113858 -0.00709055,0 -0.0131969,0.00120472 -0.0183976,0.00354331 -0.00527559,0.00233858 -0.00957874,0.00558268 -0.0130472,0.00972835 -0.0034685,0.00414567 -0.0060315,0.00889764 -0.00776378,0.014248 -0.00166142,0.00535827 -0.00256299,0.0110118 -0.00256299,0.0168937 0,0.013122 0.00376772,0.0234488 0.0111575,0.0309134 0.00746457,0.00753937 0.0178701,0.011311 0.0312953,0.011311 0.00724016,0 0.0134961,-0.00112992 0.0187756,-0.0034685 0.00527559,-0.00226378 0.00964961,-0.00542913 0.0131181,-0.0095 0.0034685,-0.00399606 0.00603543,-0.00867323 0.00776772,-0.0140236 0.00165748,-0.00527953 0.00256299,-0.0107874 0.00256299,-0.0165906zm0.0183228 0.157516c0,-0.00851969 -0.00354331,-0.0150787 -0.0104803,-0.019752 -0.00701575,-0.00460236 -0.0165118,-0.00709055 -0.0284291,-0.00738976l-0.0515 -0.00173228c-0.00467717,0.00361417 -0.00851969,0.00716142 -0.0115354,0.0104803 -0.00301575,0.00331496 -0.00542913,0.00648425 -0.00724016,0.0095 -0.00173228,0.00301575 -0.00294094,0.00595669 -0.00361811,0.0088937 -0.000677165,0.00294488 -0.000980315,0.00596063 -0.000980315,0.00905118 0,0.00957874 0.00482677,0.0168898 0.0145512,0.0217913 0.00972835,0.00490157 0.0232992,0.00738976 0.0406457,0.00738976 0.0110827,0 0.0202835,-0.00105512 0.0277441,-0.00316929 0.0074685,-0.00218504 0.0134252,-0.00497638 0.0180236,-0.00851969 0.00452362,-0.00353937 0.00784252,-0.00761417 0.00980315,-0.0121378 0.00196063,-0.00460236 0.00301575,-0.00935039 0.00301575,-0.0144055zm0.27824 -0.0145512l-0.0264646 0.0731417c-0.000905512,0.00233858 -0.00316929,0.00414567 -0.00670866,0.00542913 -0.00362205,0.00120866 -0.00912598,0.00181102 -0.0165197,0.00181102 -0.00384252,0 -0.00693307,-0.000149606 -0.00927165,-0.000527559 -0.00233465,-0.000377953 -0.00414567,-0.000980315 -0.00542913,-0.00188583 -0.00120866,-0.000905512 -0.00188189,-0.00203543 -0.00203543,-0.00354724 -0.000149606,-0.00142913 0.000224409,-0.00324016 0.00105512,-0.00527559l0.0274449 -0.0691457c-0.00135433,-0.000602362 -0.00263386,-0.00158268 -0.00376772,-0.00286614 -0.00120866,-0.00135827 -0.00203543,-0.0027126 -0.00248819,-0.00422047l-0.0708819 -0.189945c-0.00120472,-0.00309055 -0.00173228,-0.0055748 -0.00173228,-0.00731102 0,-0.00173228 0.000527559,-0.00316929 0.00173228,-0.00422441 0.00120866,-0.000976378 0.00309449,-0.00173228 0.00573228,-0.00203543 0.0026378,-0.000377953 0.00618504,-0.000602362 0.0106299,-0.000602362 0.00437402,0 0.00784252,0.000149606 0.0104094,0.000374016 0.00248819,0.000228346 0.00444882,0.000606299 0.00595276,0.00120866 0.00143701,0.000602362 0.00249213,0.00143307 0.00316929,0.00248819 0.000681102,0.00112992 0.00135827,0.0026378 0.00211024,0.00452756l0.0567835 0.159555 0.000673228 0 0.0547441 -0.160386c0.000905512,-0.00279134 0.00196063,-0.00459843 0.00324409,-0.00543307 0.00120866,-0.000826772 0.00309055,-0.00142913 0.00558268,-0.00173228 0.00256299,-0.000377953 0.0061063,-0.000602362 0.0108543,-0.000602362 0.00414961,0 0.00753937,0.000224409 0.0101811,0.000602362 0.0026378,0.00030315 0.00459843,0.00105906 0.00580709,0.00203543 0.00128346,0.00105512 0.00188583,0.00249213 0.00188583,0.00422441 0,0.00173622 -0.000452756,0.00399213 -0.00128346,0.00663386l-0.0714094 0.197709zm0.29385 -0.107146c0,0.0162087 -0.00211417,0.0311417 -0.00640945,0.0447087 -0.00422441,0.0136535 -0.0106339,0.0254134 -0.0190787,0.0352953 -0.00844488,0.00987402 -0.0190787,0.0175669 -0.0318189,0.0230709 -0.0127441,0.00550394 -0.0275236,0.00829528 -0.0442638,0.00829528 -0.0163622,0 -0.0306142,-0.00248819 -0.042752,-0.00731496 -0.0121417,-0.00482677 -0.0223228,-0.0119134 -0.0303898,-0.021189 -0.00807087,-0.00927559 -0.0141024,-0.0205827 -0.0180984,-0.0338543 -0.00399213,-0.0131969 -0.00595276,-0.0282756 -0.00595276,-0.0450197 0,-0.0162087 0.00211024,-0.0311417 0.00625591,-0.0447126 0.00422441,-0.0136496 0.0105551,-0.0254134 0.0190039,-0.0352913 0.00844488,-0.00987402 0.0190748,-0.0174921 0.0317441,-0.0229173 0.0126654,-0.00550787 0.0274449,-0.00822441 0.0443386,-0.00822441 0.0163622,0 0.0306102,0.00241339 0.042748,0.0073189 0.0121457,0.00482677 0.0223228,0.0119094 0.0303898,0.021189 0.00814567,0.00927165 0.0141772,0.0205827 0.018248,0.0337795 0.0040748,0.0132717 0.00603543,0.0282008 0.00603543,0.0448661zm-0.0383819 0.00241339c0,-0.0107087 -0.00105512,-0.0208898 -0.00301575,-0.0304685 -0.00196063,-0.0095748 -0.00527953,-0.0179409 -0.00980315,-0.0251811 -0.00459843,-0.00724016 -0.0107835,-0.0128976 -0.0185472,-0.0171181 -0.00784252,-0.00422047 -0.0175709,-0.00633071 -0.0291811,-0.00633071 -0.0107835,0 -0.0199843,0.00196063 -0.027752,0.00580315 -0.00769291,0.00377165 -0.0140984,0.00920079 -0.0190787,0.0162126 -0.00504724,0.00701181 -0.00874409,0.0153031 -0.0111575,0.0248819 -0.00241339,0.0095748 -0.00362205,0.0199843 -0.00362205,0.0313661 0,0.0108622 0.000984252,0.0211181 0.00294488,0.0306929 0.00196063,0.0095748 0.00527953,0.0179449 0.00995276,0.0250354 0.00459843,0.00716142 0.0108583,0.012815 0.018626,0.0170394 0.00784252,0.00422047 0.0175669,0.00625984 0.0291811,0.00625984 0.0106299,0 0.0198307,-0.00188976 0.0275945,-0.00573228 0.00784252,-0.00384646 0.0142559,-0.00920079 0.0192283,-0.0161378 0.00505512,-0.00685827 0.00874803,-0.0151535 0.0110866,-0.0247283 0.00233465,-0.00957874 0.00354331,-0.0200591 0.00354331,-0.0315945zm0.262402 0.0992283c0,0.00112992 -0.000224409,0.00218504 -0.000751969,0.00294094 -0.000527559,0.000830709 -0.00143307,0.00150787 -0.0027874,0.00211024 -0.00128346,0.000602362 -0.00301969,0.00105512 -0.00520472,0.00135827 -0.00211024,0.000299213 -0.00475197,0.000452756 -0.00784252,0.000452756 -0.0033937,0 -0.0061063,-0.000153543 -0.00829134,-0.000452756 -0.00211417,-0.00030315 -0.00377165,-0.000755906 -0.00505512,-0.00135827 -0.00127953,-0.000602362 -0.00211417,-0.00127953 -0.00256299,-0.00211024 -0.000377953,-0.000755906 -0.000606299,-0.00181102 -0.000606299,-0.00294094l0 -0.026315c-0.0113819,0.0125197 -0.0225433,0.0216417 -0.033626,0.0273701 -0.0110118,0.00580709 -0.0222441,0.00867323 -0.0335551,0.00867323 -0.0132756,0 -0.0244291,-0.00226378 -0.0334803,-0.0066378 -0.00904724,-0.00444882 -0.0163622,-0.0104055 -0.0219409,-0.0180197 -0.00565748,-0.00761417 -0.00965354,-0.0164409 -0.0120669,-0.0265394 -0.00241339,-0.0100315 -0.00361811,-0.0223228 -0.00361811,-0.0367244l0 -0.120646c0,-0.00120866 0.000224409,-0.00218504 0.000751969,-0.00301969 0.000527559,-0.000751969 0.00150787,-0.00150787 0.00294094,-0.0021811 0.00150787,-0.000681102 0.0033937,-0.00105906 0.00580709,-0.0012874 0.00233858,-0.000224409 0.00527953,-0.000374016 0.00882283,-0.000374016 0.00354331,0 0.00648425,0.000149606 0.0088189,0.000374016 0.00234252,0.000228346 0.00422441,0.000606299 0.00565748,0.0012874 0.00135827,0.000673228 0.00233858,0.00142913 0.00294094,0.0021811 0.000602362,0.000834646 0.000905512,0.00181102 0.000905512,0.00301969l0 0.115744c0,0.0116102 0.000830709,0.0209606 0.00256299,0.0279724 0.00165748,0.00701575 0.00422441,0.0129724 0.00769291,0.017874 0.0034685,0.00497244 0.00784252,0.00874409 0.0131181,0.0114606 0.00535433,0.00279134 0.0115354,0.00414961 0.018626,0.00414961 0.00912205,0 0.0181732,-0.00324803 0.0272205,-0.00973228 0.00912205,-0.00648031 0.0187008,-0.0159803 0.0288819,-0.0285l0 -0.138969c0,-0.00120866 0.000220472,-0.00218504 0.000751969,-0.00301969 0.000527559,-0.000751969 0.00150787,-0.00150787 0.00301575,-0.0021811 0.00143307,-0.000681102 0.0033189,-0.00105906 0.00558268,-0.0012874 0.00225984,-0.000224409 0.00527559,-0.000374016 0.0089685,-0.000374016 0.00354724,0 0.00648819,0.000149606 0.00882283,0.000374016 0.00233858,0.000228346 0.00422441,0.000606299 0.00550787,0.0012874 0.00135433,0.000673228 0.00233465,0.00142913 0.00301575,0.0021811 0.000677165,0.000834646 0.000976378,0.00181102 0.000976378,0.00301969l0 0.198839zm0.183535 -0.185795c0,0.00324409 -7.87402e-005,0.00595669 -0.000228346,0.00814173 -0.000149606,0.00226378 -0.000452756,0.004 -0.000826772,0.00520866 -0.000452756,0.00127953 -0.00105906,0.00218504 -0.00166142,0.0028622 -0.000681102,0.000677165 -0.00158268,0.000980315 -0.00279134,0.000980315 -0.00120472,0 -0.0026378,-0.00030315 -0.00429528,-0.000980315 -0.00173228,-0.000677165 -0.00362205,-0.00128346 -0.00573228,-0.00196063 -0.00218504,-0.000677165 -0.00452362,-0.00128346 -0.00716142,-0.00188583 -0.00271654,-0.000602362 -0.00557874,-0.000905512 -0.00867323,-0.000905512 -0.00369291,0 -0.00723622,0.000755906 -0.0107835,0.00226378 -0.00354331,0.00143307 -0.00731102,0.00384252 -0.0111614,0.00724016 -0.00392126,0.00338976 -0.00798819,0.00791339 -0.0122874,0.0134961 -0.00422441,0.00557874 -0.00897244,0.0124409 -0.0140984,0.0205118l0 0.130823c0,0.00112992 -0.00030315,0.00218504 -0.000905512,0.00294094 -0.000606299,0.000830709 -0.00158661,0.00150787 -0.00286614,0.00211024 -0.00135827,0.000602362 -0.00316929,0.00105512 -0.00550394,0.00135827 -0.00241339,0.000299213 -0.00542913,0.000452756 -0.00912598,0.000452756 -0.0034685,0 -0.00640945,-0.000153543 -0.00882283,-0.000452756 -0.00233858,-0.00030315 -0.00422047,-0.000755906 -0.00557874,-0.00135827 -0.00143307,-0.000602362 -0.00241339,-0.00127953 -0.00286614,-0.00211024 -0.000523622,-0.000755906 -0.000826772,-0.00181102 -0.000826772,-0.00294094l0 -0.198839c0,-0.00120866 0.000224409,-0.00218504 0.000677165,-0.00301969 0.000452756,-0.000751969 0.00135827,-0.00150787 0.0026378,-0.0021811 0.00135827,-0.000681102 0.00301575,-0.00105906 0.00512598,-0.0012874 0.00203937,-0.000224409 0.00475197,-0.000374016 0.00814567,-0.000374016 0.00324409,0 0.00596063,0.000149606 0.00807087,0.000374016 0.00211024,0.000228346 0.00377165,0.000606299 0.00497244,0.0012874 0.00113386,0.000673228 0.00203937,0.00142913 0.00256299,0.0021811 0.000452756,0.000834646 0.000755906,0.00181102 0.000755906,0.00301969l0 0.0289567c0.00542913,-0.00799606 0.0105551,-0.0144803 0.015311,-0.0194567 0.00482283,-0.00497638 0.00934646,-0.00897244 0.0136457,-0.0118386 0.00422441,-0.0028622 0.00844488,-0.00482283 0.0126693,-0.00595669 0.00422047,-0.00105512 0.00844488,-0.00166142 0.0126654,-0.00166142 0.00196063,0 0.00414961,0.000153543 0.00656299,0.00038189 0.00240945,0.000224409 0.00497638,0.000602362 0.00761417,0.00120472 0.00264173,0.000602362 0.00505118,0.00120866 0.00716535,0.00196063 0.00218504,0.000755906 0.00369291,0.00150787 0.00451969,0.00218504 0.000905512,0.000755906 0.00150787,0.00143307 0.00181102,0.00211024 0.000299213,0.000681102 0.000527559,0.00150787 0.000751969,0.00256693 0.000228346,0.00105512 0.000377953,0.00256299 0.000452756,0.00452362 7.87402e-005,0.00196063 7.87402e-005,0.00467323 7.87402e-005,0.00806693z"/>
  <path class="fil2" d="M4.80999 1.54223c0,0.00173622 -0.000602362,0.00309449 -0.00180709,0.00392126 -0.00112992,0.000905512 -0.0027874,0.00158661 -0.00482283,0.00203937 -0.00211024,0.000452756 -0.00512992,0.000677165 -0.00905118,0.000677165 -0.00384646,0 -0.00693701,-0.000224409 -0.00919685,-0.000677165 -0.00226378,-0.000452756 -0.00392126,-0.00113386 -0.00497638,-0.00203937 -0.00105906,-0.000826772 -0.00151181,-0.00218504 -0.00151181,-0.00392126l0 -0.0199016c-0.00874409,0.00927165 -0.0183976,0.0165118 -0.0291024,0.0216378 -0.0106339,0.00512992 -0.0219449,0.00776772 -0.0338583,0.00776772 -0.0104843,0 -0.0199803,-0.00135827 -0.0284252,-0.00414567 -0.00844488,-0.00271654 -0.015685,-0.0066378 -0.0216417,-0.0117638 -0.00596063,-0.00520079 -0.0106339,-0.0115354 -0.0139528,-0.0190039 -0.00324016,-0.00754331 -0.00489764,-0.0160591 -0.00489764,-0.0256378 0,-0.0112323 0.00225984,-0.0208858 0.00678346,-0.0291811 0.00459843,-0.00822047 0.0111614,-0.0150787 0.0196811,-0.0205118 0.00851969,-0.0055 0.0190039,-0.0095748 0.0313661,-0.0122874 0.0123661,-0.00271654 0.026315,-0.00407087 0.0417795,-0.00407087l0.0273701 0 0 -0.0154606c0,-0.00768898 -0.000830709,-0.0144764 -0.00241339,-0.0203583 -0.00165748,-0.00588189 -0.00422441,-0.0107835 -0.00784252,-0.0146299 -0.00361811,-0.00391732 -0.00829528,-0.00685827 -0.0140276,-0.0088937 -0.00572835,-0.00196063 -0.0128189,-0.00294488 -0.021185,-0.00294488 -0.00905118,0 -0.0170433,0.00105906 -0.0242047,0.00316929 -0.00716535,0.00218898 -0.0134252,0.00452362 -0.0187756,0.00708661 -0.00542913,0.00256693 -0.00988189,0.00490157 -0.0135,0.00709055 -0.00361811,0.00211024 -0.00625984,0.00316535 -0.00806693,0.00316535 -0.00112992,0 -0.00218504,-0.000299213 -0.00309055,-0.000830709 -0.000905512,-0.000602362 -0.00165748,-0.00150787 -0.00233858,-0.0027126 -0.000606299,-0.00112992 -0.00112992,-0.0026378 -0.00143307,-0.00452756 -0.000299213,-0.00180709 -0.000452756,-0.00384252 -0.000452756,-0.00602756 0,-0.00369685 0.00030315,-0.0066378 0.000826772,-0.00874803 0.000531496,-0.00211024 0.00174016,-0.00414961 0.00377165,-0.00611024 0.00196063,-0.00188189 0.00535827,-0.00414567 0.0102559,-0.00670866 0.00482677,-0.00256299 0.0104055,-0.00490157 0.0167402,-0.00709055 0.00633465,-0.00211024 0.0132677,-0.00384252 0.020811,-0.00527559 0.0074685,-0.00143307 0.0150827,-0.00211417 0.0227717,-0.00211417 0.014252,0 0.0263898,0.00166142 0.0364213,0.00490551 0.0100276,0.00324016 0.0180945,0.00799213 0.0242795,0.014248 0.0061811,0.00625984 0.0107087,0.0140276 0.0134961,0.0233031 0.00279134,0.00927165 0.00422047,0.0200551 0.00422047,0.0324213l0 0.134142zm-0.0362638 -0.0907835l-0.0311417 0c-0.0100315,0 -0.0187008,0.000830709 -0.0260906,0.00248425 -0.00731496,0.00173622 -0.0134252,0.00422441 -0.0183228,0.00754331 -0.00482677,0.0033189 -0.00844882,0.00731496 -0.0107087,0.0119134 -0.00226378,0.00467717 -0.0033937,0.00995276 -0.0033937,0.0159882 0,0.0103268 0.00324016,0.0185472 0.00980315,0.0246575 0.00655906,0.0061063 0.0157598,0.00919685 0.0275236,0.00919685 0.0095748,0 0.0183976,-0.00241339 0.0266181,-0.00731496 0.00814173,-0.00482677 0.0167362,-0.0122913 0.0257126,-0.0223189l0 -0.0421496zm0.22802 0.0364213c0,0.0101772 -0.00188189,0.0192244 -0.00565354,0.0271417 -0.00377165,0.00799213 -0.00912205,0.0147087 -0.0160591,0.0201339 -0.00686614,0.00542913 -0.0151575,0.00957874 -0.0247362,0.0123661 -0.0095748,0.00279134 -0.0200551,0.00422441 -0.0315945,0.00422441 -0.00701181,0 -0.0137992,-0.000606299 -0.0202047,-0.00166142 -0.00641339,-0.00112992 -0.0121417,-0.00256299 -0.0171929,-0.00422047 -0.00512992,-0.00166142 -0.0094252,-0.0034685 -0.0129724,-0.00527953 -0.0034685,-0.00188583 -0.0061063,-0.00354331 -0.00768898,-0.00497638 -0.00166142,-0.00150787 -0.00279134,-0.00354331 -0.00354331,-0.0061811 -0.000755906,-0.00264173 -0.00113386,-0.00625984 -0.00113386,-0.0108583 0,-0.00279134 0.000149606,-0.00512992 0.000452756,-0.00709055 0.00030315,-0.00188583 0.000681102,-0.0033937 0.00113386,-0.00459843 0.000452756,-0.00120472 0.00105512,-0.00203543 0.00188189,-0.00256299 0.000755906,-0.000527559 0.00173622,-0.000751969 0.00271654,-0.000751969 0.00165748,0 0.00407087,0.000976378 0.00723622,0.00301575 0.00316929,0.00195669 0.00701575,0.00414567 0.011689,0.00648031 0.00460236,0.00233858 0.0101024,0.00452362 0.016437,0.00648425 0.00633465,0.00203937 0.0136496,0.00301969 0.0218701,0.00301969 0.00618504,0 0.0117638,-0.000677165 0.016815,-0.00196063 0.00497638,-0.00135827 0.00935039,-0.0033189 0.0130433,-0.00588189 0.00361811,-0.00256693 0.00648425,-0.00588583 0.00844488,-0.00980315 0.00203937,-0.00399606 0.00301575,-0.00874409 0.00301575,-0.0141732 0,-0.00558268 -0.00142913,-0.0103346 -0.00429528,-0.0141024 -0.00286614,-0.00384646 -0.0067126,-0.00724016 -0.0113898,-0.0101811 -0.00474803,-0.00294094 -0.0100276,-0.00557874 -0.0159094,-0.00784252 -0.00588189,-0.00226378 -0.0119882,-0.00467717 -0.018248,-0.00716142 -0.00625591,-0.00256299 -0.0123622,-0.00535433 -0.0183228,-0.00851969 -0.00595276,-0.00316929 -0.011311,-0.00701575 -0.0159803,-0.0116142 -0.00475591,-0.00459843 -0.00852362,-0.0100276 -0.0113898,-0.0163622 -0.00286614,-0.00633465 -0.00429528,-0.013874 -0.00429528,-0.0227717 0,-0.00776772 0.00150787,-0.0152323 0.00452362,-0.0223937 0.00301575,-0.00716535 0.00753937,-0.0134252 0.0135709,-0.0187756 0.0060315,-0.00535433 0.0135709,-0.00965354 0.022622,-0.0128937 0.00904724,-0.00324409 0.0196772,-0.00490551 0.0317441,-0.00490551 0.00527953,0 0.0105591,0.000452756 0.0159094,0.00135827 0.00527953,0.000830709 0.0100315,0.00196063 0.0143268,0.0033189 0.00429921,0.00128346 0.00791732,0.0027126 0.0109331,0.00429921 0.00301575,0.00150787 0.00527953,0.00286614 0.00686614,0.00407087 0.00150787,0.00120472 0.00256299,0.00218504 0.00308661,0.00309055 0.000531496,0.000905512 0.000905512,0.00188583 0.00113386,0.00301575 0.000224409,0.00105906 0.000374016,0.00241339 0.000602362,0.0040748 0.000224409,0.00157874 0.000377953,0.00361811 0.000377953,0.00595276 0,0.00249213 -0.000153543,0.00467717 -0.000377953,0.00648819 -0.000228346,0.00188583 -0.000527559,0.0033937 -0.00105512,0.00452362 -0.000527559,0.00120472 -0.00113386,0.00203543 -0.00188583,0.00256299 -0.000755906,0.000527559 -0.00158268,0.000755906 -0.00241339,0.000755906 -0.00135827,0 -0.00324016,-0.000755906 -0.00580315,-0.00241339 -0.00249213,-0.00158268 -0.00573228,-0.0033189 -0.00965354,-0.00520079 -0.004,-0.00181102 -0.00866929,-0.00354724 -0.0140984,-0.00520472 -0.00535827,-0.00158268 -0.0114646,-0.00241339 -0.0184016,-0.00241339 -0.00618504,0 -0.0116142,0.000677165 -0.0163622,0.00211024 -0.00467323,0.00143307 -0.00859449,0.0033937 -0.0116142,0.00596063 -0.00301575,0.00256299 -0.00527559,0.00565354 -0.00685827,0.00919291 -0.00150787,0.00354724 -0.00226378,0.0073189 -0.00226378,0.0114646 0,0.00572835 0.00143307,0.0105551 0.00437402,0.0144764 0.00294094,0.00392126 0.00678346,0.00731496 0.0115354,0.0102559 0.00467717,0.00294094 0.0100276,0.00558268 0.016063,0.00799606 0.0061063,0.00233465 0.0122165,0.00474803 0.0184724,0.00723228 0.00625984,0.00256693 0.0124449,0.00535827 0.0185512,0.00844882 0.0061063,0.00309055 0.0115354,0.00678346 0.0162874,0.0112362 0.00467717,0.00444882 0.00844094,0.00972441 0.0113071,0.0159094 0.00286614,0.00618504 0.00437402,0.0135748 0.00437402,0.0220945zm0.235035 -0.0484094c0,0.0174173 -0.00188583,0.0330236 -0.00565354,0.0468228 -0.00369291,0.013874 -0.00927559,0.0256378 -0.0165157,0.0352913 -0.00731496,0.00965354 -0.0163622,0.0170394 -0.0270669,0.0223189 -0.0107835,0.00520472 -0.0230787,0.00784252 -0.0369488,0.00784252 -0.00588189,0 -0.011311,-0.000606299 -0.0162874,-0.00181102 -0.00505512,-0.00112992 -0.00995669,-0.00301575 -0.0147047,-0.00550394 -0.00482677,-0.00248819 -0.00957874,-0.00565748 -0.014252,-0.0095 -0.00475197,-0.00384646 -0.00972835,-0.00829528 -0.0150039,-0.0134961l0 0.0994528c0,0.00113386 -0.00030315,0.00218898 -0.000905512,0.00309449 -0.000606299,0.000826772 -0.00158268,0.00158268 -0.00286614,0.00218504 -0.00135827,0.000602362 -0.00316929,0.00105512 -0.00550394,0.00135827 -0.00241339,0.000228346 -0.00542913,0.000377953 -0.00912205,0.000377953 -0.0034685,0 -0.00641339,-0.000149606 -0.00882677,-0.000377953 -0.00233465,-0.00030315 -0.00422047,-0.000755906 -0.00557874,-0.00135827 -0.00142913,-0.000602362 -0.00241339,-0.00135827 -0.00286614,-0.00218504 -0.000523622,-0.000905512 -0.000826772,-0.00196063 -0.000826772,-0.00309449l0 -0.277709c0,-0.00135827 0.000224409,-0.00241339 0.000677165,-0.00316929 0.000452756,-0.000826772 0.00135827,-0.00150787 0.00264173,-0.00211024 0.00135827,-0.000602362 0.00301575,-0.000980315 0.00512598,-0.00120866 0.00203543,-0.000224409 0.00452362,-0.000374016 0.00746457,-0.000374016 0.00309055,0 0.00565354,0.000149606 0.00761417,0.000374016 0.00203937,0.000228346 0.00369685,0.000606299 0.00497638,0.00120866 0.00135827,0.000602362 0.00226378,0.00128346 0.00279134,0.00211024 0.000527559,0.000755906 0.000755906,0.00181102 0.000755906,0.00316929l0 0.0267677c0.0060315,-0.00625591 0.0118386,-0.0116142 0.0174921,-0.0161378 0.00557874,-0.00459843 0.0111575,-0.00837008 0.0168898,-0.0113858 0.00565748,-0.00301575 0.0114646,-0.00535039 0.0174173,-0.00685827 0.00596063,-0.00158661 0.0122953,-0.00234252 0.0189252,-0.00234252 0.0144055,0 0.0266969,0.00279528 0.036874,0.00844882 0.0101811,0.00557874 0.0184016,0.0131929 0.0248071,0.0229213 0.00641339,0.00972835 0.0110906,0.0210394 0.0140276,0.0339331 0.00301575,0.0128937 0.00444882,0.0265433 0.00444882,0.0409449zm-0.0384567 0.00422047c0,-0.0101811 -0.000751969,-0.0199803 -0.00226378,-0.0294803 -0.00157874,-0.00950394 -0.00422047,-0.0179488 -0.00799213,-0.0253386 -0.00377165,-0.00731102 -0.0088189,-0.0131929 -0.0151535,-0.0176417 -0.00633465,-0.00437402 -0.0141772,-0.0066378 -0.0236024,-0.0066378 -0.00474803,0 -0.00935039,0.000677165 -0.0139488,0.00211417 -0.00452362,0.00142913 -0.00920079,0.00361811 -0.013874,0.00662992 -0.00475197,0.00301575 -0.00965354,0.00701575 -0.0148543,0.0119173 -0.00512992,0.00497638 -0.0105591,0.0110079 -0.0162874,0.018248l0 0.0790984c0.00995276,0.0122165 0.0194528,0.0215669 0.0285039,0.0280472 0.00897244,0.00648425 0.0183937,0.00973228 0.0282756,0.00973228 0.00912205,0 0.0169646,-0.00226378 0.0235236,-0.0066378 0.00648425,-0.00445276 0.0118386,-0.0103307 0.0159094,-0.0177205 0.004,-0.00731496 0.00701575,-0.0156102 0.00889764,-0.0247323 0.00196063,-0.00912205 0.00286614,-0.0183228 0.00286614,-0.0275984zm0.129697 0.0983268c0,0.00112992 -0.00030315,0.00218504 -0.000905512,0.00294094 -0.000606299,0.000830709 -0.00158661,0.00150787 -0.00286614,0.00211024 -0.00135827,0.000602362 -0.00316929,0.00105512 -0.00550787,0.00135827 -0.00241339,0.000299213 -0.0054252,0.000452756 -0.00912205,0.000452756 -0.0034685,0 -0.00640945,-0.000153543 -0.00882283,-0.000452756 -0.00233858,-0.00030315 -0.00422047,-0.000755906 -0.00557874,-0.00135827 -0.00143307,-0.000602362 -0.00241339,-0.00127953 -0.00286614,-0.00211024 -0.000527559,-0.000755906 -0.000830709,-0.00181102 -0.000830709,-0.00294094l0 -0.198839c0,-0.00105512 0.00030315,-0.00196063 0.000830709,-0.00286614 0.000452756,-0.000905512 0.00143307,-0.00166142 0.00286614,-0.00218504 0.00135827,-0.000602362 0.00324016,-0.00105512 0.00557874,-0.00135827 0.00241339,-0.00030315 0.00535433,-0.000452756 0.00882283,-0.000452756 0.00369685,0 0.00670866,0.000149606 0.00912205,0.000452756 0.00233858,0.00030315 0.00414961,0.000755906 0.00550787,0.00135827 0.00127953,0.000523622 0.00225984,0.00127953 0.00286614,0.00218504 0.000602362,0.000905512 0.000905512,0.00181102 0.000905512,0.00286614l0 0.198839zm0.00414173 -0.266024c0,0.00859843 -0.00157874,0.0144016 -0.00482283,0.0174921 -0.00324016,0.00309055 -0.00920079,0.00460236 -0.0178701,0.00460236 -0.00859843,0 -0.0144016,-0.00151181 -0.0175709,-0.00452756 -0.00316535,-0.00301575 -0.00474803,-0.00866929 -0.00474803,-0.0171142 0,-0.00852362 0.00158268,-0.0143268 0.00482283,-0.0174173 0.00324409,-0.00309449 0.00920079,-0.00467717 0.017874,-0.00467717 0.00859055,0 0.0144016,0.00150787 0.0175669,0.00452362 0.00316929,0.00301969 0.00474803,0.00874409 0.00474803,0.0171181zm0.17939 0.0802283c0,0.00324409 -7.48031e-005,0.00595669 -0.000224409,0.00814173 -0.000149606,0.00226378 -0.000452756,0.004 -0.000830709,0.00520866 -0.000452756,0.00127953 -0.00105906,0.00218504 -0.00166142,0.0028622 -0.000677165,0.000677165 -0.00157874,0.000980315 -0.0027874,0.000980315 -0.00120472,0 -0.00264173,-0.00030315 -0.00429921,-0.000980315 -0.00173228,-0.000677165 -0.00361811,-0.00128346 -0.00572835,-0.00196063 -0.00218898,-0.000677165 -0.00452362,-0.00128346 -0.00716535,-0.00188583 -0.00271654,-0.000602362 -0.00557874,-0.000905512 -0.00866929,-0.000905512 -0.00369685,0 -0.00724016,0.000755906 -0.0107835,0.00226378 -0.00354724,0.00143307 -0.00731496,0.00384252 -0.0111614,0.00724016 -0.00392126,0.00338976 -0.00799213,0.00791339 -0.0122874,0.0134961 -0.00422441,0.00557874 -0.00897638,0.0124409 -0.0141024,0.0205118l0 0.130823c0,0.00112992 -0.00030315,0.00218504 -0.000905512,0.00294094 -0.000606299,0.000830709 -0.00158268,0.00150787 -0.00286614,0.00211024 -0.00135827,0.000602362 -0.00316929,0.00105512 -0.00550394,0.00135827 -0.00241339,0.000299213 -0.00542913,0.000452756 -0.00912205,0.000452756 -0.0034685,0 -0.00641339,-0.000153543 -0.00882677,-0.000452756 -0.00233465,-0.00030315 -0.00422047,-0.000755906 -0.00557874,-0.00135827 -0.00142913,-0.000602362 -0.00241339,-0.00127953 -0.00286614,-0.00211024 -0.000523622,-0.000755906 -0.000826772,-0.00181102 -0.000826772,-0.00294094l0 -0.198839c0,-0.00120866 0.000224409,-0.00218504 0.000677165,-0.00301969 0.000452756,-0.000751969 0.00135827,-0.00150787 0.00264173,-0.0021811 0.00135827,-0.000681102 0.00301575,-0.00105906 0.00512598,-0.0012874 0.00203543,-0.000224409 0.00474803,-0.000374016 0.00814567,-0.000374016 0.00324016,0 0.00595669,0.000149606 0.00806693,0.000374016 0.00211024,0.000228346 0.00377165,0.000606299 0.00497638,0.0012874 0.00112992,0.000673228 0.00203543,0.00142913 0.00256299,0.0021811 0.000452756,0.000834646 0.000755906,0.00181102 0.000755906,0.00301969l0 0.0289567c0.00542913,-0.00799606 0.0105551,-0.0144803 0.0153071,-0.0194567 0.00482283,-0.00497638 0.00935039,-0.00897244 0.0136457,-0.0118386 0.00422441,-0.0028622 0.00844488,-0.00482283 0.0126693,-0.00595669 0.00422047,-0.00105512 0.00844488,-0.00166142 0.0126693,-0.00166142 0.00196063,0 0.00414567,0.000153543 0.00655906,0.00038189 0.00240945,0.000224409 0.00497638,0.000602362 0.00761811,0.00120472 0.0026378,0.000602362 0.00504724,0.00120866 0.00716142,0.00196063 0.00218504,0.000755906 0.00369291,0.00150787 0.00452362,0.00218504 0.000905512,0.000755906 0.00150787,0.00143307 0.00181102,0.00211024 0.000299213,0.000681102 0.000523622,0.00150787 0.000751969,0.00256693 0.000224409,0.00105512 0.000374016,0.00256299 0.000452756,0.00452362 7.48031e-005,0.00196063 7.48031e-005,0.00467323 7.48031e-005,0.00806693zm0.182098 0.18602c0,0.00173622 -0.000602362,0.00309449 -0.00180709,0.00392126 -0.00112992,0.000905512 -0.0027874,0.00158661 -0.00482283,0.00203937 -0.00211024,0.000452756 -0.00512992,0.000677165 -0.00905118,0.000677165 -0.00384646,0 -0.00693701,-0.000224409 -0.00919685,-0.000677165 -0.00226378,-0.000452756 -0.00392126,-0.00113386 -0.00497638,-0.00203937 -0.00105906,-0.000826772 -0.00151181,-0.00218504 -0.00151181,-0.00392126l0 -0.0199016c-0.00874409,0.00927165 -0.0183976,0.0165118 -0.0291024,0.0216378 -0.0106339,0.00512992 -0.0219449,0.00776772 -0.0338583,0.00776772 -0.0104843,0 -0.0199803,-0.00135827 -0.0284252,-0.00414567 -0.00844488,-0.00271654 -0.015685,-0.0066378 -0.0216417,-0.0117638 -0.00596063,-0.00520079 -0.0106339,-0.0115354 -0.0139528,-0.0190039 -0.00324016,-0.00754331 -0.00489764,-0.0160591 -0.00489764,-0.0256378 0,-0.0112323 0.00225984,-0.0208858 0.00678346,-0.0291811 0.00459843,-0.00822047 0.0111614,-0.0150787 0.0196811,-0.0205118 0.00851969,-0.0055 0.0190039,-0.0095748 0.0313661,-0.0122874 0.0123661,-0.00271654 0.026315,-0.00407087 0.0417795,-0.00407087l0.0273701 0 0 -0.0154606c0,-0.00768898 -0.000830709,-0.0144764 -0.00241339,-0.0203583 -0.00165748,-0.00588189 -0.00422441,-0.0107835 -0.00784252,-0.0146299 -0.00361811,-0.00391732 -0.00829528,-0.00685827 -0.0140276,-0.0088937 -0.00572835,-0.00196063 -0.0128189,-0.00294488 -0.021185,-0.00294488 -0.00905118,0 -0.0170433,0.00105906 -0.0242047,0.00316929 -0.00716535,0.00218898 -0.0134252,0.00452362 -0.0187756,0.00708661 -0.00542913,0.00256693 -0.00988189,0.00490157 -0.0135,0.00709055 -0.00361811,0.00211024 -0.00625984,0.00316535 -0.00806693,0.00316535 -0.00112992,0 -0.00218504,-0.000299213 -0.00309055,-0.000830709 -0.000905512,-0.000602362 -0.00165748,-0.00150787 -0.00233858,-0.0027126 -0.000606299,-0.00112992 -0.00112992,-0.0026378 -0.00143307,-0.00452756 -0.000299213,-0.00180709 -0.000452756,-0.00384252 -0.000452756,-0.00602756 0,-0.00369685 0.00030315,-0.0066378 0.000826772,-0.00874803 0.000531496,-0.00211024 0.00174016,-0.00414961 0.00377165,-0.00611024 0.00196063,-0.00188189 0.00535827,-0.00414567 0.0102559,-0.00670866 0.00482677,-0.00256299 0.0104055,-0.00490157 0.0167402,-0.00709055 0.00633465,-0.00211024 0.0132677,-0.00384252 0.020811,-0.00527559 0.0074685,-0.00143307 0.0150827,-0.00211417 0.0227717,-0.00211417 0.014252,0 0.0263898,0.00166142 0.0364213,0.00490551 0.0100276,0.00324016 0.0180945,0.00799213 0.0242795,0.014248 0.0061811,0.00625984 0.0107087,0.0140276 0.0134961,0.0233031 0.00279134,0.00927165 0.00422047,0.0200551 0.00422047,0.0324213l0 0.134142zm-0.0362638 -0.0907835l-0.0311417 0c-0.0100315,0 -0.0187008,0.000830709 -0.0260906,0.00248425 -0.00731496,0.00173622 -0.0134252,0.00422441 -0.0183228,0.00754331 -0.00482677,0.0033189 -0.00844882,0.00731496 -0.0107087,0.0119134 -0.00226378,0.00467717 -0.0033937,0.00995276 -0.0033937,0.0159882 0,0.0103268 0.00324016,0.0185472 0.00980315,0.0246575 0.00655906,0.0061063 0.0157598,0.00919685 0.0275236,0.00919685 0.0095748,0 0.0183976,-0.00241339 0.0266181,-0.00731496 0.00814173,-0.00482677 0.0167362,-0.0122913 0.0257126,-0.0223189l0 -0.0421496zm0.202307 0.0759291c0,0.00430315 -0.00030315,0.00769291 -0.000830709,0.0101811 -0.000602362,0.00248819 -0.00150787,0.00437402 -0.0027126,0.00550394 -0.00113386,0.00120866 -0.00294488,0.00233858 -0.00527953,0.0033189 -0.00233465,0.00105512 -0.00505118,0.00188583 -0.00806693,0.00256299 -0.00301575,0.000677165 -0.0061811,0.00120866 -0.00957874,0.00166142 -0.00338976,0.000452756 -0.0067874,0.000677165 -0.0101772,0.000677165 -0.0103307,0 -0.0191535,-0.00135827 -0.0265433,-0.0040748 -0.00731496,-0.0027874 -0.0133465,-0.00685827 -0.0180945,-0.0123661 -0.00467717,-0.0055748 -0.00814567,-0.0125118 -0.0102559,-0.0210354 -0.00211417,-0.00844488 -0.00316929,-0.0183976 -0.00316929,-0.029937l0 -0.116197 -0.0278976 0c-0.00218898,0 -0.00392126,-0.00112992 -0.00527953,-0.00354331 -0.00135433,-0.00233858 -0.00196063,-0.0061811 -0.00196063,-0.0114606 0,-0.00279134 0.000153543,-0.00512598 0.000527559,-0.00708661 0.000377953,-0.00188583 0.000830709,-0.0034685 0.00143307,-0.00475197 0.000606299,-0.00120472 0.00135827,-0.00211024 0.00233858,-0.00264173 0.000980315,-0.000523622 0.00203543,-0.000751969 0.00316535,-0.000751969l0.0276732 0 0 -0.0472756c0,-0.00105512 0.000228346,-0.00196063 0.000755906,-0.00286614 0.000527559,-0.000905512 0.00143307,-0.00165748 0.00286614,-0.00233858 0.00135433,-0.000677165 0.00324016,-0.00112992 0.00565354,-0.00143307 0.00233858,-0.000299213 0.00527559,-0.000452756 0.00882283,-0.000452756 0.00369291,0 0.00670866,0.000153543 0.00905118,0.000452756 0.00233465,0.00030315 0.00421654,0.000755906 0.0055,0.00143307 0.00135827,0.000681102 0.00226378,0.00143307 0.00286614,0.00233858 0.000602362,0.000905512 0.000905512,0.00181102 0.000905512,0.00286614l0 0.0472756 0.0510472 0c0.00113386,0 0.00218898,0.000228346 0.00309449,0.000751969 0.000826772,0.000531496 0.00165748,0.00143701 0.00225984,0.00264173 0.000677165,0.00128346 0.00120866,0.00286614 0.00143307,0.00475197 0.000299213,0.00196063 0.000452756,0.00429528 0.000452756,0.00708661 0,0.00527953 -0.000606299,0.00912205 -0.00196063,0.0114606 -0.00135827,0.00241339 -0.00309055,0.00354331 -0.00527953,0.00354331l-0.0510472 0 0 0.110921c0,0.0137205 0.00203543,0.0240551 0.0060315,0.0310669 0.0040748,0.00693701 0.011315,0.0104803 0.0217913,0.0104803 0.0033937,0 0.00640945,-0.000377953 0.00905118,-0.000980315 0.0026378,-0.000681102 0.00505118,-0.00143307 0.00708661,-0.00211024 0.00203543,-0.000755906 0.00384646,-0.00143701 0.00527559,-0.00211417 0.00150787,-0.000677165 0.00279134,-0.000980315 0.004,-0.000980315 0.000751969,0 0.00142913,0.000149606 0.00211024,0.000531496 0.000677165,0.000374016 0.00112992,0.00105512 0.00150787,0.00211024 0.000374016,0.00105512 0.000755906,0.00241339 0.000980315,0.00414567 0.000299213,0.00181102 0.000452756,0.00399606 0.000452756,0.00663386zm0.0846811 0.0146299c0,0.00112992 -0.00030315,0.00218504 -0.000905512,0.00294094 -0.000606299,0.000830709 -0.00158268,0.00150787 -0.00286614,0.00211024 -0.00135827,0.000602362 -0.00316929,0.00105512 -0.00550394,0.00135827 -0.00241339,0.000299213 -0.00542913,0.000452756 -0.00912205,0.000452756 -0.0034685,0 -0.00641339,-0.000153543 -0.00882677,-0.000452756 -0.00233465,-0.00030315 -0.00422047,-0.000755906 -0.00557874,-0.00135827 -0.00142913,-0.000602362 -0.00241339,-0.00127953 -0.00286614,-0.00211024 -0.000523622,-0.000755906 -0.000826772,-0.00181102 -0.000826772,-0.00294094l0 -0.198839c0,-0.00105512 0.00030315,-0.00196063 0.000826772,-0.00286614 0.000452756,-0.000905512 0.00143701,-0.00166142 0.00286614,-0.00218504 0.00135827,-0.000602362 0.00324409,-0.00105512 0.00557874,-0.00135827 0.00241339,-0.00030315 0.00535827,-0.000452756 0.00882677,-0.000452756 0.00369291,0 0.00670866,0.000149606 0.00912205,0.000452756 0.00233465,0.00030315 0.00414567,0.000755906 0.00550394,0.00135827 0.00128346,0.000523622 0.00225984,0.00127953 0.00286614,0.00218504 0.000602362,0.000905512 0.000905512,0.00181102 0.000905512,0.00286614l0 0.198839zm0.00414567 -0.266024c0,0.00859843 -0.00158268,0.0144016 -0.00482283,0.0174921 -0.00324409,0.00309055 -0.00920079,0.00460236 -0.0178701,0.00460236 -0.00859843,0 -0.0144055,-0.00151181 -0.0175748,-0.00452756 -0.00316535,-0.00301575 -0.00474803,-0.00866929 -0.00474803,-0.0171142 0,-0.00852362 0.00158268,-0.0143268 0.00482677,-0.0174173 0.00324016,-0.00309449 0.00920079,-0.00467717 0.0178701,-0.00467717 0.00859449,0 0.0144016,0.00150787 0.0175669,0.00452362 0.00316929,0.00301969 0.00475197,0.00874409 0.00475197,0.0171181zm0.248083 0.164382c0,0.0162087 -0.00211417,0.0311417 -0.00640945,0.0447087 -0.00422441,0.0136535 -0.0106339,0.0254134 -0.0190787,0.0352953 -0.00844488,0.00987402 -0.0190787,0.0175669 -0.0318189,0.0230709 -0.0127441,0.00550394 -0.0275236,0.00829528 -0.0442638,0.00829528 -0.0163622,0 -0.0306142,-0.00248819 -0.042752,-0.00731496 -0.0121417,-0.00482677 -0.0223228,-0.0119134 -0.0303898,-0.021189 -0.00807087,-0.00927559 -0.0140984,-0.0205827 -0.0180984,-0.0338543 -0.00399213,-0.0131969 -0.00595276,-0.0282756 -0.00595276,-0.0450197 0,-0.0162087 0.00211024,-0.0311417 0.00625591,-0.0447126 0.00422441,-0.0136496 0.0105551,-0.0254134 0.0190039,-0.0352913 0.00844488,-0.00987402 0.0190748,-0.0174921 0.0317441,-0.0229173 0.0126654,-0.00550787 0.0274449,-0.00822441 0.0443386,-0.00822441 0.0163622,0 0.0306102,0.00241339 0.042752,0.0073189 0.0121417,0.00482677 0.0223189,0.0119094 0.0303858,0.021189 0.00814567,0.00927165 0.0141772,0.0205827 0.018248,0.0337795 0.0040748,0.0132717 0.00603543,0.0282008 0.00603543,0.0448661zm-0.0383819 0.00241339c0,-0.0107087 -0.00105512,-0.0208898 -0.00301575,-0.0304685 -0.00196063,-0.0095748 -0.00527953,-0.0179409 -0.00980315,-0.0251811 -0.00459843,-0.00724016 -0.0107835,-0.0128976 -0.0185472,-0.0171181 -0.00784252,-0.00422047 -0.0175709,-0.00633071 -0.0291811,-0.00633071 -0.0107835,0 -0.0199843,0.00196063 -0.027752,0.00580315 -0.00768898,0.00377165 -0.0140984,0.00920079 -0.0190787,0.0162126 -0.00504724,0.00701181 -0.00874409,0.0153031 -0.0111575,0.0248819 -0.00241339,0.0095748 -0.00362205,0.0199843 -0.00362205,0.0313661 0,0.0108622 0.000984252,0.0211181 0.00294488,0.0306929 0.00196063,0.0095748 0.00527953,0.0179449 0.00995276,0.0250354 0.00459843,0.00716142 0.0108583,0.012815 0.018626,0.0170394 0.00784252,0.00422047 0.0175669,0.00625984 0.0291811,0.00625984 0.0106299,0 0.0198307,-0.00188976 0.0275945,-0.00573228 0.00784252,-0.00384646 0.0142559,-0.00920079 0.0192283,-0.0161378 0.00505512,-0.00685827 0.00874803,-0.0151535 0.0110866,-0.0247283 0.00233465,-0.00957874 0.00354331,-0.0200591 0.00354331,-0.0315945zm0.263307 0.0992283c0,0.00112992 -0.000299213,0.00218504 -0.000905512,0.00294094 -0.000602362,0.000830709 -0.00150787,0.00150787 -0.0028622,0.00211024 -0.00135827,0.000602362 -0.00316929,0.00105512 -0.00550394,0.00135827 -0.00241339,0.000299213 -0.00535433,0.000452756 -0.00882283,0.000452756 -0.00369685,0 -0.0067126,-0.000153543 -0.00912598,-0.000452756 -0.00233465,-0.00030315 -0.00414567,-0.000755906 -0.00550394,-0.00135827 -0.00128346,-0.000602362 -0.00225984,-0.00127953 -0.0028622,-0.00211024 -0.000606299,-0.000755906 -0.000905512,-0.00181102 -0.000905512,-0.00294094l0 -0.116425c0,-0.0113819 -0.000830709,-0.0205079 -0.0026378,-0.0273701 -0.00173622,-0.00693701 -0.00429921,-0.0128937 -0.00769291,-0.0179488 -0.0033937,-0.00497638 -0.00776772,-0.0088189 -0.0131969,-0.0114567 -0.00535433,-0.00264173 -0.0115354,-0.004 -0.018626,-0.004 -0.00912205,0 -0.0182441,0.00324409 -0.0273701,0.00972835 -0.00920079,0.00648425 -0.0187756,0.0159843 -0.0287283,0.0285039l0 0.138969c0,0.00112992 -0.00030315,0.00218504 -0.000905512,0.00294094 -0.000606299,0.000830709 -0.00158268,0.00150787 -0.00286614,0.00211024 -0.00135827,0.000602362 -0.00316929,0.00105512 -0.00550394,0.00135827 -0.00241339,0.000299213 -0.00542913,0.000452756 -0.00912205,0.000452756 -0.0034685,0 -0.00641339,-0.000153543 -0.00882677,-0.000452756 -0.00233465,-0.00030315 -0.00422047,-0.000755906 -0.00557874,-0.00135827 -0.00142913,-0.000602362 -0.00241339,-0.00127953 -0.00286614,-0.00211024 -0.000523622,-0.000755906 -0.000826772,-0.00181102 -0.000826772,-0.00294094l0 -0.198839c0,-0.00120866 0.000224409,-0.00218504 0.000677165,-0.00301969 0.000452756,-0.000751969 0.00135827,-0.00150787 0.00264173,-0.0021811 0.00135827,-0.000681102 0.00301575,-0.00105906 0.00512598,-0.0012874 0.00203543,-0.000224409 0.00474803,-0.000374016 0.00814567,-0.000374016 0.00324016,0 0.00595669,0.000149606 0.00806693,0.000374016 0.00211024,0.000228346 0.00377165,0.000606299 0.00497638,0.0012874 0.00112992,0.000673228 0.00203543,0.00142913 0.00256299,0.0021811 0.000452756,0.000834646 0.000755906,0.00181102 0.000755906,0.00301969l0 0.026315c0.0111614,-0.0125197 0.022315,-0.0217165 0.0334764,-0.0275236 0.0110866,-0.00580315 0.0223228,-0.00874803 0.0336339,-0.00874803 0.0132677,0 0.0244291,0.00226378 0.0334764,0.0067874 0.00905118,0.00445276 0.0164409,0.0104803 0.0220197,0.0179488 0.00557874,0.00753937 0.0095748,0.0163622 0.0119882,0.0263898 0.00248819,0.0101024 0.00369291,0.0222441 0.00369291,0.0363465l0 0.121323zm0.191299 -0.0541378c0,0.0101772 -0.00188189,0.0192244 -0.00565354,0.0271417 -0.00377165,0.00799213 -0.00912205,0.0147087 -0.0160591,0.0201339 -0.00686614,0.00542913 -0.0151614,0.00957874 -0.0247362,0.0123661 -0.0095748,0.00279134 -0.0200591,0.00422441 -0.0315945,0.00422441 -0.00701181,0 -0.0137992,-0.000606299 -0.0202047,-0.00166142 -0.00641339,-0.00112992 -0.0121417,-0.00256299 -0.0171929,-0.00422047 -0.00512992,-0.00166142 -0.0094252,-0.0034685 -0.0129724,-0.00527953 -0.0034685,-0.00188583 -0.0061063,-0.00354331 -0.00768898,-0.00497638 -0.00166142,-0.00150787 -0.00279134,-0.00354331 -0.00354331,-0.0061811 -0.000755906,-0.00264173 -0.00113386,-0.00625984 -0.00113386,-0.0108583 0,-0.00279134 0.000149606,-0.00512992 0.000452756,-0.00709055 0.00030315,-0.00188583 0.000681102,-0.0033937 0.00113386,-0.00459843 0.000452756,-0.00120472 0.00105512,-0.00203543 0.00188189,-0.00256299 0.000755906,-0.000527559 0.00173622,-0.000751969 0.00271654,-0.000751969 0.00165748,0 0.00407087,0.000976378 0.00723622,0.00301575 0.00316929,0.00195669 0.00701181,0.00414567 0.011689,0.00648031 0.00460236,0.00233858 0.0101024,0.00452362 0.016437,0.00648425 0.00633465,0.00203937 0.0136496,0.00301969 0.0218701,0.00301969 0.00618504,0 0.0117598,-0.000677165 0.016815,-0.00196063 0.00497638,-0.00135827 0.00935039,-0.0033189 0.0130433,-0.00588189 0.00361811,-0.00256693 0.00648425,-0.00588583 0.00844488,-0.00980315 0.00203543,-0.00399606 0.00301575,-0.00874409 0.00301575,-0.0141732 0,-0.00558268 -0.00143307,-0.0103346 -0.00429528,-0.0141024 -0.00286614,-0.00384646 -0.0067126,-0.00724016 -0.0113898,-0.0101811 -0.00474803,-0.00294094 -0.0100276,-0.00557874 -0.0159094,-0.00784252 -0.00588189,-0.00226378 -0.0119882,-0.00467717 -0.018248,-0.00716142 -0.00625591,-0.00256299 -0.0123622,-0.00535433 -0.0183228,-0.00851969 -0.00595276,-0.00316929 -0.011311,-0.00701575 -0.0159843,-0.0116142 -0.00475197,-0.00459843 -0.00851969,-0.0100276 -0.0113858,-0.0163622 -0.00286614,-0.00633465 -0.00429528,-0.013874 -0.00429528,-0.0227717 0,-0.00776772 0.00150787,-0.0152323 0.00452362,-0.0223937 0.00301575,-0.00716535 0.00753937,-0.0134252 0.0135669,-0.0187756 0.00603543,-0.00535433 0.0135748,-0.00965354 0.022626,-0.0128937 0.00904724,-0.00324409 0.0196772,-0.00490551 0.0317441,-0.00490551 0.00527953,0 0.0105591,0.000452756 0.0159094,0.00135827 0.00527953,0.000830709 0.0100276,0.00196063 0.0143268,0.0033189 0.00429921,0.00128346 0.00791732,0.0027126 0.0109331,0.00429921 0.00301575,0.00150787 0.00527953,0.00286614 0.00686614,0.00407087 0.00150394,0.00120472 0.00255906,0.00218504 0.00308661,0.00309055 0.000527559,0.000905512 0.000905512,0.00188583 0.00112992,0.00301575 0.000228346,0.00105906 0.000377953,0.00241339 0.000602362,0.0040748 0.000228346,0.00157874 0.00038189,0.00361811 0.00038189,0.00595276 0,0.00249213 -0.000153543,0.00467717 -0.00038189,0.00648819 -0.000224409,0.00188583 -0.000523622,0.0033937 -0.00105512,0.00452362 -0.000523622,0.00120472 -0.00112992,0.00203543 -0.00188189,0.00256299 -0.000755906,0.000527559 -0.00158268,0.000755906 -0.00241339,0.000755906 -0.00135827,0 -0.00324016,-0.000755906 -0.00580315,-0.00241339 -0.00249213,-0.00158268 -0.00573228,-0.0033189 -0.00965354,-0.00520079 -0.004,-0.00181102 -0.00867323,-0.00354724 -0.0140984,-0.00520472 -0.00535827,-0.00158268 -0.0114646,-0.00241339 -0.0184016,-0.00241339 -0.00618504,0 -0.0116142,0.000677165 -0.0163622,0.00211024 -0.00467323,0.00143307 -0.00859449,0.0033937 -0.0116142,0.00596063 -0.00301575,0.00256299 -0.00527559,0.00565354 -0.00685827,0.00919291 -0.00150787,0.00354724 -0.00226378,0.0073189 -0.00226378,0.0114646 0,0.00572835 0.00143307,0.0105551 0.00437402,0.0144764 0.00294094,0.00392126 0.00678346,0.00731496 0.0115354,0.0102559 0.00467717,0.00294094 0.0100276,0.00558268 0.016063,0.00799606 0.0061063,0.00233465 0.0122165,0.00474803 0.0184724,0.00723228 0.00625984,0.00256693 0.0124409,0.00535827 0.0185512,0.00844882 0.0061063,0.00309055 0.0115354,0.00678346 0.0162874,0.0112362 0.00467323,0.00444882 0.00844094,0.00972441 0.0113071,0.0159094 0.00286614,0.00618504 0.00437402,0.0135748 0.00437402,0.0220945z"/>
 </g>
</svg>
