<?xml version="1.0" encoding="utf-8"?>
<!-- Generator: Adobe Illustrator 16.0.0, SVG Export Plug-In . SVG Version: 6.00 Build 0)  -->
<!DOCTYPE svg PUBLIC "-//W3C//DTD SVG 1.1//EN" "http://www.w3.org/Graphics/SVG/1.1/DTD/svg11.dtd">
<svg version="1.1" id="Layer_1" xmlns="http://www.w3.org/2000/svg" xmlns:xlink="http://www.w3.org/1999/xlink" x="0px" y="0px"
	 width="531.989px" height="135.115px" viewBox="0 0 531.989 135.115" enable-background="new 0 0 531.989 135.115"
	 xml:space="preserve">
<g>
	<path id="_243839824" fill="#ED5C37" d="M67.558,0c37.305,0,67.557,30.253,67.557,67.558c0,37.305-30.252,67.557-67.557,67.557
		C30.252,135.114,0,104.862,0,67.558C0,30.253,30.252,0,67.558,0z"/>
	<path fill="#FEFEFE" d="M101.061,40.948c-20.782,0-41.564,0-62.347,0c-4.478,0.655-7.406,2.862-8.068,7.335
		c0,17.114,0,34.23,0,51.345c0.801,2.507,2.757,3.729,5.868,3.667c22.495,0,44.988,0,67.482,0c3.638-0.632,9.522-3.373,6.676-6.831
		c-7.946-7.947-25.569-19.058-25.38-22.875c0.255-5.143,15.77-16.571,24.206-24C111.934,46.727,107.908,41.369,101.061,40.948
		L101.061,40.948z"/>
	<path fill="#ED5C37" d="M79.323,49.665c-7.994,7.958-15.987,15.144-23.98,23.103c-0.889,0.819-0.505,1.183,0.017,1.724
		L79.77,93.836c-6.209-5.294-11.347-11.48-11.618-20.354C68.471,63.781,73.669,56.231,79.323,49.665L79.323,49.665z"/>
	<path id="_243109448" fill="#373435" d="M202.047,61.925c0.468,0,0.892,0.19,1.273,0.57l3.334,3.642
		c-2.574,2.984-5.689,5.31-9.361,6.977c-3.671,1.668-8.103,2.501-13.281,2.501c-4.534,0-8.645-0.79-12.331-2.354
		c-3.686-1.565-6.831-3.76-9.434-6.582c-2.604-2.823-4.623-6.202-6.056-10.151s-2.15-8.293-2.15-13.033s0.775-9.083,2.311-13.033
		c1.536-3.949,3.686-7.343,6.465-10.18c2.779-2.838,6.114-5.047,9.99-6.612c3.876-1.565,8.147-2.34,12.829-2.34
		c4.622,0,8.615,0.717,11.965,2.15c3.349,1.434,6.319,3.379,8.922,5.836l-2.765,3.906c-0.205,0.292-0.438,0.526-0.702,0.717
		c-0.263,0.19-0.644,0.292-1.141,0.292c-0.38,0-0.775-0.146-1.199-0.424c-0.424-0.278-0.936-0.614-1.521-1.024
		s-1.273-0.848-2.063-1.316c-0.79-0.468-1.726-0.907-2.809-1.316c-1.082-0.41-2.34-0.761-3.773-1.039s-3.086-0.41-4.959-0.41
		c-3.364,0-6.436,0.571-9.229,1.726c-2.793,1.155-5.208,2.809-7.226,4.944c-2.019,2.135-3.584,4.739-4.71,7.811
		c-1.126,3.072-1.697,6.509-1.697,10.312c0,3.92,0.57,7.416,1.697,10.488c1.126,3.072,2.662,5.661,4.607,7.782
		c1.945,2.121,4.242,3.744,6.904,4.856s5.529,1.668,8.601,1.668c1.872,0,3.554-0.117,5.046-0.337
		c1.492-0.219,2.882-0.556,4.154-1.024c1.272-0.468,2.457-1.068,3.554-1.785c1.097-0.716,2.194-1.565,3.306-2.56
		C201.097,62.144,201.579,61.925,202.047,61.925L202.047,61.925z M225.305,30.462v44.451h-7.811V30.462H225.305z M227.06,16.508
		c0,0.761-0.146,1.463-0.453,2.121s-0.717,1.243-1.229,1.755c-0.512,0.512-1.111,0.922-1.785,1.214
		c-0.672,0.292-1.389,0.438-2.15,0.438c-0.76,0-1.462-0.146-2.121-0.438c-0.659-0.292-1.244-0.702-1.755-1.214
		c-0.512-0.512-0.921-1.097-1.214-1.755c-0.292-0.658-0.438-1.36-0.438-2.121s0.146-1.492,0.438-2.18
		c0.293-0.687,0.702-1.287,1.214-1.799c0.512-0.512,1.097-0.907,1.755-1.2s1.36-0.438,2.121-0.438s1.478,0.146,2.15,0.438
		c0.673,0.292,1.273,0.688,1.785,1.2c0.512,0.512,0.922,1.112,1.229,1.799C226.914,15.016,227.06,15.747,227.06,16.508z
		 M252.555,75.615c-3.511,0-6.202-0.979-8.088-2.939c-1.887-1.96-2.838-4.783-2.838-8.469V37h-5.354
		c-0.468,0-0.863-0.146-1.185-0.424c-0.322-0.278-0.483-0.702-0.483-1.288v-3.115l7.284-0.921l1.799-13.735
		c0.059-0.439,0.249-0.805,0.571-1.083s0.731-0.41,1.229-0.41h3.949V31.34h12.726V37h-12.726V63.68c0,1.873,0.454,3.262,1.36,4.169
		c0.907,0.907,2.077,1.36,3.511,1.36c0.819,0,1.536-0.116,2.135-0.337c0.6-0.219,1.112-0.453,1.55-0.717
		c0.439-0.263,0.819-0.511,1.126-0.731c0.307-0.219,0.57-0.322,0.804-0.322c0.41,0,0.776,0.249,1.097,0.746l2.282,3.73
		c-1.346,1.258-2.969,2.237-4.871,2.955C256.533,75.25,254.573,75.615,252.555,75.615L252.555,75.615z M271.819,74.913V30.462h4.476
		c0.849,0,1.434,0.161,1.755,0.483c0.322,0.322,0.541,0.877,0.658,1.667l0.527,6.933c1.521-3.101,3.408-5.529,5.646-7.27
		c2.237-1.741,4.856-2.604,7.87-2.604c1.229,0,2.34,0.132,3.334,0.41c0.995,0.277,1.916,0.672,2.765,1.17l-1.009,5.836
		c-0.205,0.731-0.658,1.097-1.361,1.097c-0.408,0-1.037-0.146-1.887-0.424c-0.848-0.278-2.033-0.409-3.554-0.409
		c-2.721,0-4.987,0.79-6.816,2.37c-1.828,1.579-3.364,3.876-4.593,6.889v28.303H271.819L271.819,74.913z M313.944,30.462v28.347
		c0,3.364,0.775,5.968,2.326,7.811c1.551,1.844,3.891,2.765,7.021,2.765c2.281,0,4.432-0.542,6.451-1.624
		c2.018-1.083,3.875-2.589,5.572-4.52V30.462h7.811v44.451h-4.652c-1.111,0-1.813-0.541-2.105-1.623l-0.613-4.783
		c-1.932,2.136-4.096,3.848-6.496,5.148c-2.398,1.303-5.148,1.961-8.248,1.961c-2.43,0-4.564-0.41-6.422-1.215
		s-3.424-1.93-4.682-3.393s-2.193-3.233-2.822-5.31c-0.629-2.078-0.951-4.374-0.951-6.89V30.462H313.944L313.944,30.462z
		 M381.434,37.79c-0.352,0.644-0.893,0.965-1.625,0.965c-0.438,0-0.936-0.161-1.49-0.482c-0.557-0.322-1.23-0.688-2.033-1.083
		c-0.805-0.395-1.771-0.76-2.883-1.097c-1.111-0.337-2.428-0.498-3.949-0.498c-1.316,0-2.5,0.161-3.555,0.498
		c-1.053,0.336-1.945,0.804-2.689,1.389c-0.748,0.585-1.318,1.258-1.713,2.034c-0.395,0.775-0.6,1.623-0.6,2.53
		c0,1.141,0.338,2.092,0.994,2.852c0.658,0.76,1.521,1.419,2.605,1.975c1.082,0.556,2.311,1.039,3.686,1.463s2.793,0.877,4.242,1.36
		c1.447,0.482,2.852,1.024,4.227,1.609s2.604,1.316,3.686,2.194s1.961,1.945,2.619,3.218c0.658,1.273,0.979,2.809,0.979,4.593
		c0,2.048-0.365,3.935-1.096,5.675c-0.732,1.741-1.814,3.248-3.248,4.519c-1.434,1.273-3.188,2.282-5.266,3.014
		c-2.076,0.731-4.475,1.097-7.195,1.097c-3.102,0-5.91-0.511-8.426-1.521s-4.652-2.297-6.406-3.877l1.842-2.983
		c0.234-0.38,0.512-0.673,0.834-0.878c0.322-0.205,0.746-0.307,1.273-0.307c0.525,0,1.082,0.205,1.666,0.615
		c0.586,0.409,1.303,0.863,2.137,1.36c0.834,0.497,1.842,0.95,3.027,1.36c1.186,0.409,2.662,0.614,4.447,0.614
		c1.52,0,2.852-0.205,3.992-0.6s2.092-0.922,2.854-1.595c0.76-0.673,1.33-1.448,1.695-2.326s0.541-1.813,0.541-2.808
		c0-1.229-0.32-2.253-0.98-3.057c-0.656-0.805-1.535-1.492-2.617-2.063s-2.311-1.068-3.701-1.492
		c-1.389-0.425-2.809-0.863-4.256-1.332c-1.447-0.468-2.867-1.009-4.256-1.608c-1.391-0.6-2.633-1.346-3.717-2.253
		c-1.082-0.907-1.945-2.033-2.604-3.364s-0.994-2.94-0.994-4.842c0-1.696,0.352-3.334,1.053-4.9c0.703-1.565,1.727-2.94,3.072-4.125
		c1.346-1.185,2.998-2.121,4.959-2.823c1.959-0.702,4.197-1.053,6.713-1.053c2.926,0,5.559,0.454,7.885,1.375
		s4.33,2.194,6.025,3.803L381.434,37.79L381.434,37.79z"/>
	<path id="_84709616" fill="#373435" d="M393.588,74.913V9.706h10.84V35.42c1.783-1.902,3.803-3.423,6.055-4.549
		c2.252-1.126,4.885-1.682,7.898-1.682c2.457,0,4.709,0.497,6.742,1.506c2.033,1.01,3.789,2.487,5.268,4.418
		c1.477,1.931,2.617,4.315,3.422,7.152c0.805,2.838,1.199,6.1,1.199,9.786c0,3.364-0.453,6.479-1.359,9.346
		c-0.908,2.867-2.195,5.354-3.877,7.46c-1.682,2.105-3.715,3.744-6.1,4.929s-5.061,1.784-8.016,1.784
		c-1.375,0-2.633-0.146-3.773-0.424s-2.18-0.658-3.115-1.156c-0.938-0.497-1.799-1.111-2.604-1.828s-1.58-1.506-2.313-2.384
		l-0.482,3.028c-0.176,0.76-0.467,1.301-0.893,1.623c-0.424,0.322-1.008,0.482-1.74,0.482H393.588L393.588,74.913z M414.651,37.614
		c-2.252,0-4.168,0.468-5.762,1.419c-1.596,0.951-3.088,2.296-4.461,4.022v20.185c1.229,1.521,2.572,2.574,4.021,3.174
		c1.447,0.6,3.014,0.907,4.709,0.907c1.639,0,3.117-0.307,4.434-0.921s2.441-1.551,3.363-2.808c0.922-1.258,1.623-2.853,2.121-4.769
		c0.498-1.916,0.746-4.168,0.746-6.772c0-2.633-0.205-4.871-0.629-6.699c-0.424-1.829-1.039-3.306-1.828-4.447
		c-0.791-1.141-1.74-1.975-2.867-2.501C417.372,37.877,416.084,37.614,414.651,37.614z M453.399,29.891v28.611
		c0,2.75,0.643,4.871,1.916,6.377c1.271,1.507,3.174,2.267,5.719,2.267c1.873,0,3.627-0.424,5.266-1.258
		c1.639-0.833,3.189-1.975,4.652-3.438v-32.56h10.838v45.022h-6.627c-1.402,0-2.324-0.658-2.764-1.975l-0.746-3.599
		c-0.936,0.937-1.9,1.785-2.896,2.56c-0.994,0.775-2.047,1.434-3.174,1.975c-1.127,0.542-2.34,0.966-3.643,1.273
		c-1.301,0.307-2.705,0.468-4.197,0.468c-2.457,0-4.623-0.425-6.51-1.258c-1.887-0.834-3.48-2.004-4.768-3.525
		c-1.287-1.521-2.252-3.335-2.91-5.427c-0.658-2.091-0.996-4.388-0.996-6.903V29.891H453.399L453.399,29.891z M508.952,29.101
		c1.932,0,3.744,0.19,5.441,0.585s3.248,0.98,4.652,1.741h12.943v4.037c0,0.672-0.176,1.199-0.525,1.579
		c-0.352,0.381-0.951,0.644-1.799,0.79l-4.037,0.746c0.293,0.761,0.525,1.565,0.688,2.414c0.16,0.849,0.232,1.74,0.232,2.677
		c0,2.223-0.438,4.228-1.33,6.026c-0.893,1.799-2.121,3.335-3.686,4.593c-1.566,1.258-3.424,2.224-5.574,2.911
		c-2.148,0.688-4.49,1.039-7.006,1.039c-1.697,0-3.35-0.161-4.959-0.482c-1.404,0.863-2.105,1.814-2.105,2.881
		c0,0.907,0.424,1.58,1.258,2.019c0.834,0.424,1.932,0.731,3.291,0.907c1.361,0.175,2.896,0.263,4.623,0.263
		c1.725,0,3.494,0.073,5.309,0.219s3.584,0.41,5.311,0.775c1.725,0.366,3.275,0.936,4.637,1.741c1.359,0.79,2.457,1.857,3.291,3.232
		c0.834,1.359,1.242,3.115,1.242,5.251c0,1.989-0.482,3.935-1.463,5.808c-0.979,1.887-2.398,3.553-4.256,5.016
		s-4.139,2.648-6.83,3.541c-2.691,0.892-5.764,1.345-9.215,1.345c-3.424,0-6.393-0.336-8.908-0.995
		c-2.516-0.657-4.594-1.535-6.246-2.633c-1.652-1.096-2.896-2.354-3.715-3.787c-0.82-1.434-1.23-2.926-1.23-4.477
		c0-2.106,0.645-3.876,1.932-5.31c1.287-1.433,3.072-2.574,5.354-3.423c-1.111-0.614-2.004-1.434-2.676-2.457
		c-0.674-1.024-1.01-2.355-1.01-3.993c0-0.673,0.117-1.375,0.352-2.092c0.232-0.717,0.6-1.419,1.082-2.121
		c0.482-0.703,1.082-1.375,1.813-2.004c0.732-0.629,1.596-1.185,2.59-1.682c-2.281-1.229-4.066-2.867-5.369-4.915
		c-1.301-2.048-1.959-4.446-1.959-7.196c0-2.223,0.453-4.242,1.346-6.041s2.135-3.335,3.73-4.607c1.594-1.273,3.48-2.238,5.66-2.911
		C504.008,29.438,506.377,29.101,508.952,29.101L508.952,29.101z M520.844,76.8c0-0.892-0.264-1.623-0.791-2.193
		c-0.525-0.57-1.242-1.01-2.15-1.316c-0.906-0.322-1.959-0.541-3.174-0.703c-1.213-0.146-2.5-0.219-3.861-0.219
		c-1.359,0-2.764,0-4.213,0c-1.447,0-2.852-0.16-4.197-0.482c-1.229,0.672-2.209,1.463-2.955,2.385
		c-0.746,0.92-1.125,1.988-1.125,3.188c0,0.79,0.203,1.521,0.6,2.209c0.395,0.688,1.023,1.287,1.887,1.785
		c0.861,0.496,1.975,0.877,3.35,1.154c1.373,0.279,3.057,0.425,5.045,0.425c2.02,0,3.76-0.161,5.223-0.468
		c1.463-0.322,2.676-0.746,3.627-1.302s1.639-1.215,2.078-1.975C520.624,78.526,520.844,77.692,520.844,76.8L520.844,76.8z
		 M508.952,51.305c1.346,0,2.516-0.19,3.51-0.556c0.996-0.366,1.83-0.863,2.488-1.506s1.154-1.419,1.492-2.326
		c0.336-0.907,0.496-1.901,0.496-2.984c0-2.223-0.658-3.993-1.988-5.295c-1.332-1.302-3.336-1.945-5.998-1.945
		s-4.65,0.644-5.982,1.945c-1.33,1.302-2.004,3.072-2.004,5.295c0,1.053,0.176,2.033,0.512,2.94c0.336,0.907,0.834,1.682,1.492,2.34
		s1.492,1.17,2.502,1.536C506.479,51.115,507.635,51.305,508.952,51.305L508.952,51.305z"/>
	<g enable-background="new    ">
		<path fill="#ED5C37" d="M355.252,96.646c0,0.26-0.014,0.484-0.041,0.676s-0.072,0.345-0.133,0.461
			c-0.063,0.115-0.137,0.201-0.227,0.256c-0.088,0.055-0.188,0.082-0.297,0.082h-7.453v22.973c0,0.109-0.027,0.205-0.08,0.287
			c-0.055,0.082-0.15,0.146-0.287,0.193c-0.137,0.049-0.318,0.09-0.543,0.123c-0.225,0.034-0.508,0.052-0.85,0.052
			c-0.328,0-0.607-0.018-0.84-0.052c-0.232-0.033-0.416-0.074-0.553-0.123c-0.137-0.047-0.232-0.111-0.287-0.193
			s-0.082-0.178-0.082-0.287V98.12h-7.453c-0.109,0-0.207-0.027-0.297-0.082c-0.088-0.055-0.16-0.141-0.215-0.256
			c-0.055-0.116-0.098-0.27-0.133-0.461c-0.033-0.191-0.051-0.416-0.051-0.676s0.018-0.488,0.051-0.686
			c0.035-0.198,0.078-0.359,0.133-0.482c0.055-0.122,0.127-0.211,0.215-0.266c0.09-0.055,0.188-0.082,0.297-0.082h18.428
			c0.109,0,0.209,0.027,0.297,0.082c0.09,0.055,0.164,0.144,0.227,0.266c0.061,0.123,0.105,0.284,0.133,0.482
			C355.239,96.157,355.252,96.386,355.252,96.646z"/>
		<path fill="#ED5C37" d="M370.69,111.101c0,0.533-0.133,0.911-0.4,1.137c-0.268,0.225-0.572,0.338-0.916,0.338h-12.135
			c0,1.023,0.102,1.945,0.309,2.764c0.205,0.819,0.549,1.522,1.029,2.109c0.479,0.587,1.104,1.037,1.871,1.352
			s1.707,0.471,2.818,0.471c0.879,0,1.66-0.072,2.346-0.215c0.686-0.144,1.279-0.304,1.779-0.481
			c0.502-0.177,0.912-0.338,1.236-0.481c0.322-0.143,0.564-0.215,0.73-0.215c0.096,0,0.182,0.023,0.256,0.072
			c0.076,0.047,0.135,0.119,0.176,0.215s0.072,0.229,0.092,0.398c0.021,0.172,0.031,0.379,0.031,0.625
			c0,0.178-0.008,0.331-0.02,0.461c-0.016,0.129-0.031,0.246-0.053,0.348c-0.02,0.103-0.055,0.195-0.102,0.276
			c-0.049,0.082-0.109,0.161-0.184,0.235c-0.076,0.076-0.297,0.198-0.666,0.369c-0.369,0.17-0.848,0.338-1.434,0.502
			c-0.588,0.163-1.266,0.31-2.037,0.439s-1.594,0.195-2.467,0.195c-1.516,0-2.844-0.213-3.982-0.635
			c-1.141-0.424-2.1-1.052-2.877-1.885c-0.779-0.832-1.365-1.876-1.762-3.133c-0.396-1.255-0.594-2.716-0.594-4.381
			c0-1.584,0.205-3.006,0.615-4.27c0.408-1.262,1-2.334,1.77-3.215c0.771-0.88,1.703-1.556,2.795-2.026
			c1.094-0.472,2.314-0.706,3.666-0.706c1.447,0,2.678,0.232,3.695,0.695c1.018,0.465,1.854,1.089,2.508,1.873
			c0.656,0.785,1.137,1.707,1.443,2.765c0.309,1.058,0.461,2.188,0.461,3.389V111.101z M367.292,110.098
			c0.041-1.774-0.354-3.167-1.184-4.177c-0.832-1.01-2.064-1.516-3.699-1.516c-0.838,0-1.572,0.157-2.203,0.471
			c-0.633,0.314-1.162,0.73-1.588,1.25c-0.426,0.518-0.754,1.122-0.988,1.812c-0.232,0.689-0.363,1.409-0.391,2.16H367.292z"/>
		<path fill="#ED5C37" d="M389.077,118.308c0,0.232-0.006,0.434-0.02,0.604s-0.037,0.313-0.072,0.43
			c-0.033,0.116-0.074,0.219-0.123,0.308c-0.047,0.089-0.156,0.219-0.326,0.389c-0.172,0.171-0.461,0.383-0.871,0.635
			c-0.41,0.253-0.871,0.479-1.383,0.676s-1.068,0.358-1.668,0.48c-0.602,0.123-1.223,0.186-1.863,0.186
			c-1.324,0-2.498-0.219-3.521-0.656c-1.023-0.436-1.881-1.074-2.57-1.914s-1.215-1.87-1.576-3.092
			c-0.361-1.221-0.543-2.631-0.543-4.229c0-1.814,0.223-3.375,0.666-4.678c0.443-1.304,1.051-2.372,1.822-3.205
			c0.771-0.832,1.68-1.449,2.723-1.853c1.045-0.402,2.174-0.604,3.389-0.604c0.588,0,1.158,0.055,1.711,0.164
			s1.061,0.253,1.525,0.43c0.463,0.178,0.877,0.383,1.238,0.615s0.625,0.43,0.787,0.594c0.164,0.163,0.277,0.293,0.338,0.389
			c0.063,0.096,0.113,0.208,0.154,0.338s0.068,0.276,0.082,0.439c0.014,0.164,0.02,0.369,0.02,0.615
			c0,0.531-0.061,0.904-0.184,1.115c-0.123,0.212-0.273,0.317-0.451,0.317c-0.203,0-0.439-0.112-0.705-0.337
			c-0.266-0.227-0.604-0.475-1.014-0.748s-0.904-0.521-1.484-0.748c-0.58-0.225-1.268-0.337-2.059-0.337
			c-1.625,0-2.869,0.624-3.736,1.873s-1.301,3.062-1.301,5.437c0,1.188,0.113,2.229,0.338,3.122
			c0.227,0.895,0.557,1.642,0.994,2.242c0.436,0.601,0.973,1.048,1.607,1.341c0.635,0.294,1.361,0.44,2.18,0.44
			c0.779,0,1.461-0.122,2.049-0.368c0.586-0.246,1.094-0.516,1.525-0.809c0.43-0.294,0.791-0.561,1.084-0.799
			s0.521-0.358,0.686-0.358c0.096,0,0.178,0.027,0.246,0.082s0.127,0.146,0.174,0.276c0.049,0.13,0.082,0.293,0.104,0.491
			C389.067,117.8,389.077,118.035,389.077,118.308z"/>
		<path fill="#ED5C37" d="M409.43,121.113c0,0.109-0.027,0.201-0.082,0.276s-0.145,0.141-0.266,0.194
			c-0.123,0.055-0.295,0.095-0.514,0.123c-0.217,0.026-0.49,0.041-0.818,0.041c-0.342,0-0.621-0.015-0.84-0.041
			c-0.219-0.028-0.389-0.068-0.512-0.123c-0.123-0.054-0.211-0.119-0.266-0.194s-0.082-0.167-0.082-0.276v-10.79
			c0-1.051-0.082-1.897-0.246-2.539s-0.402-1.195-0.717-1.658c-0.314-0.465-0.719-0.82-1.217-1.065
			c-0.5-0.245-1.076-0.368-1.73-0.368c-0.848,0-1.693,0.301-2.539,0.9c-0.848,0.602-1.734,1.481-2.662,2.642v12.879
			c0,0.109-0.027,0.201-0.082,0.276s-0.143,0.141-0.266,0.194c-0.123,0.055-0.295,0.095-0.512,0.123
			c-0.219,0.026-0.5,0.041-0.84,0.041c-0.328,0-0.602-0.015-0.82-0.041c-0.217-0.028-0.391-0.068-0.521-0.123
			c-0.129-0.054-0.219-0.119-0.266-0.194c-0.049-0.075-0.072-0.167-0.072-0.276V93.759c0-0.109,0.023-0.205,0.072-0.287
			c0.047-0.082,0.137-0.15,0.266-0.205c0.131-0.055,0.305-0.096,0.521-0.123c0.219-0.027,0.492-0.041,0.82-0.041
			c0.34,0,0.621,0.014,0.84,0.041c0.217,0.027,0.389,0.068,0.512,0.123s0.211,0.123,0.266,0.205s0.082,0.178,0.082,0.287v11.035
			c0.969-1.023,1.945-1.784,2.928-2.283c0.982-0.498,1.973-0.746,2.969-0.746c1.229,0,2.264,0.207,3.102,0.624
			c0.84,0.417,1.52,0.973,2.037,1.669c0.52,0.695,0.891,1.512,1.117,2.446c0.225,0.936,0.338,2.065,0.338,3.389V121.113z"/>
		<path fill="#ED5C37" d="M431.461,121.113c0,0.109-0.027,0.201-0.082,0.276s-0.145,0.141-0.266,0.194
			c-0.123,0.055-0.295,0.095-0.514,0.123c-0.217,0.026-0.49,0.041-0.818,0.041c-0.342,0-0.621-0.015-0.84-0.041
			c-0.219-0.028-0.389-0.068-0.512-0.123c-0.123-0.054-0.211-0.119-0.266-0.194s-0.082-0.167-0.082-0.276v-10.79
			c0-1.051-0.082-1.897-0.246-2.539s-0.402-1.195-0.717-1.658c-0.314-0.465-0.719-0.82-1.217-1.065
			c-0.5-0.245-1.076-0.368-1.73-0.368c-0.848,0-1.693,0.301-2.539,0.9c-0.848,0.602-1.734,1.481-2.662,2.642v12.879
			c0,0.109-0.027,0.201-0.082,0.276s-0.143,0.141-0.266,0.194c-0.123,0.055-0.295,0.095-0.512,0.123
			c-0.219,0.026-0.5,0.041-0.84,0.041c-0.328,0-0.602-0.015-0.82-0.041c-0.217-0.028-0.391-0.068-0.521-0.123
			c-0.129-0.054-0.219-0.119-0.266-0.194c-0.049-0.075-0.072-0.167-0.072-0.276v-18.428c0-0.109,0.021-0.201,0.063-0.276
			s0.123-0.144,0.244-0.205c0.123-0.061,0.281-0.102,0.473-0.123c0.189-0.02,0.443-0.03,0.756-0.03c0.301,0,0.551,0.011,0.748,0.03
			c0.197,0.021,0.352,0.063,0.461,0.123c0.109,0.062,0.188,0.13,0.236,0.205c0.047,0.075,0.07,0.167,0.07,0.276v2.437
			c1.037-1.16,2.072-2.01,3.102-2.549c1.031-0.539,2.072-0.809,3.123-0.809c1.229,0,2.264,0.207,3.102,0.624
			c0.84,0.417,1.52,0.973,2.037,1.669c0.52,0.695,0.891,1.512,1.117,2.446c0.225,0.936,0.338,2.058,0.338,3.368V121.113z"/>
		<path fill="#ED5C37" d="M454.762,111.694c0,1.502-0.199,2.884-0.594,4.146c-0.396,1.263-0.986,2.352-1.771,3.266
			s-1.768,1.628-2.949,2.14c-1.18,0.513-2.549,0.769-4.105,0.769c-1.514,0-2.836-0.227-3.961-0.676
			c-1.127-0.451-2.064-1.105-2.816-1.967c-0.75-0.859-1.311-1.903-1.678-3.132c-0.369-1.229-0.553-2.621-0.553-4.177
			c0-1.502,0.193-2.884,0.584-4.146c0.389-1.263,0.975-2.352,1.76-3.266s1.764-1.625,2.938-2.13s2.547-0.757,4.117-0.757
			c1.514,0,2.836,0.225,3.961,0.676c1.127,0.449,2.064,1.105,2.816,1.965c0.75,0.859,1.313,1.904,1.688,3.133
			C454.575,108.767,454.762,110.152,454.762,111.694z M451.26,111.92c0-0.997-0.094-1.938-0.279-2.825
			c-0.186-0.888-0.492-1.666-0.92-2.334c-0.426-0.67-1.004-1.199-1.734-1.588s-1.639-0.583-2.727-0.583
			c-1.006,0-1.871,0.177-2.594,0.532s-1.318,0.857-1.787,1.505c-0.469,0.648-0.816,1.417-1.043,2.304s-0.342,1.856-0.342,2.907
			c0,1.011,0.094,1.959,0.279,2.847c0.186,0.887,0.496,1.661,0.93,2.323s1.016,1.188,1.746,1.577
			c0.73,0.389,1.639,0.583,2.727,0.583c0.992,0,1.854-0.177,2.584-0.532c0.729-0.355,1.328-0.854,1.797-1.494
			c0.469-0.643,0.813-1.406,1.033-2.294S451.26,112.984,451.26,111.92z"/>
	</g>
	<g enable-background="new    ">
		<path fill="#ED5C37" d="M464.301,120.929c0,0.137-0.041,0.256-0.121,0.358c-0.082,0.103-0.223,0.188-0.42,0.256
			c-0.199,0.068-0.461,0.12-0.789,0.153c-0.328,0.034-0.744,0.052-1.248,0.052c-0.506,0-0.922-0.018-1.25-0.052
			c-0.328-0.033-0.59-0.085-0.789-0.153c-0.197-0.067-0.338-0.153-0.418-0.256c-0.082-0.103-0.123-0.222-0.123-0.358V94.004
			c0-0.136,0.041-0.259,0.123-0.368c0.08-0.109,0.221-0.201,0.418-0.277c0.199-0.074,0.461-0.133,0.789-0.174
			s0.744-0.061,1.25-0.061c0.504,0,0.92,0.02,1.248,0.061s0.59,0.1,0.789,0.174c0.197,0.076,0.338,0.168,0.42,0.277
			c0.08,0.109,0.121,0.232,0.121,0.368V120.929z"/>
		<path fill="#ED5C37" d="M485.002,120.99c0,0.191-0.068,0.341-0.205,0.45s-0.352,0.188-0.645,0.236
			c-0.293,0.047-0.727,0.071-1.301,0.071c-0.613,0-1.061-0.024-1.34-0.071c-0.281-0.049-0.479-0.127-0.594-0.236
			c-0.117-0.109-0.176-0.259-0.176-0.45v-1.454c-0.75,0.807-1.607,1.434-2.568,1.885c-0.963,0.449-2.031,0.675-3.205,0.675
			c-0.969,0-1.859-0.126-2.672-0.378c-0.813-0.253-1.516-0.629-2.109-1.127s-1.055-1.115-1.381-1.854
			c-0.328-0.736-0.492-1.596-0.492-2.579c0-1.065,0.209-1.989,0.625-2.774s1.037-1.434,1.863-1.945s1.854-0.891,3.082-1.137
			c1.229-0.245,2.654-0.368,4.279-0.368h1.781v-1.105c0-0.573-0.059-1.075-0.176-1.505c-0.115-0.43-0.307-0.789-0.572-1.075
			s-0.621-0.498-1.064-0.635c-0.443-0.136-0.994-0.204-1.648-0.204c-0.859,0-1.629,0.096-2.303,0.286
			c-0.676,0.191-1.273,0.403-1.793,0.635c-0.518,0.232-0.951,0.444-1.299,0.635c-0.35,0.191-0.633,0.286-0.852,0.286
			c-0.148,0-0.283-0.047-0.398-0.143s-0.211-0.232-0.287-0.41c-0.074-0.177-0.133-0.396-0.174-0.654
			c-0.041-0.26-0.061-0.547-0.061-0.86c0-0.423,0.033-0.758,0.102-1.003c0.068-0.246,0.197-0.468,0.389-0.666
			c0.191-0.197,0.525-0.416,1.004-0.655c0.479-0.238,1.037-0.46,1.68-0.665c0.641-0.205,1.34-0.372,2.098-0.502
			c0.758-0.129,1.539-0.194,2.346-0.194c1.432,0,2.658,0.14,3.674,0.419c1.018,0.281,1.854,0.711,2.508,1.291
			c0.656,0.58,1.133,1.327,1.434,2.242c0.301,0.914,0.451,2,0.451,3.255V120.99z M479.946,113.169h-1.967
			c-0.832,0-1.543,0.061-2.129,0.184c-0.588,0.123-1.064,0.308-1.434,0.553c-0.369,0.246-0.639,0.543-0.809,0.891
			c-0.17,0.349-0.256,0.748-0.256,1.198c0,0.765,0.242,1.365,0.727,1.802c0.484,0.438,1.156,0.655,2.018,0.655
			c0.723,0,1.389-0.185,1.996-0.553s1.225-0.907,1.854-1.618V113.169z"/>
		<path fill="#ED5C37" d="M508.528,111.552c0,1.624-0.178,3.084-0.531,4.381c-0.355,1.297-0.867,2.402-1.537,3.317
			c-0.668,0.915-1.49,1.617-2.467,2.108c-0.977,0.492-2.086,0.737-3.326,0.737c-0.615,0-1.188-0.058-1.721-0.174
			s-1.041-0.304-1.525-0.563c-0.484-0.259-0.963-0.586-1.434-0.982c-0.471-0.396-0.951-0.873-1.443-1.434v1.986
			c0,0.15-0.037,0.276-0.113,0.379c-0.074,0.103-0.197,0.188-0.367,0.256c-0.172,0.068-0.4,0.115-0.686,0.144
			c-0.287,0.026-0.635,0.041-1.045,0.041c-0.424,0-0.775-0.015-1.055-0.041c-0.279-0.028-0.506-0.075-0.676-0.144
			s-0.291-0.153-0.357-0.256c-0.068-0.103-0.104-0.229-0.104-0.379V94.004c0-0.136,0.041-0.259,0.123-0.368s0.223-0.201,0.42-0.277
			c0.197-0.074,0.461-0.133,0.789-0.174c0.326-0.041,0.742-0.061,1.248-0.061s0.922,0.02,1.25,0.061
			c0.326,0.041,0.59,0.1,0.787,0.174c0.197,0.076,0.338,0.168,0.42,0.277s0.123,0.232,0.123,0.368v10.095
			c0.463-0.465,0.928-0.86,1.393-1.188c0.463-0.328,0.928-0.598,1.393-0.809c0.463-0.212,0.941-0.365,1.432-0.461
			c0.492-0.096,1.012-0.144,1.557-0.144c1.352,0,2.498,0.27,3.439,0.809c0.943,0.54,1.711,1.267,2.305,2.181
			s1.027,1.982,1.299,3.205C508.391,108.913,508.528,110.2,508.528,111.552z M503.184,111.92c0-0.778-0.059-1.528-0.174-2.253
			c-0.117-0.723-0.318-1.364-0.604-1.924c-0.287-0.561-0.66-1.007-1.117-1.342c-0.457-0.334-1.033-0.502-1.73-0.502
			c-0.34,0-0.674,0.049-1.002,0.145s-0.666,0.259-1.014,0.49c-0.348,0.232-0.707,0.533-1.076,0.901
			c-0.367,0.368-0.756,0.826-1.166,1.372v6.061c0.723,0.928,1.416,1.635,2.078,2.119s1.355,0.727,2.078,0.727
			c0.668,0,1.234-0.17,1.699-0.512c0.465-0.341,0.85-0.785,1.156-1.33c0.309-0.547,0.529-1.168,0.666-1.863
			C503.116,113.312,503.184,112.616,503.184,111.92z"/>
		<path fill="#ED5C37" d="M525.297,115.769c0,1.038-0.193,1.953-0.584,2.744c-0.389,0.792-0.938,1.453-1.648,1.986
			c-0.709,0.532-1.549,0.932-2.518,1.197c-0.969,0.267-2.02,0.399-3.152,0.399c-0.684,0-1.336-0.051-1.957-0.153
			s-1.176-0.232-1.668-0.389c-0.492-0.157-0.9-0.318-1.229-0.481c-0.328-0.164-0.566-0.317-0.717-0.461s-0.266-0.368-0.348-0.675
			c-0.082-0.308-0.123-0.762-0.123-1.362c0-0.396,0.014-0.713,0.041-0.952c0.027-0.238,0.068-0.43,0.123-0.573
			s0.123-0.239,0.205-0.286c0.082-0.049,0.184-0.072,0.307-0.072c0.15,0,0.371,0.086,0.666,0.256
			c0.293,0.171,0.658,0.358,1.096,0.563c0.436,0.205,0.943,0.396,1.525,0.574c0.58,0.178,1.238,0.266,1.975,0.266
			c0.465,0,0.877-0.047,1.238-0.143c0.363-0.096,0.676-0.232,0.943-0.41c0.266-0.177,0.467-0.402,0.604-0.676
			c0.137-0.272,0.205-0.586,0.205-0.941c0-0.41-0.127-0.761-0.379-1.055c-0.254-0.293-0.588-0.549-1.004-0.768
			s-0.887-0.423-1.412-0.614c-0.525-0.19-1.064-0.402-1.617-0.635c-0.553-0.231-1.094-0.498-1.619-0.799
			c-0.525-0.3-0.996-0.669-1.412-1.105s-0.75-0.962-1.004-1.577c-0.252-0.613-0.379-1.351-0.379-2.211
			c0-0.873,0.172-1.676,0.514-2.406c0.34-0.729,0.832-1.354,1.473-1.873c0.643-0.519,1.424-0.922,2.346-1.208
			c0.92-0.286,1.955-0.43,3.102-0.43c0.572,0,1.129,0.041,1.668,0.122c0.539,0.082,1.027,0.186,1.465,0.308
			c0.436,0.123,0.805,0.257,1.105,0.399c0.301,0.144,0.516,0.266,0.645,0.369c0.129,0.102,0.223,0.204,0.277,0.307
			s0.094,0.225,0.123,0.369c0.025,0.143,0.051,0.32,0.07,0.531c0.021,0.213,0.031,0.475,0.031,0.789c0,0.368-0.01,0.668-0.031,0.9
			c-0.02,0.232-0.055,0.416-0.102,0.553c-0.049,0.137-0.113,0.229-0.195,0.277c-0.082,0.047-0.178,0.07-0.287,0.07
			c-0.121,0-0.313-0.07-0.572-0.215c-0.26-0.143-0.584-0.297-0.973-0.46c-0.389-0.164-0.84-0.317-1.352-0.461
			s-1.096-0.215-1.75-0.215c-0.465,0-0.867,0.048-1.209,0.144s-0.621,0.232-0.84,0.409c-0.217,0.178-0.381,0.386-0.49,0.624
			c-0.109,0.239-0.164,0.496-0.164,0.768c0,0.424,0.129,0.779,0.389,1.065s0.602,0.54,1.023,0.758
			c0.424,0.218,0.904,0.423,1.443,0.614s1.086,0.398,1.639,0.624s1.1,0.488,1.639,0.788c0.539,0.301,1.02,0.67,1.443,1.105
			c0.422,0.438,0.764,0.96,1.023,1.566C525.168,114.216,525.297,114.937,525.297,115.769z"/>
	</g>
</g>
</svg>
