<?xml version="1.0" encoding="UTF-8"?>
<!DOCTYPE svg PUBLIC "-//W3C//DTD SVG 1.1//EN" "http://www.w3.org/Graphics/SVG/1.1/DTD/svg11.dtd">
<!-- Creator: CorelDRAW -->
<svg xmlns="http://www.w3.org/2000/svg" xml:space="preserve" width="6.73333in" height="1.70666in" style="shape-rendering:geometricPrecision; text-rendering:geometricPrecision; image-rendering:optimizeQuality; fill-rule:evenodd; clip-rule:evenodd"
viewBox="0 0 6.73333 1.70666"
 xmlns:xlink="http://www.w3.org/1999/xlink">
 <defs>
  <style type="text/css">
   <![CDATA[
    .fil1 {fill:#FEFEFE}
    .fil0 {fill:#ED5C37}
    .fil2 {fill:#373435;fill-rule:nonzero}
    .fil3 {fill:#ED5C37;fill-rule:nonzero}
    .fil4 {fill:#F26B35;fill-rule:nonzero}
   ]]>
  </style>
 </defs>
 <g id="Layer_x0020_1">
  <metadata id="CorelCorpID_0Corel-Layer"/>
  <g id="_206711472">
   <g>
    <path id="_248238600" class="fil0" d="M0.855783 0.00644094c0.466303,0 0.844449,0.378154 0.844449,0.844449 0,0.466295 -0.378146,0.844449 -0.844449,0.844449 -0.466303,0 -0.844449,-0.378154 -0.844449,-0.844449 0,-0.466295 0.378146,-0.844449 0.844449,-0.844449z"/>
    <path id="_248238432" class="fil1" d="M1.27457 0.518276c-0.259768,0 -0.519543,0 -0.779323,0 -0.0559724,0.00819291 -0.0925709,0.0357795 -0.100854,0.091685 0,0.213925 0,0.427862 0,0.641795 0.0100118,0.0313386 0.0344606,0.046626 0.0733504,0.0458425 0.281173,0 0.562339,0 0.843504,0 0.0454724,-0.00788976 0.119028,-0.0421654 0.0834449,-0.0853898 -0.0993228,-0.0993268 -0.319602,-0.238213 -0.31724,-0.285933 0.00319291,-0.0642677 0.197114,-0.207122 0.302563,-0.299996 0.0304606,-0.0357638 -0.0198661,-0.102736 -0.105445,-0.108004zm-0.27172 0.108965c-0.0999173,0.0994803 -0.199831,0.189295 -0.299748,0.288776 -0.0111102,0.0102402 -0.00631496,0.0147835 0.000208661,0.0215512l0.305122 0.241795c-0.0776102,-0.0661772 -0.141827,-0.1435 -0.145217,-0.254429 0.00398031,-0.121244 0.0689646,-0.215618 0.139634,-0.297693z"/>
   </g>
   <g>
    <path id="_206713824" class="fil2" d="M2.53687 0.78048c0.00585039,0 0.0111535,0.00237795 0.0159094,0.00713386l0.041685 0.0455236c-0.0321811,0.0372992 -0.071122,0.0663701 -0.117016,0.0872126 -0.0458898,0.0208425 -0.101287,0.0312638 -0.166012,0.0312638 -0.0566772,0 -0.108055,-0.00987402 -0.15413,-0.029437 -0.0460748,-0.019563 -0.0853819,-0.0469882 -0.117925,-0.0822756 -0.0325472,-0.0352874 -0.0577756,-0.0775197 -0.0756969,-0.126886 -0.0179173,-0.0493661 -0.026874,-0.103665 -0.026874,-0.162906 0,-0.0592362 0.00968898,-0.113539 0.0288858,-0.162906 0.0191969,-0.0493622 0.0460748,-0.0917795 0.080815,-0.127252 0.0347362,-0.0354685 0.0764252,-0.0630787 0.124874,-0.0826417 0.0484528,-0.019563 0.101839,-0.029252 0.160346,-0.029252 0.0577756,0 0.107689,0.00896063 0.149559,0.026878 0.0418661,0.0179173 0.0789843,0.0422323 0.111528,0.0729488l-0.0345551 0.0488189c-0.00255906,0.00365354 -0.00548425,0.00657874 -0.00877559,0.00895669 -0.00329134,0.00237795 -0.00804724,0.00365748 -0.0142638,0.00365748 -0.00475197,0 -0.00968898,-0.00182677 -0.0149921,-0.00530315 -0.00529921,-0.00347244 -0.0117008,-0.00767717 -0.0190118,-0.0127992 -0.00731496,-0.00511811 -0.0159094,-0.0106024 -0.0257795,-0.0164528 -0.00987402,-0.00585039 -0.0215748,-0.0113346 -0.0351063,-0.0164567 -0.0135276,-0.00511811 -0.029252,-0.00950787 -0.0471693,-0.0129803 -0.0179213,-0.00347244 -0.0385787,-0.00511811 -0.0619843,-0.00511811 -0.0420512,0 -0.0804449,0.00712992 -0.115366,0.0215748 -0.0349213,0.0144409 -0.0650906,0.0351024 -0.0903189,0.0617953 -0.0252323,0.0266929 -0.0447953,0.0592402 -0.058874,0.0976339 -0.0140787,0.0383976 -0.0212087,0.0813622 -0.0212087,0.128898 0,0.049 0.00712992,0.0926969 0.0212087,0.131094 0.0140787,0.0383937 0.0332756,0.0707559 0.0575945,0.0972677 0.024315,0.0265079 0.0530197,0.0468031 0.0862953,0.0607008 0.0332756,0.0138937 0.0691102,0.0208425 0.107508,0.0208425 0.0234016,0 0.0444291,-0.00146457 0.0630787,-0.00420472 0.0186457,-0.00274409 0.0360157,-0.00694882 0.0519213,-0.0127992 0.0159094,-0.00585039 0.0307165,-0.0133465 0.0444291,-0.0223071 0.0137126,-0.00895669 0.0274252,-0.019563 0.0413228,-0.0319961 0.00621654,-0.00548425 0.012248,-0.00822835 0.0180984,-0.00822835zm0.290709 -0.393276l0 0.555634 -0.0976339 0 0 -0.555634 0.0976339 0zm0.0219409 -0.174421c0,0.00950787 -0.00183071,0.0182835 -0.00566929,0.0265118 -0.00383858,0.00822441 -0.00895669,0.0155394 -0.0153583,0.021937 -0.00639764,0.00640157 -0.0138937,0.0115197 -0.0223071,0.0151772 -0.00840945,0.00365748 -0.0173661,0.00548425 -0.026874,0.00548425 -0.00950787,0 -0.0182835,-0.00182677 -0.0265118,-0.00548425 -0.00822835,-0.00365748 -0.0155394,-0.00877559 -0.0219409,-0.0151772 -0.00639764,-0.00639764 -0.0115157,-0.0137126 -0.0151732,-0.021937 -0.00365748,-0.00822835 -0.00548425,-0.0170039 -0.00548425,-0.0265118 0,-0.00950787 0.00182677,-0.0186496 0.00548425,-0.0272441 0.00365748,-0.00859055 0.00877559,-0.0160906 0.0151732,-0.0224882 0.00640157,-0.00639764 0.0137126,-0.0113346 0.0219409,-0.0149921 0.00822835,-0.00365748 0.0170039,-0.00548425 0.0265118,-0.00548425 0.00950787,0 0.0184646,0.00182677 0.026874,0.00548425 0.00841339,0.00365748 0.0159094,0.00859449 0.0223071,0.0149921 0.00640157,0.00639764 0.0115197,0.0138976 0.0153583,0.0224882 0.00383858,0.00859449 0.00566929,0.0177362 0.00566929,0.0272441zm0.318681 0.738831c-0.0438819,0 -0.0775236,-0.012248 -0.101106,-0.036748 -0.0235866,-0.0245 -0.0354724,-0.0597874 -0.0354724,-0.105862l0 -0.340071 -0.0669173 0c-0.00585039,0 -0.0107874,-0.00182677 -0.0148071,-0.00530315 -0.00402362,-0.00347244 -0.00603543,-0.00877559 -0.00603543,-0.0160906l0 -0.0389409 0.0910512 -0.0115197 0.0224882 -0.171681c0.000732283,-0.00548425 0.00311024,-0.0100551 0.00712992,-0.0135276 0.00402362,-0.00347638 0.00914173,-0.00512205 0.0153583,-0.00512205l0.0493661 0 0 0.191429 0.159067 0 0 0.0707559 -0.159067 0 0 0.333488c0,0.0234055 0.00566929,0.0407717 0.0170039,0.0521102 0.0113346,0.0113346 0.0259606,0.017 0.0438819,0.017 0.0102362,0 0.0191969,-0.00146063 0.0266929,-0.00420472 0.00749606,-0.00274016 0.0138937,-0.00566535 0.019378,-0.00895669 0.00548819,-0.00329134 0.0102402,-0.00640157 0.0140787,-0.00914173 0.00383858,-0.00274409 0.00712992,-0.00402362 0.0100551,-0.00402362 0.00512205,0 0.00969291,0.00311024 0.0137126,0.00932677l0.0285236 0.046622c-0.0168189,0.0157244 -0.0371142,0.0279724 -0.0608819,0.0369331 -0.0237717,0.00895669 -0.0482717,0.0135276 -0.0735,0.0135276zm0.240791 -0.00877559l0 -0.555634 0.0559449 0c0.0106063,0 0.0179173,0.00201181 0.0219409,0.00603543 0.00402362,0.00402362 0.00676378,0.0109685 0.00822835,0.0208425l0.00658268 0.0866614c0.0190118,-0.0387598 0.0425984,-0.0691102 0.0705709,-0.0908661 0.0279764,-0.0217559 0.0607008,-0.0325433 0.0983661,-0.0325433 0.0153583,0 0.029252,0.00164567 0.041685,0.00511811 0.0124331,0.00347244 0.0239528,0.00840945 0.0345551,0.014626l-0.0126142 0.0729528c-0.00255906,0.00914173 -0.00822835,0.0137126 -0.0170039,0.0137126 -0.00511811,0 -0.0129803,-0.00183071 -0.0235866,-0.00530315 -0.0106024,-0.00347638 -0.0254134,-0.00511811 -0.0444252,-0.00511811 -0.0340079,0 -0.0623465,0.00987008 -0.0852008,0.0296181 -0.0228543,0.0197441 -0.0420551,0.0484488 -0.0574094,0.0861142l0 0.353783 -0.0976339 0zm0.526563 -0.555634l0 0.354335c0,0.0420512 0.00968898,0.0745945 0.0290709,0.0976339 0.019378,0.0230354 0.0486339,0.0345551 0.0877598,0.0345551 0.0285236,0 0.0553976,-0.00676772 0.0806299,-0.0202953 0.0252323,-0.0135315 0.0484488,-0.0323622 0.0696575,-0.0564961l0 -0.409732 0.0976339 0 0 0.555634 -0.0581417 0c-0.0138937,0 -0.0226693,-0.00676378 -0.0263268,-0.0202953l-0.00767717 -0.0597874c-0.0241339,0.0266969 -0.0511969,0.0480866 -0.0811811,0.0643583 -0.0299843,0.0162717 -0.0643543,0.0245 -0.103118,0.0245 -0.0303504,0 -0.0570433,-0.00511811 -0.0802638,-0.0151732 -0.0232205,-0.0100591 -0.0427835,-0.0241339 -0.0585079,-0.0424173 -0.0157205,-0.0182835 -0.0274252,-0.0404094 -0.0352835,-0.0663701 -0.0078622,-0.0259646 -0.0118858,-0.0546693 -0.0118858,-0.0861142l0 -0.354335 0.0976339 0zm0.843594 0.0916024c-0.00438976,0.00804331 -0.0111535,0.0120669 -0.0202953,0.0120669 -0.00548425,0 -0.0117008,-0.00201181 -0.0186496,-0.00603543 -0.00694488,-0.00401969 -0.0153583,-0.00859055 -0.0254134,-0.0135276 -0.0100551,-0.00493701 -0.022122,-0.00950787 -0.0360197,-0.0137126 -0.0138937,-0.00420472 -0.0303504,-0.00621654 -0.0493622,-0.00621654 -0.0164567,0 -0.0312638,0.00201181 -0.0444291,0.00621654 -0.0131654,0.00420472 -0.0243189,0.0100551 -0.0336417,0.0173661 -0.00932677,0.00731496 -0.0164567,0.0157244 -0.0213937,0.0254173 -0.00493307,0.00968898 -0.00749606,0.0202913 -0.00749606,0.0316299 0,0.0142598 0.00420866,0.0261457 0.0124331,0.0356496 0.00822835,0.00950787 0.0190157,0.0177362 0.0325472,0.024685 0.0135276,0.00694882 0.0288858,0.0129803 0.0460709,0.0182835 0.017189,0.00530315 0.0349213,0.0109685 0.0530236,0.0170039 0.0181024,0.0060315 0.0356535,0.0127992 0.0528386,0.0201102 0.017185,0.00731496 0.0325433,0.0164567 0.0460748,0.0274252 0.0135315,0.0109685 0.0245,0.0243189 0.0327283,0.0402244 0.00822441,0.0159055 0.012248,0.0351024 0.012248,0.0574094 0,0.0255984 -0.00457087,0.0491811 -0.0137126,0.0709409 -0.00914173,0.0217559 -0.0226693,0.0405866 -0.0405866,0.0564961 -0.0179213,0.0159055 -0.0398583,0.0285197 -0.0658228,0.0376614 -0.0259606,0.00914173 -0.0559449,0.0137126 -0.0899528,0.0137126 -0.0387598,0 -0.0738661,-0.00639764 -0.105315,-0.0190157 -0.0314449,-0.0126142 -0.0581378,-0.0287047 -0.0800787,-0.0484488l0.0230354 -0.0372992c0.0029252,-0.00475197 0.00640157,-0.00840945 0.0104213,-0.0109685 0.00402362,-0.00255906 0.00932677,-0.00384252 0.0159094,-0.00384252 0.00657874,0 0.0135276,0.00256299 0.0208425,0.0076811 0.00731102,0.00511811 0.0162717,0.0107874 0.0266929,0.0170039 0.0104213,0.00621654 0.0230354,0.0118819 0.0378465,0.0170039 0.014811,0.00511811 0.0332756,0.00767717 0.0555827,0.00767717 0.0190118,0 0.0356496,-0.00255906 0.0499134,-0.00749606 0.0142598,-0.00493701 0.0261457,-0.0115197 0.0356535,-0.0199291 0.00950394,-0.00840945 0.0166378,-0.0180984 0.0212087,-0.0290709 0.00457087,-0.0109685 0.00676378,-0.0226693 0.00676378,-0.0351024 0,-0.0153583 -0.00402362,-0.0281575 -0.012252,-0.0382126 -0.00822441,-0.0100551 -0.0191969,-0.0186496 -0.0327244,-0.0257795 -0.0135315,-0.00712992 -0.0288898,-0.0133465 -0.0462598,-0.0186496 -0.0173661,-0.00530315 -0.0351024,-0.0107874 -0.0532047,-0.0166378 -0.0180984,-0.00585039 -0.0358346,-0.0126142 -0.0532047,-0.0201102 -0.0173661,-0.00749606 -0.0329094,-0.0168228 -0.046437,-0.0281575 -0.0135315,-0.0113346 -0.0243189,-0.0254134 -0.0325472,-0.0420512 -0.00822441,-0.0166378 -0.0124331,-0.036752 -0.0124331,-0.0605197 0,-0.0212087 0.00438976,-0.041685 0.0131654,-0.061248 0.00877559,-0.019563 0.0215748,-0.036752 0.0383937,-0.0515591 0.0168228,-0.014811 0.0374843,-0.0265118 0.0619843,-0.0352874 0.0245,-0.00877559 0.0524724,-0.0131654 0.0839173,-0.0131654 0.0365669,0 0.0694803,0.00566929 0.0985512,0.017189 0.0290669,0.0115157 0.0541181,0.0274252 0.0753268,0.0475354l-0.0219409 0.0356535z"/>
    <path id="_206713704" class="fil2" d="M4.93108 0.942839l0 -0.815075 0.13548 0 0 0.321421c0.0223071,-0.0237677 0.0475354,-0.0427795 0.0756929,-0.0568583 0.0281575,-0.0140787 0.0610669,-0.0210276 0.0987323,-0.0210276 0.0307165,0 0.0588701,0.00621654 0.0842835,0.0188307 0.0254173,0.0126181 0.0473543,0.0310827 0.0658228,0.0552165 0.0184646,0.0241339 0.0327244,0.053937 0.0427835,0.0894055 0.0100551,0.0354724 0.0149921,0.0762441 0.0149921,0.122319 0,0.0420512 -0.00566929,0.0809921 -0.0170039,0.116831 -0.0113346,0.0358346 -0.0274252,0.0669173 -0.0484528,0.0932441 -0.0210236,0.0263268 -0.046437,0.0468071 -0.0762402,0.0616142 -0.0298031,0.014811 -0.0632598,0.0223071 -0.100193,0.0223071 -0.017189,0 -0.0329094,-0.00183071 -0.0471732,-0.00530315 -0.0142598,-0.00347244 -0.0272402,-0.00822835 -0.0389409,-0.0144449 -0.0117008,-0.00621654 -0.0224882,-0.0138937 -0.0325472,-0.0228543 -0.0100551,-0.00895669 -0.0197441,-0.0188307 -0.0288858,-0.0297992l-0.00603543 0.0378465c-0.00219291,0.00950787 -0.00585039,0.0162717 -0.0111496,0.0202913 -0.00530315,0.00402362 -0.0126181,0.00603543 -0.0217598,0.00603543l-0.0894055 0zm0.26328 -0.466228c-0.0281535,0 -0.0521063,0.00585039 -0.0720354,0.0177362 -0.0199291,0.0118858 -0.0385787,0.0287047 -0.0557638,0.0502795l0 0.252311c0.0153583,0.0190157 0.0321772,0.0321772 0.0502795,0.0396732 0.0181024,0.00749606 0.0376654,0.0113386 0.058874,0.0113386 0.0204764,0 0.0389409,-0.00384252 0.0553976,-0.0115197 0.0164528,-0.00767717 0.0305315,-0.0193819 0.0420512,-0.0351024 0.0115197,-0.0157244 0.0202953,-0.0356535 0.0265118,-0.0596063 0.00621654,-0.0239488 0.00932283,-0.0521063 0.00932283,-0.0846496 0,-0.0329134 -0.00255906,-0.0608858 -0.0078622,-0.0837402 -0.00529921,-0.0228543 -0.0129803,-0.0413189 -0.0228543,-0.0555827 -0.00987008,-0.0142598 -0.0217559,-0.0246811 -0.0358346,-0.0312638 -0.0140787,-0.00658268 -0.0301654,-0.00987402 -0.0480866,-0.00987402zm0.484327 -0.0965354l0 0.357626c0,0.0343701 0.00804724,0.0608819 0.0239528,0.0797126 0.0159055,0.0188346 0.0396732,0.0283386 0.0714882,0.0283386 0.0234016,0 0.0453425,-0.00529921 0.0658189,-0.0157205 0.0204803,-0.0104213 0.0398583,-0.024685 0.0581417,-0.0429685l0 -0.406988 0.13548 0 0 0.562764 -0.0828228 0c-0.0175512,0 -0.0290709,-0.00822835 -0.0345551,-0.0246811l-0.00932677 -0.0449803c-0.0117008,0.0117047 -0.0237677,0.0223071 -0.0362008,0.0319961 -0.0124331,0.00969291 -0.0255945,0.0179173 -0.0396732,0.024685 -0.0140787,0.00676378 -0.0292559,0.0120669 -0.0455276,0.0159055 -0.0162717,0.00383858 -0.0338228,0.00585039 -0.0524724,0.00585039 -0.0307165,0 -0.0577756,-0.00530315 -0.0813622,-0.0157244 -0.0235827,-0.0104213 -0.0435118,-0.0250472 -0.0596024,-0.044063 -0.0160906,-0.0190118 -0.0281575,-0.041685 -0.0363858,-0.0678307 -0.00822441,-0.0261457 -0.0124331,-0.0548504 -0.0124331,-0.0862953l0 -0.357626 0.13548 0zm0.694406 -0.00987402c0.0241339,0 0.0468031,0.00237795 0.0680118,0.00731496 0.0212087,0.00493701 0.0405906,0.012252 0.0581417,0.0217559l0.161807 0 0 0.0504646c0,0.00840945 -0.00219291,0.0149921 -0.00657874,0.0197441 -0.00438976,0.00475591 -0.0118858,0.00804724 -0.0224921,0.00987402l-0.0504606 0.00932283c0.00365748,0.00950787 0.00658268,0.0195669 0.00859449,0.0301693 0.00201181,0.0106063 0.0029252,0.0217559 0.0029252,0.0334606 0,0.0277874 -0.00548425,0.0528386 -0.0166378,0.0753268 -0.0111535,0.0224882 -0.0265118,0.041685 -0.0460748,0.0574094 -0.019563,0.0157244 -0.0427835,0.0277913 -0.0696614,0.0363819 -0.026874,0.00859449 -0.0561299,0.0129843 -0.0875748,0.0129843 -0.0212087,0 -0.0418701,-0.00201181 -0.0619843,-0.00603543 -0.0175512,0.0107874 -0.0263268,0.0226732 -0.0263268,0.0360197 0,0.0113346 0.00530315,0.0197441 0.0157244,0.0252283 0.0104213,0.00530315 0.0241339,0.00914173 0.0411378,0.0113386 0.0170039,0.00219291 0.0362008,0.00329134 0.0577756,0.00329134 0.0215748,0 0.0436969,0.000913386 0.0663701,0.00274016 0.0226693,0.00183071 0.0447913,0.00512205 0.0663661,0.00969291 0.0215748,0.00457087 0.0409567,0.0117008 0.0579606,0.0217559 0.0170039,0.00987402 0.0307165,0.0232205 0.0411378,0.0404055 0.0104213,0.0170039 0.0155394,0.0389449 0.0155394,0.0656378 0,0.0248661 -0.0060315,0.0491811 -0.0182835,0.0725866 -0.012248,0.0235827 -0.0299843,0.0444252 -0.0532047,0.0627087 -0.0232205,0.0182835 -0.0517402,0.0330945 -0.0853819,0.044248 -0.0336417,0.0111535 -0.0720394,0.0168189 -0.115185,0.0168189 -0.0427835,0 -0.0799016,-0.00420472 -0.111346,-0.0124331 -0.0314488,-0.00822441 -0.0574094,-0.0191969 -0.0780709,-0.0329094 -0.0206614,-0.0137126 -0.0362008,-0.029437 -0.0464409,-0.0473543 -0.0102362,-0.0179173 -0.0153583,-0.0365669 -0.0153583,-0.0559449 0,-0.0263307 0.00804724,-0.0484528 0.0241339,-0.0663701 0.0160906,-0.0179173 0.0383976,-0.0321772 0.0669173,-0.0427835 -0.0138937,-0.00767717 -0.0250472,-0.0179173 -0.0334567,-0.0307165 -0.00840945,-0.0127992 -0.0126181,-0.029437 -0.0126181,-0.0499134 0,-0.00840945 0.00146457,-0.017185 0.00438976,-0.0261457 0.0029252,-0.00895669 0.00749606,-0.0177323 0.0135315,-0.0265079 0.0060315,-0.00877953 0.0135276,-0.017189 0.0226693,-0.0250512 0.00914173,-0.0078622 0.0199291,-0.0148071 0.0323622,-0.0210236 -0.0285236,-0.0153583 -0.0508268,-0.0358386 -0.0671024,-0.0614331 -0.0162717,-0.0255984 -0.0244961,-0.0555827 -0.0244961,-0.0899528 0,-0.0277913 0.00566535,-0.0530236 0.0168189,-0.0755118 0.0111535,-0.0224882 0.0266929,-0.041685 0.046622,-0.0575945 0.0199291,-0.0159055 0.0435157,-0.0279724 0.0707559,-0.0363819 0.0272441,-0.00840945 0.0568622,-0.0126181 0.0890433,-0.0126181zm0.148642 0.596224c0,-0.0111535 -0.00329134,-0.0202953 -0.00987402,-0.0274252 -0.00657874,-0.00712992 -0.0155394,-0.0126181 -0.026874,-0.0164567 -0.0113346,-0.00401969 -0.0245,-0.00676378 -0.0396772,-0.00877559 -0.0151732,-0.00182677 -0.0312638,-0.00274409 -0.0482677,-0.00274409 -0.0170039,0 -0.0345551,0 -0.0526535,0 -0.0181024,0 -0.0356535,-0.00200787 -0.0524764,-0.0060315 -0.0153583,0.00840945 -0.0276063,0.0182835 -0.0369331,0.0298031 -0.00932283,0.0115157 -0.0140748,0.0248622 -0.0140748,0.0398583 0,0.00987008 0.00255906,0.0190118 0.00749606,0.0276063 0.00493701,0.00859449 0.0127953,0.0160906 0.0235827,0.0223071 0.0107874,0.00621654 0.024685,0.0109685 0.0418701,0.0144409 0.017185,0.00347638 0.0382126,0.00530315 0.0630787,0.00530315 0.0252323,0 0.0469882,-0.00201181 0.0652717,-0.00585039 0.0182835,-0.00402362 0.0334567,-0.00932283 0.0453425,-0.0162717 0.0118858,-0.00694882 0.0204764,-0.0151772 0.0259606,-0.0246811 0.00548819,-0.00950787 0.00822835,-0.0199291 0.00822835,-0.0310827zm-0.148642 -0.318681c0.0168189,0 0.0314449,-0.00237795 0.043878,-0.00694882 0.0124331,-0.00457087 0.0228543,-0.0107874 0.0310827,-0.0188307 0.00822835,-0.00804331 0.0144449,-0.0177362 0.0186496,-0.0290709 0.00420472,-0.0113346 0.00621654,-0.0237677 0.00621654,-0.0372992 0,-0.0277874 -0.00822835,-0.0499134 -0.0248661,-0.066185 -0.0166378,-0.0162717 -0.041685,-0.024315 -0.0749606,-0.024315 -0.0332756,0 -0.0581417,0.00804331 -0.0747795,0.024315 -0.0166378,0.0162717 -0.0250512,0.0383976 -0.0250512,0.066185 0,0.0131654 0.00219685,0.0254173 0.00640157,0.036752 0.00420472,0.0113346 0.0104213,0.0210236 0.0186496,0.029252 0.00822441,0.00822835 0.0186496,0.014626 0.0312638,0.0191969 0.0126142,0.00457087 0.0270591,0.00694882 0.0435157,0.00694882z"/>
   </g>
   <g>
    <path id="_248252592" class="fil3" d="M2.10921 1.38365c0,0.00588189 -0.00144882,0.0101378 -0.00435433,0.0126142 -0.00290551,0.00247638 -0.00619291,0.0037126 -0.00993701,0.0037126l-0.132181 0c0,0.011374 0.00114961,0.0215118 0.00336614,0.0306417 0.00221654,0.00905512 0.00596457,0.0167913 0.0112362,0.0232913 0.00520079,0.0065 0.0120039,0.0115276 0.0203346,0.0150118 0.00840945,0.00348031 0.0185787,0.00518504 0.0307323,0.00518504 0.00955906,0 0.0180472,-0.000775591 0.0255354,-0.00240157 0.00741339,-0.00154724 0.0139134,-0.00332677 0.0193425,-0.00533858 0.00542913,-0.00193307 0.00993701,-0.0037126 0.0134528,-0.00525984 0.00351575,-0.00162598 0.00611811,-0.00240157 0.00794882,-0.00240157 0.000996063,0 0.00198819,0.000232283 0.00275591,0.000775591 0.000838583,0.000543307 0.00144882,0.00131496 0.00190945,0.00239764 0.000456693,0.00108268 0.000838583,0.00255512 0.00107087,0.00441339 0.000153543,0.00185433 0.000307087,0.00417717 0.000307087,0.00688583 0,0.00201181 -7.87402e-005,0.0037126 -0.000232283,0.0051063 -0.000149606,0.0014685 -0.000307087,0.00270866 -0.000535433,0.00387008 -0.000228346,0.00115748 -0.000610236,0.00216535 -0.00114173,0.00309449 -0.00053937,0.000850394 -0.00122835,0.00177953 -0.00198819,0.00255118 -0.000846457,0.000854331 -0.00329134,0.00224409 -0.00734252,0.00410236 -0.00397244,0.00185827 -0.00924803,0.0037126 -0.0156693,0.00557087 -0.00642126,0.00177953 -0.0138386,0.00340551 -0.022248,0.00487402 -0.00840945,0.0013937 -0.0174291,0.00216929 -0.0269843,0.00216929 -0.0165906,0 -0.0311181,-0.00240157 -0.0435748,-0.00704331 -0.0124646,-0.00472047 -0.0229331,-0.011685 -0.0315,-0.0208898 -0.00848031,-0.00920866 -0.0149055,-0.0207402 -0.0192638,-0.0346654 -0.00427953,-0.0139291 -0.00649606,-0.0301024 -0.00649606,-0.0485197 0,-0.0174843 0.00229528,-0.0332717 0.00672441,-0.0472756 0.00451181,-0.0139291 0.0109331,-0.0258465 0.0194213,-0.0355945 0.00840551,-0.00974803 0.0185748,-0.0171772 0.0305787,-0.0224409 0.0119252,-0.0051811 0.0253031,-0.00781496 0.0400591,-0.00781496 0.0158228,0 0.0292756,0.00255512 0.0404409,0.00774016 0.0110827,0.0051063 0.0202559,0.0120709 0.0274449,0.0207362 0.0071811,0.00866535 0.0123819,0.0188819 0.0157441,0.030563 0.00336614,0.0117638 0.00504331,0.0242205 0.00504331,0.0375315l0 0.00680709zm-0.0371496 -0.011063c0.00046063,-0.0196575 -0.00382283,-0.0351299 -0.0129213,-0.0462756 -0.00901969,-0.0112165 -0.0223937,-0.0167874 -0.0401339,-0.0167874 -0.00917323,0 -0.017126,0.00177953 -0.0240039,0.00525984 -0.00687795,0.00340551 -0.0126102,0.00804724 -0.0172008,0.0137717 -0.00466535,0.00572835 -0.00825591,0.0124606 -0.0107795,0.0200433 -0.00252362,0.00766142 -0.00397638,0.0156299 -0.00428346,0.0239882l0.109323 0zm0.266953 0.121945c0,0.00116142 -0.00030315,0.00224409 -0.00092126,0.00301969 -0.000610236,0.000850394 -0.00152756,0.00154724 -0.00290157,0.00216535 -0.00137402,0.00061811 -0.0032126,0.00108268 -0.00557874,0.0013937 -0.00244882,0.000307087 -0.00543307,0.000464567 -0.00894882,0.000464567 -0.00374409,0 -0.00680315,-0.00015748 -0.00924803,-0.000464567 -0.00237008,-0.000311024 -0.00420472,-0.000775591 -0.00558268,-0.0013937 -0.00129921,-0.00061811 -0.00229134,-0.00131496 -0.00290157,-0.00216535 -0.000614173,-0.000775591 -0.000917323,-0.00185827 -0.000917323,-0.00301969l0 -0.119472c0,-0.0116811 -0.00084252,-0.0210433 -0.00267717,-0.0280866 -0.00175591,-0.00711811 -0.00435433,-0.0132323 -0.00779921,-0.0184173 -0.00343701,-0.0051063 -0.00787008,-0.00905118 -0.013374,-0.0117598 -0.00542913,-0.00270866 -0.0116969,-0.00410236 -0.0188858,-0.00410236 -0.00924803,0 -0.0185,0.00332677 -0.027748,0.00998425 -0.00932677,0.00665354 -0.0190354,0.0164016 -0.029126,0.029248l0 0.142606c0,0.00116142 -0.000307087,0.00224409 -0.000917323,0.00301969 -0.000614173,0.000850394 -0.0016063,0.00154724 -0.00290551,0.00216535 -0.00137795,0.00061811 -0.0032126,0.00108268 -0.00558268,0.0013937 -0.00244488,0.000307087 -0.00550394,0.000464567 -0.00924803,0.000464567 -0.00351575,0 -0.0065,-0.00015748 -0.00894488,-0.000464567 -0.00237008,-0.000311024 -0.00427953,-0.000775591 -0.00565748,-0.0013937 -0.00144882,-0.00061811 -0.00244488,-0.00131496 -0.00290551,-0.00216535 -0.000531496,-0.000775591 -0.000838583,-0.00185827 -0.000838583,-0.00301969l0 -0.204043c0,-0.00124016 0.000228346,-0.00224409 0.000685039,-0.00309843 0.00046063,-0.000771654 0.00137795,-0.00154724 0.00267717,-0.00224016 0.00137795,-0.00069685 0.00305906,-0.00108661 0.00519685,-0.0013189 0.00206693,-0.000232283 0.00481496,-0.000385827 0.00825984,-0.000385827 0.00328346,0 0.00603937,0.000153543 0.00817717,0.000385827 0.00214173,0.000232283 0.00382283,0.000622047 0.00504724,0.0013189 0.00114567,0.000692913 0.00206299,0.0014685 0.00259843,0.00224016 0.000456693,0.000854331 0.00076378,0.00185827 0.00076378,0.00309843l0 0.0270039c0.011315,-0.0128465 0.022626,-0.0222835 0.0339409,-0.0282441 0.0112402,-0.00595669 0.0226299,-0.00897638 0.0340984,-0.00897638 0.0134528,0 0.0247677,0.00232283 0.0339409,0.00696457 0.00917323,0.00456693 0.0166654,0.0107559 0.0223228,0.0184173 0.00565748,0.00773622 0.00970866,0.0167913 0.0121535,0.0270827 0.00252362,0.0103661 0.00374803,0.0228268 0.00374803,0.0372953l0 0.1245zm0.212291 -0.0311063c0,0.00263386 -7.87402e-005,0.00479921 -0.000228346,0.00673228 -0.000153543,0.00185827 -0.00046063,0.00348425 -0.000767717,0.00472047 -0.00038189,0.00131496 -0.000838583,0.00247638 -0.00137402,0.00340551 -0.000535433,0.00100394 -0.0016811,0.00247638 -0.00359449,0.00433465 -0.00183465,0.00185433 -0.00504331,0.00425591 -0.00947638,0.00703937 -0.00451181,0.0027874 -0.00955906,0.00526378 -0.0151378,0.00742913 -0.00557874,0.00224409 -0.0116969,0.00402362 -0.0182717,0.00533858 -0.0065748,0.0013937 -0.013378,0.00209055 -0.0204134,0.00209055 -0.0144449,0 -0.0272874,-0.00247638 -0.0384528,-0.00727559 -0.0112362,-0.00487402 -0.0205591,-0.0119173 -0.0281299,-0.0212008 -0.00756693,-0.0092874 -0.0133031,-0.0207362 -0.0172756,-0.0342008 -0.00389764,-0.0135433 -0.00588583,-0.0291732 -0.00588583,-0.046815 0,-0.0201181 0.00236614,-0.037374 0.00725984,-0.0518425 0.00481496,-0.0143937 0.0114685,-0.0262323 0.0199528,-0.035437 0.00840945,-0.00920866 0.0183465,-0.0160984 0.0297402,-0.0205079 0.0114646,-0.00448819 0.0237717,-0.00673228 0.0370748,-0.00673228 0.00642126,0 0.0126929,0.000622047 0.0187283,0.00185827 0.00603937,0.00116142 0.011622,0.0027874 0.0166654,0.00472047 0.00504724,0.00193307 0.00963386,0.00425591 0.0135354,0.00680709 0.00397244,0.00255512 0.00687402,0.00472047 0.0086378,0.00657874 0.00183071,0.00177953 0.00305512,0.00324803 0.00366929,0.00433465 0.000685039,0.00100394 0.00129921,0.00224409 0.00167717,0.0037126 0.00046063,0.0014685 0.000767717,0.00301969 0.00092126,0.00487402 0.000149606,0.00177953 0.000228346,0.00410236 0.000228346,0.00681102 0,0.00587795 -0.000688976,0.00998031 -0.00198819,0.0123031 -0.00137795,0.00239764 -0.00298031,0.00355906 -0.0049685,0.00355906 -0.00221654,0 -0.0048189,-0.00124016 -0.00772047,-0.00371654 -0.00290551,-0.00255118 -0.0065748,-0.00525984 -0.0110827,-0.00827953 -0.00443701,-0.00301575 -0.00986614,-0.00580315 -0.0162087,-0.00827559 -0.00634646,-0.00255512 -0.0138386,-0.00379528 -0.0225551,-0.00379528 -0.0177362,0 -0.0313425,0.00696457 -0.0408189,0.0207402 -0.00948031,0.0138504 -0.0142205,0.0338898 -0.0142205,0.0602008 0,0.0131535 0.00122441,0.0246811 0.00366929,0.0345866 0.00244882,0.00990551 0.00611417,0.018185 0.0108583,0.0248386 0.00481496,0.00665354 0.010622,0.0116063 0.0175787,0.0148543 0.00695669,0.00325197 0.0149055,0.00487795 0.0238543,0.00487795 0.00848425,0 0.0159764,-0.0013937 0.0223976,-0.00410236 0.00642126,-0.00270866 0.012,-0.00572441 0.0166654,-0.00897638 0.00474016,-0.00324803 0.00871654,-0.00618898 0.0119252,-0.0088189 0.0032126,-0.00263386 0.00565748,-0.00394882 0.00749213,-0.00394882 0.000996063,0 0.00191339,0.000311024 0.00267323,0.000850394 0.000767717,0.000622047 0.00137795,0.00162598 0.00191339,0.00309843 0.000535433,0.0014685 0.00084252,0.00324803 0.00107087,0.00541339 0.000228346,0.00224409 0.00038189,0.00479921 0.00038189,0.00781496zm0.232626 -0.0731969c0,0.0166339 -0.00214173,0.0319567 -0.00649606,0.0458819 -0.00428346,0.0140079 -0.0107795,0.0260787 -0.0193425,0.0362165 -0.00856299,0.0101339 -0.0193425,0.0180276 -0.0322598,0.0236772 -0.0129213,0.00564567 -0.0279055,0.00851181 -0.044874,0.00851181 -0.0165906,0 -0.0310394,-0.00255512 -0.0433465,-0.00750787 -0.0123071,-0.00495276 -0.0226299,-0.0122244 -0.030811,-0.0217441 -0.00817717,-0.00951575 -0.0142913,-0.021122 -0.0183465,-0.0347402 -0.00404724,-0.0135433 -0.00603543,-0.0290157 -0.00603543,-0.0461969 0,-0.0166339 0.0021378,-0.0319567 0.00634252,-0.0458819 0.00428346,-0.0140079 0.0107008,-0.0260787 0.0192677,-0.0362165 0.00855906,-0.0101339 0.0193386,-0.0179488 0.0321811,-0.0235197 0.0128425,-0.00564961 0.0278268,-0.00843701 0.0449528,-0.00843701 0.0165906,0 0.0310354,0.00247638 0.0433425,0.00750787 0.012311,0.00495276 0.0226299,0.0122244 0.030811,0.0217441 0.00825591,0.00951575 0.0143701,0.021122 0.0184961,0.0346654 0.00413386,0.0136181 0.00611811,0.028937 0.00611811,0.0460394zm-0.0389094 0.00247638c0,-0.0109882 -0.00107087,-0.021437 -0.00305906,-0.0312638 -0.00198819,-0.00982677 -0.00535039,-0.0184134 -0.00993701,-0.0258425 -0.00466535,-0.00742913 -0.0109331,-0.0132323 -0.0188071,-0.0175669 -0.00794882,-0.00433071 -0.017815,-0.00649606 -0.0295827,-0.00649606 -0.0109331,0 -0.0202638,0.00201181 -0.0281339,0.00595669 -0.00779921,0.00387008 -0.0142953,0.00944094 -0.0193425,0.0166378 -0.00512205,0.00719291 -0.00886614,0.0157047 -0.011311,0.0255315 -0.00244882,0.00982677 -0.00367323,0.0205079 -0.00367323,0.032189 0,0.0111457 0.000996063,0.0216693 0.00298425,0.0314961 0.00198819,0.00982677 0.00535039,0.0184134 0.0100866,0.025689 0.00466535,0.00735039 0.0110079,0.0131535 0.0188858,0.0174882 0.00794882,0.00433071 0.017811,0.00642126 0.0295866,0.00642126 0.0107756,0 0.0201024,-0.00193701 0.0279764,-0.00588189 0.00794882,-0.00394488 0.0144488,-0.00944094 0.0194961,-0.0165591 0.00512205,-0.00703937 0.00886614,-0.0155512 0.0112362,-0.025378 0.00237008,-0.00982677 0.00359449,-0.0205827 0.00359449,-0.0324213zm0.266031 0.101827c0,0.00116142 -0.000228346,0.00224409 -0.00076378,0.00317323 -0.000535433,0.000850394 -0.00145276,0.00162598 -0.00267323,0.00216535 -0.00129921,0.000464567 -0.00298425,0.000929134 -0.00504724,0.00124016 -0.00214173,0.000307087 -0.00466142,0.000464567 -0.00764567,0.000464567 -0.00312992,0 -0.00573228,-0.00015748 -0.00779528,-0.000464567 -0.00214173,-0.000311024 -0.00382283,-0.000775591 -0.00520079,-0.00124016 -0.00129921,-0.00053937 -0.00229134,-0.00131496 -0.00290551,-0.00216535 -0.000610236,-0.000929134 -0.000913386,-0.00201181 -0.000913386,-0.00317323l0 -0.0270039c-0.0105512,0.011685 -0.0215591,0.0207362 -0.0330276,0.0272362 -0.0113898,0.0065 -0.0239291,0.00975197 -0.0374567,0.00975197 -0.0148307,0 -0.0274449,-0.00294094 -0.0379213,-0.00874409 -0.0103976,-0.00580315 -0.018878,-0.0136969 -0.025378,-0.0236024 -0.0065,-0.00990157 -0.0112402,-0.0215118 -0.0142205,-0.0348976 -0.00298031,-0.0133858 -0.00450787,-0.0274685 -0.00450787,-0.042248 0,-0.017563 0.00190945,-0.0334252 0.00557874,-0.0475079 0.00374803,-0.0141614 0.00932677,-0.0262323 0.0165866,-0.0361378 0.00733858,-0.00998031 0.016437,-0.0176417 0.0272165,-0.0230591 0.0108543,-0.00533858 0.0233189,-0.00804724 0.0375354,-0.00804724 0.0117717,0 0.0225512,0.00263386 0.0323386,0.00781496 0.00978346,0.00526378 0.0194921,0.0129252 0.0290512,0.0230591l0 -0.118618c0,-0.00100787 0.000224409,-0.00201181 0.00076378,-0.00301969 0.000535433,-0.00100394 0.00152756,-0.00177953 0.00305512,-0.00224409 0.00145669,-0.00053937 0.00336614,-0.00100394 0.00566142,-0.0013937 0.0022874,-0.000385827 0.00527165,-0.00053937 0.0088622,-0.00053937 0.00375197,0 0.00680709,0.000153543 0.00917717,0.00053937 0.00236614,0.000389764 0.00428346,0.000854331 0.00558268,0.0013937 0.00137008,0.000464567 0.00236614,0.00124016 0.00305512,0.00224409 0.000688976,0.00100787 0.000992126,0.00201181 0.000992126,0.00301969l0 0.302004zm-0.0371496 -0.143535c-0.0100157,-0.0125354 -0.0197244,-0.0220512 -0.0290512,-0.0286299 -0.00932677,-0.0065748 -0.0190354,-0.00990551 -0.0292047,-0.00990551 -0.00940157,0 -0.0174291,0.00232283 -0.0239291,0.00681102 -0.0065748,0.00456693 -0.0119252,0.0105236 -0.0160512,0.0179528 -0.00412992,0.00735039 -0.00711024,0.0157835 -0.00894488,0.0251457 -0.00191339,0.0093622 -0.00283071,0.0188819 -0.00283071,0.0285551 0,0.0102913 0.000767717,0.0203504 0.00237402,0.0301772 0.00152756,0.00974803 0.00427953,0.0184921 0.0081811,0.0261535 0.0038937,0.00765748 0.00901969,0.0137717 0.0154409,0.0183386 0.00642126,0.00464173 0.0145236,0.00696457 0.0241535,0.00696457 0.00497244,0 0.0097126,-0.00069685 0.0142992,-0.00209055 0.00450787,-0.00131496 0.00916929,-0.0036378 0.0139882,-0.00681102 0.00474016,-0.00317323 0.00978346,-0.00727165 0.0149843,-0.0123031 0.00519685,-0.0051063 0.0107795,-0.0112953 0.0165906,-0.0187244l0 -0.0816339zm0.142417 0.143535c0,0.00116142 -0.000307087,0.00224409 -0.000917323,0.00301969 -0.000614173,0.000850394 -0.0016063,0.00154724 -0.00290551,0.00216535 -0.00137795,0.00061811 -0.0032126,0.00108268 -0.00558268,0.0013937 -0.00244488,0.000307087 -0.00550394,0.000464567 -0.00924803,0.000464567 -0.00351575,0 -0.0065,-0.00015748 -0.00894488,-0.000464567 -0.00237008,-0.000311024 -0.00427953,-0.000775591 -0.00565748,-0.0013937 -0.00144882,-0.00061811 -0.00244488,-0.00131496 -0.00290551,-0.00216535 -0.000531496,-0.000775591 -0.000838583,-0.00185827 -0.000838583,-0.00301969l0 -0.204043c0,-0.00108268 0.000307087,-0.00201181 0.000838583,-0.00294094 0.00046063,-0.000929134 0.00145669,-0.00170472 0.00290551,-0.00224409 0.00137795,-0.00061811 0.0032874,-0.00108268 0.00565748,-0.0013937 0.00244488,-0.000311024 0.00542913,-0.000464567 0.00894488,-0.000464567 0.00374409,0 0.00680315,0.000153543 0.00924803,0.000464567 0.00237008,0.000311024 0.00420472,0.000775591 0.00558268,0.0013937 0.00129921,0.00053937 0.00229134,0.00131496 0.00290551,0.00224409 0.000610236,0.000929134 0.000917323,0.00185827 0.000917323,0.00294094l0 0.204043zm0.00420079 -0.272988c0,0.00882283 -0.00160236,0.0147795 -0.00488583,0.0179528 -0.0032874,0.00316929 -0.00933071,0.00472047 -0.0181181,0.00472047 -0.00871654,0 -0.0146024,-0.00155118 -0.017815,-0.00464567 -0.00320866,-0.00309449 -0.00481496,-0.00889764 -0.00481496,-0.017563 0,-0.00874409 0.0016063,-0.0147008 0.00488976,-0.017874 0.0032874,-0.00317323 0.00933071,-0.00479921 0.0181181,-0.00479921 0.0087126,0 0.0146024,0.00154724 0.017811,0.00464173 0.0032126,0.00309843 0.00481496,0.00897638 0.00481496,0.0175669zm0.237677 0.272988c0,0.00116142 -0.00030315,0.00224409 -0.000917323,0.00301969 -0.000610236,0.000850394 -0.00152756,0.00154724 -0.00290157,0.00216535 -0.00137795,0.00061811 -0.0032126,0.00108268 -0.00558268,0.0013937 -0.00244488,0.000307087 -0.00542913,0.000464567 -0.00894488,0.000464567 -0.00374409,0 -0.00680315,-0.00015748 -0.00924803,-0.000464567 -0.00237008,-0.000311024 -0.00420472,-0.000775591 -0.00558268,-0.0013937 -0.00129921,-0.00061811 -0.00229134,-0.00131496 -0.00290157,-0.00216535 -0.000614173,-0.000775591 -0.000917323,-0.00185827 -0.000917323,-0.00301969l0 -0.119472c0,-0.0116811 -0.000846457,-0.0210433 -0.00267717,-0.0280866 -0.00175984,-0.00711811 -0.00435827,-0.0132323 -0.00779921,-0.0184173 -0.00343701,-0.0051063 -0.00787402,-0.00905118 -0.013378,-0.0117598 -0.00542913,-0.00270866 -0.0116929,-0.00410236 -0.0188819,-0.00410236 -0.00925197,0 -0.0185,0.00332677 -0.027748,0.00998425 -0.00932677,0.00665354 -0.0190354,0.0164016 -0.029126,0.029248l0 0.142606c0,0.00116142 -0.000307087,0.00224409 -0.000917323,0.00301969 -0.000614173,0.000850394 -0.0016063,0.00154724 -0.00290551,0.00216535 -0.00137795,0.00061811 -0.0032126,0.00108268 -0.00558268,0.0013937 -0.00244882,0.000307087 -0.00550394,0.000464567 -0.00925197,0.000464567 -0.00351575,0 -0.00649606,-0.00015748 -0.00894488,-0.000464567 -0.00237008,-0.000311024 -0.00427953,-0.000775591 -0.00565354,-0.0013937 -0.00145276,-0.00061811 -0.00244882,-0.00131496 -0.00290551,-0.00216535 -0.000535433,-0.000775591 -0.00084252,-0.00185827 -0.00084252,-0.00301969l0 -0.204043c0,-0.00124016 0.000232283,-0.00224409 0.000688976,-0.00309843 0.00046063,-0.000771654 0.00137795,-0.00154724 0.00267717,-0.00224016 0.00137795,-0.00069685 0.00305512,-0.00108661 0.00519685,-0.0013189 0.00206299,-0.000232283 0.00481496,-0.000385827 0.00825591,-0.000385827 0.0032874,0 0.00604331,0.000153543 0.0081811,0.000385827 0.0021378,0.000232283 0.00382283,0.000622047 0.00504331,0.0013189 0.00114961,0.000692913 0.00206693,0.0014685 0.00259843,0.00224016 0.00046063,0.000854331 0.000767717,0.00185827 0.000767717,0.00309843l0 0.0270039c0.011315,-0.0128465 0.022626,-0.0222835 0.0339409,-0.0282441 0.0112362,-0.00595669 0.0226299,-0.00897638 0.0340945,-0.00897638 0.0134567,0 0.0247717,0.00232283 0.0339409,0.00696457 0.00917717,0.00456693 0.0166693,0.0107559 0.0223228,0.0184173 0.00566142,0.00773622 0.00970866,0.0167913 0.0121575,0.0270827 0.00252362,0.0103661 0.00374409,0.0228268 0.00374409,0.0372953l0 0.1245zm0.235764 -0.19476c0,0.00533858 -0.000688976,0.00912992 -0.00206693,0.0114528 -0.00144882,0.00232283 -0.00328346,0.00355906 -0.00550394,0.00355906l-0.0288937 0c0.00519685,0.00541732 0.00886614,0.011374 0.0109291,0.0179528 0.00214173,0.0065748 0.00313386,0.0134646 0.00313386,0.0205827 0,0.0117598 -0.00183465,0.0222047 -0.00557874,0.0312598 -0.00374803,0.00905118 -0.00902362,0.0167126 -0.0159764,0.0229803 -0.00695669,0.00626772 -0.0152126,0.0110669 -0.0247677,0.0143937 -0.00955906,0.00332677 -0.020185,0.00502756 -0.0318031,0.00502756 -0.0081811,0 -0.0160551,-0.00108268 -0.0233937,-0.00332677 -0.00741732,-0.00216535 -0.0131496,-0.00495276 -0.017126,-0.00827953 -0.00267323,0.00270866 -0.0048937,0.00580315 -0.00664961,0.0092874 -0.0016811,0.00348031 -0.00251969,0.00750394 -0.00251969,0.0120709 0,0.00525984 0.00236614,0.00966929 0.00725984,0.0131535 0.00481496,0.00348031 0.011315,0.00533858 0.0193386,0.00564961l0.0526732 0.00224409c0.0100157,0.000307087 0.019189,0.00170079 0.0275197,0.00417717 0.00833858,0.00255512 0.0155984,0.00603543 0.0217126,0.0106772 0.00611417,0.00464173 0.0109331,0.0102913 0.014374,0.0170236 0.00343701,0.00673228 0.00512205,0.0145472 0.00512205,0.0234449 0,0.0093622 -0.00191339,0.0182638 -0.00581102,0.0267756 -0.00389764,0.00843307 -0.0098622,0.0158622 -0.017811,0.0222835 -0.00802756,0.00642126 -0.0181969,0.0115276 -0.0305787,0.0152441 -0.0123858,0.00363386 -0.0269882,0.00549213 -0.0438819,0.00549213 -0.0162835,0 -0.030122,-0.0013937 -0.0415866,-0.00417717 -0.0113937,-0.0027874 -0.0207953,-0.00657874 -0.0280551,-0.0114528 -0.00734252,-0.00479921 -0.0126142,-0.0106024 -0.0159016,-0.0173307 -0.0032874,-0.00673228 -0.00497244,-0.0140079 -0.00497244,-0.0219016 0,-0.00494882 0.000614173,-0.00982677 0.00183858,-0.0144685 0.00114567,-0.00472047 0.00298031,-0.00912992 0.00542913,-0.0133858 0.00251969,-0.00425591 0.0055748,-0.00827953 0.00924803,-0.0121496 0.00359055,-0.00386614 0.00787402,-0.00765748 0.0126142,-0.0114488 -0.00733858,-0.00379528 -0.0126929,-0.00851181 -0.0162087,-0.0142402 -0.00351575,-0.00572441 -0.00527165,-0.0119921 -0.00527165,-0.0186457 0,-0.00920866 0.00183071,-0.0174134 0.00557874,-0.024685 0.00374803,-0.00727559 0.00840551,-0.0137717 0.0139134,-0.0195 -0.00466142,-0.00557087 -0.00833465,-0.0119173 -0.0110118,-0.018878 -0.00267323,-0.00704331 -0.00404724,-0.0155551 -0.00404724,-0.0255354 0,-0.0116063 0.00198819,-0.0220551 0.00588583,-0.0312598 0.00382283,-0.00920866 0.00924803,-0.0170236 0.0161299,-0.0233701 0.00680315,-0.00634646 0.0150591,-0.0112205 0.024689,-0.014626 0.0096378,-0.00340157 0.020185,-0.0051063 0.0315,-0.0051063 0.00611417,0 0.0118465,0.000311024 0.017122,0.00100787 0.00527559,0.00069685 0.0102441,0.00162205 0.0149094,0.0028622l0.0609252 0c0.00252756,0 0.00443701,0.00123622 0.00565748,0.0037126 0.00130315,0.00247638 0.00191339,0.00634646 0.00191339,0.0114528zm-0.0577165 0.0537008c0,-0.0138504 -0.00382677,-0.024685 -0.011315,-0.0325 -0.00757087,-0.00781496 -0.0182717,-0.0116811 -0.032185,-0.0116811 -0.00718898,0 -0.0133819,0.00123622 -0.0186535,0.00363386 -0.00535039,0.00240157 -0.00970866,0.00572835 -0.0132244,0.00998425 -0.00351575,0.00425591 -0.00611417,0.00912992 -0.00787402,0.014622 -0.00168504,0.00549606 -0.00259843,0.0112992 -0.00259843,0.0173346 0,0.0134646 0.0038189,0.024063 0.011311,0.0317244 0.00757087,0.00773622 0.0181181,0.0116063 0.0317283,0.0116063 0.00733858,0 0.013685,-0.00116142 0.0190354,-0.00355906 0.00535039,-0.00232283 0.00978346,-0.00557087 0.0132992,-0.00974803 0.00351575,-0.00410236 0.00611811,-0.00890157 0.00787795,-0.0143937 0.00167717,-0.00541732 0.00259843,-0.0110669 0.00259843,-0.0170236zm0.0185748 0.161642c0,-0.00874409 -0.00359449,-0.0154764 -0.010626,-0.0202717 -0.00711024,-0.00472047 -0.0167402,-0.00727559 -0.0288228,-0.00758268l-0.0522087 -0.00177953c-0.00474409,0.0037126 -0.00864173,0.00735039 -0.0116969,0.0107559 -0.00305906,0.00340157 -0.00550394,0.00665354 -0.00734252,0.00974803 -0.00175591,0.00309449 -0.00298031,0.00611417 -0.00366535,0.00912992 -0.000688976,0.00301969 -0.000996063,0.00611417 -0.000996063,0.0092874 0,0.00982677 0.0048937,0.0173307 0.014752,0.0223622 0.00986614,0.00502756 0.023622,0.00758268 0.0412087,0.00758268 0.0112362,0 0.020563,-0.00108268 0.0281299,-0.00325197 0.00756693,-0.00224409 0.0136102,-0.0051063 0.0182717,-0.00874409 0.00458661,-0.00363386 0.00795276,-0.00781496 0.00994094,-0.0124567 0.00198425,-0.00472047 0.00305512,-0.00959449 0.00305512,-0.0147795zm0.282091 -0.0149331l-0.0268307 0.0750551c-0.00092126,0.00240157 -0.0032126,0.00425591 -0.00680315,0.00557087 -0.00367323,0.00124016 -0.00925197,0.00185827 -0.016748,0.00185827 -0.00389764,0 -0.0070315,-0.000153543 -0.00940157,-0.00053937 -0.00236614,-0.000389764 -0.00420472,-0.00100787 -0.0055,-0.00193701 -0.00122835,-0.000929134 -0.00191339,-0.00208661 -0.00206693,-0.0036378 -0.000153543,-0.0014685 0.000228346,-0.00332677 0.00107087,-0.00541339l0.0278268 -0.0709567c-0.00137402,-0.00061811 -0.00267323,-0.00162598 -0.00382283,-0.00294094 -0.00122441,-0.0013937 -0.00206299,-0.00278346 -0.00252362,-0.00433071l-0.0718622 -0.194917c-0.00122047,-0.00317323 -0.00175591,-0.00572441 -0.00175591,-0.00750394 0,-0.00177953 0.000535433,-0.00325197 0.00175591,-0.00433465 0.00122835,-0.00100394 0.0031378,-0.00177953 0.00581102,-0.00209055 0.00267717,-0.000385827 0.00627165,-0.00061811 0.0107795,-0.00061811 0.00443307,0 0.00795276,0.000153543 0.0105512,0.000385827 0.00252362,0.000232283 0.00451181,0.000622047 0.00603937,0.00124016 0.00145276,0.00061811 0.00252362,0.0014685 0.0032126,0.00255118 0.000688976,0.00116142 0.00137795,0.00270866 0.0021378,0.00464567l0.0575669 0.163732 0.000685039 0 0.0555 -0.164583c0.00092126,-0.00286614 0.00198819,-0.00472047 0.0032874,-0.0055748 0.00122441,-0.000850394 0.0031378,-0.0014685 0.00566142,-0.00177953 0.00259843,-0.000385827 0.00619291,-0.00061811 0.0110079,-0.00061811 0.00420472,0 0.00764173,0.000232283 0.0103189,0.00061811 0.00267323,0.000311024 0.00466142,0.00108661 0.00588976,0.00209055 0.00129921,0.00108268 0.00190945,0.00255512 0.00190945,0.00433465 0,0.00177953 -0.00046063,0.00409843 -0.00129921,0.00680709l-0.0723976 0.202886zm0.297913 -0.109953c0,0.0166339 -0.00214173,0.0319567 -0.0065,0.0458819 -0.00428346,0.0140079 -0.0107756,0.0260787 -0.0193386,0.0362165 -0.00856299,0.0101339 -0.0193425,0.0180276 -0.0322598,0.0236772 -0.0129213,0.00564567 -0.0279055,0.00851181 -0.044874,0.00851181 -0.0165906,0 -0.0310394,-0.00255512 -0.0433465,-0.00750787 -0.0123071,-0.00495276 -0.0226299,-0.0122244 -0.030811,-0.0217441 -0.0081811,-0.00951575 -0.0142953,-0.021122 -0.0183465,-0.0347402 -0.00405118,-0.0135433 -0.00603937,-0.0290157 -0.00603937,-0.0461969 0,-0.0166339 0.00214173,-0.0319567 0.00634646,-0.0458819 0.00428346,-0.0140079 0.0107008,-0.0260787 0.0192638,-0.0362165 0.00856299,-0.0101339 0.0193386,-0.0179488 0.032185,-0.0235197 0.0128425,-0.00564961 0.0278268,-0.00843701 0.0449528,-0.00843701 0.0165866,0 0.0310354,0.00247638 0.0433425,0.00750787 0.0123071,0.00495276 0.0226299,0.0122244 0.0308071,0.0217441 0.00825984,0.00951575 0.014374,0.021122 0.0185,0.0346654 0.00412992,0.0136181 0.00611811,0.028937 0.00611811,0.0460394zm-0.0389134 0.00247638c0,-0.0109882 -0.00106693,-0.021437 -0.00305512,-0.0312638 -0.00198819,-0.00982677 -0.00535433,-0.0184134 -0.00993701,-0.0258425 -0.00466535,-0.00742913 -0.010937,-0.0132323 -0.0188071,-0.0175669 -0.00795276,-0.00433071 -0.017815,-0.00649606 -0.0295866,-0.00649606 -0.0109331,0 -0.0202598,0.00201181 -0.0281339,0.00595669 -0.00779921,0.00387008 -0.0142913,0.00944094 -0.0193425,0.0166378 -0.00511811,0.00719291 -0.0088622,0.0157047 -0.011311,0.0255315 -0.00244488,0.00982677 -0.00366929,0.0205079 -0.00366929,0.032189 0,0.0111457 0.000992126,0.0216693 0.00298031,0.0314961 0.00198819,0.00982677 0.00535433,0.0184134 0.0100906,0.025689 0.00466535,0.00735039 0.0110079,0.0131535 0.0188858,0.0174882 0.00794882,0.00433071 0.017811,0.00642126 0.0295827,0.00642126 0.0107795,0 0.0201063,-0.00193701 0.0279803,-0.00588189 0.00794882,-0.00394488 0.0144488,-0.00944094 0.0194921,-0.0165591 0.00512598,-0.00703937 0.00887008,-0.0155512 0.0112402,-0.025378 0.00236614,-0.00982677 0.00359055,-0.0205827 0.00359055,-0.0324213zm0.266035 0.101827c0,0.00116142 -0.000232283,0.00224409 -0.00076378,0.00301969 -0.000535433,0.000850394 -0.00145669,0.00154724 -0.00282677,0.00216535 -0.00129921,0.00061811 -0.00306299,0.00108268 -0.00527559,0.0013937 -0.00214173,0.000307087 -0.0048189,0.000464567 -0.00795276,0.000464567 -0.00344094,0 -0.00618898,-0.00015748 -0.00840551,-0.000464567 -0.00214567,-0.000311024 -0.00382677,-0.000775591 -0.00512205,-0.0013937 -0.00129921,-0.00061811 -0.00214567,-0.00131496 -0.00259843,-0.00216535 -0.000385827,-0.000775591 -0.00061811,-0.00185827 -0.00061811,-0.00301969l0 -0.0270039c-0.0115394,0.0128465 -0.0228543,0.0222087 -0.0340906,0.0280866 -0.0111654,0.00596063 -0.0225512,0.00890157 -0.0340197,0.00890157 -0.0134567,0 -0.0247677,-0.00232283 -0.0339449,-0.00681102 -0.00917323,-0.00456693 -0.0165906,-0.0106772 -0.0222441,-0.0184921 -0.00573228,-0.00781496 -0.0097874,-0.0168701 -0.0122323,-0.0272362 -0.00244882,-0.0102913 -0.00366929,-0.0229055 -0.00366929,-0.037685l0 -0.123803c0,-0.00124016 0.000228346,-0.00224409 0.00076378,-0.00309843 0.000535433,-0.000771654 0.00152756,-0.00154724 0.00298425,-0.00224016 0.00152756,-0.00069685 0.00343701,-0.00108661 0.00588189,-0.0013189 0.00237402,-0.000232283 0.00535433,-0.000385827 0.00894882,-0.000385827 0.00359055,0 0.00657087,0.000153543 0.00894094,0.000385827 0.00237402,0.000232283 0.00428346,0.000622047 0.00573228,0.0013189 0.00137795,0.000692913 0.00237402,0.0014685 0.00298425,0.00224016 0.000610236,0.000854331 0.000917323,0.00185827 0.000917323,0.00309843l0 0.118776c0,0.0119134 0.00084252,0.0215079 0.00259843,0.0287047 0.0016811,0.00719685 0.00428346,0.013311 0.00779921,0.0183386 0.00351575,0.0051063 0.00794882,0.00897638 0.0132992,0.0117638 0.00542913,0.0028622 0.0116969,0.00425591 0.0188819,0.00425591 0.00925197,0 0.0184252,-0.00333071 0.0275984,-0.00998425 0.00925197,-0.00665354 0.0189567,-0.0164016 0.0292835,-0.029248l0 -0.142606c0,-0.00124016 0.000224409,-0.00224409 0.000759843,-0.00309843 0.00053937,-0.000771654 0.00152756,-0.00154724 0.00305906,-0.00224016 0.00145276,-0.00069685 0.0033622,-0.00108661 0.00565748,-0.0013189 0.00229134,-0.000232283 0.00535039,-0.000385827 0.00909449,-0.000385827 0.00359449,0 0.00657874,0.000153543 0.00894488,0.000385827 0.00237008,0.000232283 0.00428346,0.000622047 0.00558268,0.0013189 0.00137402,0.000692913 0.00237008,0.0014685 0.00305906,0.00224016 0.000688976,0.000854331 0.000992126,0.00185827 0.000992126,0.00309843l0 0.204043zm0.186071 -0.190657c0,0.00332677 -7.87402e-005,0.00611024 -0.000228346,0.00835433 -0.000153543,0.00232283 -0.00046063,0.00410236 -0.00084252,0.00534252 -0.000456693,0.00131496 -0.00107087,0.00224409 -0.0016811,0.00293701 -0.000688976,0.00069685 -0.00160236,0.00100787 -0.00283071,0.00100787 -0.00122047,0 -0.00267323,-0.000311024 -0.00435433,-0.00100787 -0.00175984,-0.000692913 -0.00367323,-0.00131496 -0.00581102,-0.00201181 -0.00221654,-0.000692913 -0.00458661,-0.00131496 -0.00726378,-0.00193307 -0.00275197,-0.00061811 -0.00565354,-0.000929134 -0.00879134,-0.000929134 -0.00374409,0 -0.00733858,0.000775591 -0.0109331,0.00232283 -0.00359449,0.0014685 -0.00741339,0.00394488 -0.011315,0.00742913 -0.00397244,0.00348031 -0.00810236,0.00812205 -0.0124567,0.0138504 -0.00428346,0.00572441 -0.00909843,0.0127677 -0.0142953,0.0210472l0 0.134248c0,0.00116142 -0.000307087,0.00224409 -0.000917323,0.00301969 -0.000614173,0.000850394 -0.0016063,0.00154724 -0.00290551,0.00216535 -0.00137795,0.00061811 -0.0032126,0.00108268 -0.00558268,0.0013937 -0.00244488,0.000307087 -0.00550394,0.000464567 -0.00924803,0.000464567 -0.00351575,0 -0.0065,-0.00015748 -0.00894882,-0.000464567 -0.00236614,-0.000311024 -0.00427559,-0.000775591 -0.00565354,-0.0013937 -0.00145276,-0.00061811 -0.00244882,-0.00131496 -0.00290551,-0.00216535 -0.000531496,-0.000775591 -0.00084252,-0.00185827 -0.00084252,-0.00301969l0 -0.204043c0,-0.00124016 0.000232283,-0.00224409 0.000688976,-0.00309843 0.00046063,-0.000771654 0.00137795,-0.00154724 0.00267717,-0.00224016 0.00137795,-0.00069685 0.00305906,-0.00108661 0.00519685,-0.0013189 0.00206693,-0.000232283 0.00481496,-0.000385827 0.00825591,-0.000385827 0.0032874,0 0.00604331,0.000153543 0.0081811,0.000385827 0.00214173,0.000232283 0.00382283,0.000622047 0.00504724,0.0013189 0.00114567,0.000692913 0.00206299,0.0014685 0.00259843,0.00224016 0.000456693,0.000854331 0.00076378,0.00185827 0.00076378,0.00309843l0 0.0297126c0.00550394,-0.00820472 0.0107008,-0.0148583 0.0155197,-0.0199646 0.00488976,-0.0051063 0.00948031,-0.00920866 0.0138346,-0.0121496 0.00428346,-0.00293701 0.00856299,-0.00494882 0.0128465,-0.00611024 0.00427559,-0.00108268 0.00855906,-0.00170472 0.0128425,-0.00170472 0.00198819,0 0.00420472,0.00015748 0.00664961,0.000389764 0.00244488,0.000232283 0.00504724,0.00061811 0.00772047,0.00123622 0.00267717,0.00061811 0.00512205,0.00124016 0.00726378,0.00201181 0.00221654,0.000775591 0.00374409,0.00154724 0.00458661,0.00224409 0.000917323,0.000775591 0.00152756,0.0014685 0.00183465,0.00216535 0.00030315,0.00069685 0.000531496,0.00154724 0.00076378,0.00263386 0.000228346,0.00108268 0.00038189,0.00262992 0.000456693,0.00464173 7.87402e-005,0.00201181 7.87402e-005,0.00479528 7.87402e-005,0.00827953z"/>
    <path id="_206713264" class="fil4" d="M4.8457 1.49477c0,0.00177953 -0.000610236,0.00317323 -0.00183071,0.00402362 -0.00114567,0.000929134 -0.00282677,0.00162598 -0.0048937,0.00209055 -0.0021378,0.000464567 -0.00520079,0.00069685 -0.00917323,0.00069685 -0.00389764,0 -0.00703543,-0.000232283 -0.00932677,-0.00069685 -0.00229528,-0.000464567 -0.00397244,-0.00116142 -0.00504331,-0.00209055 -0.0010748,-0.000850394 -0.0015315,-0.00224409 -0.0015315,-0.00402362l0 -0.0204252c-0.00886614,0.00951575 -0.0186535,0.0169449 -0.0295079,0.0222047 -0.0107795,0.00526378 -0.0222441,0.00797244 -0.0343268,0.00797244 -0.010626,0 -0.0202559,-0.0013937 -0.0288189,-0.00425591 -0.00855906,-0.0027874 -0.0159016,-0.00681102 -0.0219409,-0.0120709 -0.00603937,-0.00533858 -0.0107756,-0.0118386 -0.0141417,-0.0195 -0.0032874,-0.00774016 -0.0049685,-0.0164803 -0.0049685,-0.026311 0,-0.0115276 0.00229134,-0.0214331 0.00687795,-0.0299449 0.00466535,-0.00843307 0.011315,-0.0154724 0.0199528,-0.0210472 0.00864173,-0.00564567 0.0192677,-0.00982677 0.0318031,-0.0126102 0.0125354,-0.0027874 0.0266772,-0.00417717 0.0423543,-0.00417717l0.027748 0 0 -0.0158661c0,-0.00788976 -0.000838583,-0.0148543 -0.00244488,-0.0208898 -0.0016811,-0.00603543 -0.00428346,-0.0110669 -0.00795276,-0.0150118 -0.00366535,-0.00402362 -0.00840945,-0.00703937 -0.0142205,-0.00912992 -0.00580709,-0.00201181 -0.0129961,-0.00301969 -0.0214764,-0.00301969 -0.00917717,0 -0.0172795,0.00108661 -0.0245394,0.00325197 -0.00726772,0.00224409 -0.0136102,0.00464173 -0.0190394,0.00727165 -0.00550394,0.00263386 -0.0100157,0.0050315 -0.0136811,0.00727559 -0.00367323,0.00216535 -0.00635039,0.00324803 -0.0081811,0.00324803 -0.00114567,0 -0.00221654,-0.000307087 -0.00313386,-0.000850394 -0.000917323,-0.00061811 -0.0016811,-0.00154724 -0.00237008,-0.00278346 -0.000614173,-0.00116142 -0.00114567,-0.00270866 -0.00145276,-0.00464567 -0.00030315,-0.00185433 -0.00046063,-0.00394488 -0.00046063,-0.00618898 0,-0.00379134 0.000307087,-0.00681102 0.000838583,-0.00897638 0.00053937,-0.00216535 0.00176378,-0.00425591 0.00382677,-0.00626772 0.00198425,-0.00193307 0.00542913,-0.00425591 0.0103937,-0.00688583 0.0048937,-0.00262992 0.0105512,-0.0050315 0.0169724,-0.00727559 0.00642126,-0.00216535 0.0134528,-0.00394488 0.0211024,-0.00541339 0.00756693,-0.00147244 0.0152874,-0.00216929 0.0230827,-0.00216929 0.0144528,0 0.0267598,0.00170472 0.0369252,0.0050315 0.0101693,0.00332677 0.0183465,0.00820079 0.0246181,0.014622 0.00626772,0.0064252 0.0108543,0.0143937 0.013685,0.0239134 0.00282677,0.00951575 0.00427559,0.0205787 0.00427559,0.0332717l0 0.137654zm-0.0367677 -0.0931614l-0.0315709 0c-0.0101693,0 -0.0189606,0.000850394 -0.0264488,0.00255118 -0.00741732,0.00177953 -0.0136102,0.00433465 -0.0185787,0.00774016 -0.0048937,0.00340551 -0.00856299,0.00750394 -0.0108543,0.0122244 -0.00229528,0.00479921 -0.00344488,0.0102126 -0.00344488,0.0164055 0,0.0105984 0.0032874,0.0190354 0.00994094,0.0253031 0.00664961,0.00626772 0.0159764,0.00943701 0.0279016,0.00943701 0.00970866,0 0.0186535,-0.00247638 0.0269882,-0.00750394 0.00825591,-0.00495276 0.0169685,-0.0126142 0.0260669,-0.0229055l0 -0.043252zm0.231177 0.037374c0,0.0104449 -0.00190945,0.0197283 -0.00573228,0.0278543 -0.00382283,0.00820079 -0.00925197,0.0150906 -0.0162835,0.0206614 -0.00695669,0.00557087 -0.0153661,0.00982677 -0.0250748,0.012689 -0.00970866,0.0028622 -0.0203346,0.00433465 -0.0320315,0.00433465 -0.00711024,0 -0.0139921,-0.000622047 -0.0204882,-0.00170472 -0.0065,-0.00116142 -0.0123071,-0.00262992 -0.0174291,-0.00433071 -0.00520079,-0.00170472 -0.00955512,-0.00355906 -0.0131496,-0.00541732 -0.00351575,-0.00193701 -0.00619291,-0.0036378 -0.00779528,-0.0051063 -0.00168504,-0.00154724 -0.00283071,-0.0036378 -0.00359449,-0.00634646 -0.000767717,-0.00270866 -0.00114567,-0.00642126 -0.00114567,-0.0111417 0,-0.0028622 0.000149606,-0.00526378 0.000456693,-0.00727559 0.000307087,-0.00193307 0.000688976,-0.00348031 0.00114961,-0.00472047 0.000456693,-0.00123622 0.00106693,-0.00208661 0.00190945,-0.00262992 0.00076378,-0.00053937 0.00175591,-0.000771654 0.00275197,-0.000771654 0.0016811,0 0.00412598,0.00100394 0.00733465,0.00309449 0.0032126,0.00201181 0.00711024,0.00425591 0.0118543,0.00665354 0.00466142,0.00239764 0.0102402,0.00464173 0.0166614,0.00665354 0.00642126,0.00209055 0.0138386,0.00309843 0.0221732,0.00309843 0.00626772,0 0.0119252,-0.00069685 0.0170472,-0.00201181 0.00504331,-0.0013937 0.00948031,-0.00340551 0.0132244,-0.00603543 0.00366929,-0.00263386 0.0065748,-0.00603937 0.00856299,-0.010063 0.00206299,-0.00409843 0.00305512,-0.00897244 0.00305512,-0.0145433 0,-0.00572835 -0.00144882,-0.0106024 -0.00435433,-0.0144724 -0.00290551,-0.00394488 -0.00680315,-0.00742913 -0.0115472,-0.0104449 -0.00481496,-0.00301969 -0.0101654,-0.00572441 -0.0161299,-0.00804724 -0.00596063,-0.00232283 -0.0121535,-0.00479921 -0.0185,-0.00735039 -0.00634252,-0.00262992 -0.0125354,-0.00549606 -0.0185748,-0.00874409 -0.00603543,-0.00325197 -0.0114685,-0.00719685 -0.0162047,-0.0119173 -0.0048189,-0.00472047 -0.0086378,-0.0102913 -0.0115433,-0.0167913 -0.00290551,-0.0065 -0.00435827,-0.0142362 -0.00435827,-0.0233661 0,-0.00797244 0.00152756,-0.0156299 0.00458661,-0.0229803 0.00305906,-0.00735433 0.00764173,-0.0137756 0.0137559,-0.0192677 0.00611811,-0.00549606 0.0137638,-0.00990551 0.022937,-0.0132323 0.00917323,-0.00332677 0.0199528,-0.0050315 0.032185,-0.0050315 0.00535039,0 0.0107047,0.000464567 0.0161299,0.0013937 0.00535039,0.000850394 0.0101693,0.00201181 0.0145236,0.00340551 0.0043622,0.00131496 0.00802756,0.00278346 0.0110866,0.00440945 0.00305512,0.00154724 0.00535039,0.00294094 0.00695669,0.00417717 0.0015315,0.00124016 0.00259843,0.00224409 0.00313386,0.00317323 0.000535433,0.000929134 0.000917323,0.00193701 0.00114567,0.00309449 0.000228346,0.00108661 0.00038189,0.00247638 0.000610236,0.0041811 0.000228346,0.00162205 0.000385827,0.0037126 0.000385827,0.00611024 0,0.00255512 -0.00015748,0.00479921 -0.000385827,0.00665748 -0.000228346,0.00193307 -0.000531496,0.00348031 -0.00107087,0.00464173 -0.000531496,0.00123622 -0.00114567,0.00209055 -0.00190945,0.00262992 -0.00076378,0.000543307 -0.0016063,0.000775591 -0.00244488,0.000775591 -0.00137795,0 -0.0032874,-0.000775591 -0.00588583,-0.00247638 -0.00252362,-0.00162598 -0.00581102,-0.00340551 -0.0097874,-0.00533858 -0.00405118,-0.00185827 -0.0087874,-0.0036378 -0.0142913,-0.00533858 -0.00543307,-0.00162598 -0.011622,-0.00247638 -0.0186575,-0.00247638 -0.00626772,0 -0.0117717,0.000692913 -0.0165866,0.00216535 -0.00474016,0.0014685 -0.0087126,0.00348031 -0.0117756,0.00611417 -0.00305512,0.00262992 -0.00534646,0.00580315 -0.00695276,0.00943701 -0.0015315,0.0036378 -0.00229528,0.00750787 -0.00229528,0.0117638 0,0.00587795 0.00145276,0.0108307 0.00443307,0.0148543 0.00298425,0.00402362 0.00688189,0.00750787 0.0116969,0.0105236 0.00474016,0.00301969 0.0101654,0.00572835 0.0162835,0.00820472 0.00619291,0.00239764 0.0123858,0.00487402 0.0187283,0.0074252 0.00634646,0.00263386 0.0126142,0.00549606 0.0188071,0.00866929 0.00619291,0.00316929 0.0116969,0.00696063 0.0165118,0.0115276 0.00474409,0.00456693 0.00856299,0.00998031 0.0114685,0.0163268 0.00290551,0.00634646 0.00443307,0.0139291 0.00443307,0.0226732zm0.238287 -0.0496772c0,0.017874 -0.00191339,0.0338898 -0.00573228,0.0480512 -0.00374803,0.0142362 -0.00940551,0.0263071 -0.0167441,0.0362126 -0.00741732,0.00990551 -0.0165906,0.0174882 -0.0274449,0.0229055 -0.0109331,0.00533858 -0.0233937,0.00804724 -0.0374606,0.00804724 -0.00596063,0 -0.0114646,-0.000622047 -0.0165118,-0.00185827 -0.00512205,-0.00116142 -0.0100906,-0.00309449 -0.0149094,-0.00564961 -0.00488976,-0.00255118 -0.00970472,-0.00580315 -0.0144449,-0.00974803 -0.0048189,-0.00394882 -0.0098622,-0.00851181 -0.0152126,-0.0138504l0 0.102059c0,0.00116142 -0.000307087,0.00224409 -0.000917323,0.00317323 -0.000614173,0.000850394 -0.0016063,0.00162598 -0.00290551,0.00224409 -0.00137795,0.00061811 -0.0032126,0.00108268 -0.00558268,0.0013937 -0.00244488,0.000232283 -0.00550394,0.000385827 -0.00924803,0.000385827 -0.00351575,0 -0.0065,-0.000153543 -0.00894488,-0.000385827 -0.00237008,-0.000311024 -0.00427953,-0.000775591 -0.00565748,-0.0013937 -0.00144882,-0.00061811 -0.00244488,-0.0013937 -0.00290551,-0.00224409 -0.000531496,-0.000929134 -0.000838583,-0.00201181 -0.000838583,-0.00317323l0 -0.28498c0,-0.0013937 0.000228346,-0.00247638 0.000688976,-0.00325197 0.000456693,-0.000850394 0.00137402,-0.00154724 0.00267323,-0.00216535 0.00137795,-0.00061811 0.00305906,-0.00100787 0.00519685,-0.00124016 0.00206693,-0.000232283 0.00458661,-0.000385827 0.00757087,-0.000385827 0.00313386,0 0.00573228,0.000153543 0.00772047,0.000385827 0.00206693,0.000232283 0.00374409,0.000622047 0.00504331,0.00124016 0.00137795,0.00061811 0.00229528,0.00131496 0.00283071,0.00216535 0.000535433,0.000775591 0.00076378,0.00185827 0.00076378,0.00325197l0 0.0274685c0.00611417,-0.00642126 0.0120039,-0.0119173 0.0177362,-0.0165591 0.00565748,-0.00472047 0.011311,-0.00859055 0.017122,-0.011685 0.00573622,-0.00309449 0.011622,-0.00549213 0.0176614,-0.00703937 0.00603937,-0.00162598 0.0124606,-0.00240157 0.019185,-0.00240157 0.0146024,0 0.0270669,0.00286614 0.0373858,0.00866929 0.0103189,0.00572441 0.0186535,0.0135394 0.0251496,0.0235197 0.0065,0.00998425 0.0112402,0.0215906 0.0142205,0.0348228 0.00305906,0.0132323 0.00451181,0.0272362 0.00451181,0.0420157zm-0.0389882 0.00433071c0,-0.0104449 -0.00076378,-0.0205039 -0.00229528,-0.030252 -0.00160236,-0.00975197 -0.00427953,-0.0184173 -0.00810236,-0.026 -0.00382283,-0.00750394 -0.00894488,-0.0135394 -0.0153661,-0.0181063 -0.00642126,-0.00448819 -0.0143701,-0.00681102 -0.0239291,-0.00681102 -0.00481496,0 -0.00947638,0.00069685 -0.0141417,0.00216929 -0.00458661,0.0014685 -0.00932677,0.0037126 -0.014063,0.00680709 -0.00482283,0.00309449 -0.0097874,0.00719685 -0.015063,0.0122283 -0.00520079,0.0051063 -0.0107047,0.0112953 -0.0165118,0.0187244l0 0.0811693c0.0100906,0.0125354 0.0197205,0.0221299 0.0288976,0.0287835 0.00909843,0.00665354 0.0186496,0.00998425 0.0286654,0.00998425 0.00925197,0 0.0172008,-0.00232283 0.0238504,-0.00681102 0.0065748,-0.00456693 0.0120039,-0.0106024 0.0161339,-0.018185 0.00405118,-0.00750394 0.00711024,-0.0160157 0.00901969,-0.025378 0.00198425,-0.0093622 0.00290551,-0.0188031 0.00290551,-0.0283228zm0.131488 0.100902c0,0.00116142 -0.000307087,0.00224409 -0.000917323,0.00301969 -0.000614173,0.000850394 -0.0016063,0.00154724 -0.00290551,0.00216535 -0.00137795,0.00061811 -0.0032126,0.00108268 -0.00558268,0.0013937 -0.00244488,0.000307087 -0.00550394,0.000464567 -0.00924803,0.000464567 -0.00351575,0 -0.0065,-0.00015748 -0.00894882,-0.000464567 -0.00236614,-0.000311024 -0.00427559,-0.000775591 -0.00565354,-0.0013937 -0.00145276,-0.00061811 -0.00244882,-0.00131496 -0.00290551,-0.00216535 -0.000535433,-0.000775591 -0.00084252,-0.00185827 -0.00084252,-0.00301969l0 -0.204043c0,-0.00108268 0.000307087,-0.00201181 0.00084252,-0.00294094 0.000456693,-0.000929134 0.00145276,-0.00170472 0.00290551,-0.00224409 0.00137795,-0.00061811 0.0032874,-0.00108268 0.00565354,-0.0013937 0.00244882,-0.000311024 0.00543307,-0.000464567 0.00894882,-0.000464567 0.00374409,0 0.00680315,0.000153543 0.00924803,0.000464567 0.00237008,0.000311024 0.00420472,0.000775591 0.00558268,0.0013937 0.00129921,0.00053937 0.00229134,0.00131496 0.00290551,0.00224409 0.000610236,0.000929134 0.000917323,0.00185827 0.000917323,0.00294094l0 0.204043zm0.00420079 -0.272988c0,0.00882283 -0.00160236,0.0147795 -0.00488976,0.0179528 -0.0032874,0.00316929 -0.00932677,0.00472047 -0.0181181,0.00472047 -0.00871654,0 -0.0146024,-0.00155118 -0.017815,-0.00464567 -0.00320866,-0.00309449 -0.00481496,-0.00889764 -0.00481496,-0.017563 0,-0.00874409 0.0016063,-0.0147008 0.0048937,-0.017874 0.0032874,-0.00317323 0.00932677,-0.00479921 0.0181181,-0.00479921 0.0087126,0 0.0146024,0.00154724 0.017811,0.00464173 0.0032126,0.00309843 0.00481496,0.00897638 0.00481496,0.0175669zm0.18187 0.0823307c0,0.00332677 -7.48031e-005,0.00611024 -0.000228346,0.00835433 -0.000149606,0.00232283 -0.000456693,0.00410236 -0.000838583,0.00534252 -0.00046063,0.00131496 -0.0010748,0.00224409 -0.00168504,0.00293701 -0.000688976,0.00069685 -0.00160236,0.00100787 -0.00282677,0.00100787 -0.00122441,0 -0.00267717,-0.000311024 -0.00435827,-0.00100787 -0.00175591,-0.000692913 -0.00367323,-0.00131496 -0.00581102,-0.00201181 -0.00221654,-0.000692913 -0.00458661,-0.00131496 -0.00725984,-0.00193307 -0.00275591,-0.00061811 -0.00565748,-0.000929134 -0.00879134,-0.000929134 -0.00374803,0 -0.00734252,0.000775591 -0.0109331,0.00232283 -0.00359449,0.0014685 -0.00741339,0.00394488 -0.011315,0.00742913 -0.00397638,0.00348031 -0.00810236,0.00812205 -0.0124606,0.0138504 -0.00428346,0.00572441 -0.00909843,0.0127677 -0.0142953,0.0210472l0 0.134248c0,0.00116142 -0.000307087,0.00224409 -0.000917323,0.00301969 -0.000614173,0.000850394 -0.0016063,0.00154724 -0.00290551,0.00216535 -0.00137795,0.00061811 -0.0032126,0.00108268 -0.00558268,0.0013937 -0.00244488,0.000307087 -0.00550394,0.000464567 -0.00924803,0.000464567 -0.00351575,0 -0.0065,-0.00015748 -0.00894488,-0.000464567 -0.00237008,-0.000311024 -0.00427953,-0.000775591 -0.00565748,-0.0013937 -0.00144882,-0.00061811 -0.00244488,-0.00131496 -0.00290551,-0.00216535 -0.000531496,-0.000775591 -0.000838583,-0.00185827 -0.000838583,-0.00301969l0 -0.204043c0,-0.00124016 0.000228346,-0.00224409 0.000688976,-0.00309843 0.000456693,-0.000771654 0.00137402,-0.00154724 0.00267323,-0.00224016 0.00137795,-0.00069685 0.00305906,-0.00108661 0.00519685,-0.0013189 0.00206693,-0.000232283 0.00481496,-0.000385827 0.00825984,-0.000385827 0.0032874,0 0.00603937,0.000153543 0.00817717,0.000385827 0.00214173,0.000232283 0.00382677,0.000622047 0.00504724,0.0013189 0.00114567,0.000692913 0.00206299,0.0014685 0.00259843,0.00224016 0.000456693,0.000854331 0.00076378,0.00185827 0.00076378,0.00309843l0 0.0297126c0.00550394,-0.00820472 0.0107008,-0.0148583 0.0155197,-0.0199646 0.00488976,-0.0051063 0.00948031,-0.00920866 0.0138386,-0.0121496 0.00427953,-0.00293701 0.00855906,-0.00494882 0.0128425,-0.00611024 0.00427953,-0.00108268 0.00855906,-0.00170472 0.0128425,-0.00170472 0.00198819,0 0.00420472,0.00015748 0.00665354,0.000389764 0.00244094,0.000232283 0.00504331,0.00061811 0.00772047,0.00123622 0.00267323,0.00061811 0.00511811,0.00124016 0.00725984,0.00201181 0.00221654,0.000775591 0.00374803,0.00154724 0.00458661,0.00224409 0.000917323,0.000775591 0.00152756,0.0014685 0.00183465,0.00216535 0.00030315,0.00069685 0.000535433,0.00154724 0.00076378,0.00263386 0.000228346,0.00108268 0.00038189,0.00262992 0.00046063,0.00464173 7.48031e-005,0.00201181 7.48031e-005,0.00479528 7.48031e-005,0.00827953zm0.184618 0.19089c0,0.00177953 -0.000610236,0.00317323 -0.00183071,0.00402362 -0.00114567,0.000929134 -0.00282677,0.00162598 -0.0048937,0.00209055 -0.0021378,0.000464567 -0.00520079,0.00069685 -0.00917323,0.00069685 -0.00389764,0 -0.00703543,-0.000232283 -0.00932677,-0.00069685 -0.00229528,-0.000464567 -0.00397244,-0.00116142 -0.00504331,-0.00209055 -0.0010748,-0.000850394 -0.0015315,-0.00224409 -0.0015315,-0.00402362l0 -0.0204252c-0.00886614,0.00951575 -0.0186535,0.0169449 -0.0295079,0.0222047 -0.0107795,0.00526378 -0.0222441,0.00797244 -0.0343268,0.00797244 -0.010626,0 -0.0202559,-0.0013937 -0.0288189,-0.00425591 -0.00855906,-0.0027874 -0.0159016,-0.00681102 -0.0219409,-0.0120709 -0.00603937,-0.00533858 -0.0107756,-0.0118386 -0.0141417,-0.0195 -0.0032874,-0.00774016 -0.0049685,-0.0164803 -0.0049685,-0.026311 0,-0.0115276 0.00229134,-0.0214331 0.00687795,-0.0299449 0.00466535,-0.00843307 0.011315,-0.0154724 0.0199528,-0.0210472 0.00864173,-0.00564567 0.0192677,-0.00982677 0.0318031,-0.0126102 0.0125354,-0.0027874 0.0266772,-0.00417717 0.0423543,-0.00417717l0.027748 0 0 -0.0158661c0,-0.00788976 -0.000838583,-0.0148543 -0.00244488,-0.0208898 -0.0016811,-0.00603543 -0.00428346,-0.0110669 -0.00795276,-0.0150118 -0.00366535,-0.00402362 -0.00840945,-0.00703937 -0.0142205,-0.00912992 -0.00580709,-0.00201181 -0.0129961,-0.00301969 -0.0214764,-0.00301969 -0.00917717,0 -0.0172795,0.00108661 -0.0245394,0.00325197 -0.00726772,0.00224409 -0.0136102,0.00464173 -0.0190394,0.00727165 -0.00550394,0.00263386 -0.0100157,0.0050315 -0.0136811,0.00727559 -0.00367323,0.00216535 -0.00635039,0.00324803 -0.0081811,0.00324803 -0.00114567,0 -0.00221654,-0.000307087 -0.00313386,-0.000850394 -0.000917323,-0.00061811 -0.0016811,-0.00154724 -0.00237008,-0.00278346 -0.000614173,-0.00116142 -0.00114567,-0.00270866 -0.00145276,-0.00464567 -0.00030315,-0.00185433 -0.00046063,-0.00394488 -0.00046063,-0.00618898 0,-0.00379134 0.000307087,-0.00681102 0.000838583,-0.00897638 0.00053937,-0.00216535 0.00176378,-0.00425591 0.00382677,-0.00626772 0.00198425,-0.00193307 0.00542913,-0.00425591 0.0103937,-0.00688583 0.0048937,-0.00262992 0.0105512,-0.0050315 0.0169724,-0.00727559 0.00642126,-0.00216535 0.0134528,-0.00394488 0.0211024,-0.00541339 0.00756693,-0.00147244 0.0152874,-0.00216929 0.0230827,-0.00216929 0.0144528,0 0.0267598,0.00170472 0.0369252,0.0050315 0.0101693,0.00332677 0.0183465,0.00820079 0.0246181,0.014622 0.00626772,0.0064252 0.0108543,0.0143937 0.013685,0.0239134 0.00282677,0.00951575 0.00427559,0.0205787 0.00427559,0.0332717l0 0.137654zm-0.0367677 -0.0931614l-0.0315709 0c-0.0101693,0 -0.0189606,0.000850394 -0.0264488,0.00255118 -0.00741732,0.00177953 -0.0136102,0.00433465 -0.0185787,0.00774016 -0.0048937,0.00340551 -0.00856299,0.00750394 -0.0108543,0.0122244 -0.00229528,0.00479921 -0.00344488,0.0102126 -0.00344488,0.0164055 0,0.0105984 0.0032874,0.0190354 0.00994094,0.0253031 0.00664961,0.00626772 0.0159764,0.00943701 0.0279016,0.00943701 0.00970866,0 0.0186535,-0.00247638 0.0269882,-0.00750394 0.00825591,-0.00495276 0.0169685,-0.0126142 0.0260669,-0.0229055l0 -0.043252zm0.20511 0.0779173c0,0.00441339 -0.000307087,0.0078937 -0.000846457,0.0104488 -0.000610236,0.00255118 -0.00152756,0.00448819 -0.00274803,0.00564567 -0.00114961,0.00124016 -0.00298425,0.00240157 -0.00535433,0.00340551 -0.00236614,0.00108268 -0.00512205,0.00193701 -0.00817717,0.00262992 -0.00305906,0.00069685 -0.00626772,0.00124016 -0.00970866,0.00170472 -0.00344094,0.000464567 -0.00688189,0.00069685 -0.0103189,0.00069685 -0.0104764,0 -0.0194173,-0.0013937 -0.0269094,-0.0041811 -0.00741732,-0.0028622 -0.0135315,-0.00703937 -0.0183465,-0.012689 -0.00474409,-0.00572441 -0.00825984,-0.0128425 -0.0103976,-0.0215866 -0.00214567,-0.00866929 -0.0032126,-0.0188819 -0.0032126,-0.0307205l0 -0.11924 -0.0282874 0c-0.00221654,0 -0.00397638,-0.00116142 -0.00535039,-0.0036378 -0.00137402,-0.00239764 -0.00198819,-0.00634252 -0.00198819,-0.0117598 0,-0.0028622 0.000153543,-0.00525984 0.000535433,-0.00727165 0.00038189,-0.00193701 0.00084252,-0.00355906 0.00145276,-0.00487795 0.000614173,-0.00123622 0.00137402,-0.00216535 0.00237008,-0.00270866 0.000992126,-0.00053937 0.00206299,-0.000771654 0.00320866,-0.000771654l0.0280591 0 0 -0.0485157c0,-0.00108268 0.000228346,-0.00201181 0.00076378,-0.00294094 0.000535433,-0.000929134 0.00145276,-0.00170079 0.00290551,-0.00239764 0.00137402,-0.00069685 0.0032874,-0.00116142 0.00573622,-0.00147244 0.00236614,-0.000307087 0.00534646,-0.000464567 0.00894094,-0.000464567 0.00374409,0 0.00680315,0.00015748 0.00917717,0.000464567 0.00236614,0.000311024 0.00427559,0.000775591 0.0055748,0.00147244 0.00137795,0.00069685 0.00229528,0.0014685 0.00290551,0.00239764 0.000610236,0.000929134 0.000917323,0.00185827 0.000917323,0.00294094l0 0.0485157 0.0517559 0c0.00114961,0 0.00222047,0.000232283 0.0031378,0.000771654 0.000838583,0.000543307 0.0016811,0.00147244 0.00229134,0.00270866 0.000685039,0.0013189 0.00122441,0.00294094 0.00145276,0.00487795 0.00030315,0.00201181 0.00046063,0.00440945 0.00046063,0.00727165 0,0.00541732 -0.000614173,0.0093622 -0.00198819,0.0117598 -0.00137795,0.00247638 -0.00313386,0.0036378 -0.00535433,0.0036378l-0.0517559 0 0 0.113823c0,0.0140827 0.00206693,0.024685 0.00611811,0.0318819 0.00412992,0.00711811 0.0114685,0.0107559 0.0220906,0.0107559 0.00344488,0 0.0065,-0.000389764 0.00917717,-0.00100787 0.00267717,-0.00069685 0.00512205,-0.0014685 0.00718504,-0.00216535 0.00206299,-0.000775591 0.00390157,-0.00147244 0.00535039,-0.00216929 0.00152756,-0.000692913 0.00282677,-0.00100394 0.00405512,-0.00100394 0.000759843,0 0.00144882,0.000153543 0.0021378,0.000543307 0.000688976,0.000385827 0.00114567,0.00108268 0.00152756,0.00216535 0.00038189,0.00108268 0.000767717,0.00247638 0.000996063,0.00425591 0.00030315,0.00185827 0.00046063,0.00409843 0.00046063,0.00680709zm0.0858504 0.0150118c0,0.00116142 -0.000307087,0.00224409 -0.000917323,0.00301969 -0.000614173,0.000850394 -0.0016063,0.00154724 -0.00290551,0.00216535 -0.00137795,0.00061811 -0.0032126,0.00108268 -0.00558268,0.0013937 -0.00244488,0.000307087 -0.00550394,0.000464567 -0.00924803,0.000464567 -0.00351575,0 -0.0065,-0.00015748 -0.00894488,-0.000464567 -0.00237008,-0.000311024 -0.00427953,-0.000775591 -0.00565748,-0.0013937 -0.00144882,-0.00061811 -0.00244488,-0.00131496 -0.00290551,-0.00216535 -0.000531496,-0.000775591 -0.000838583,-0.00185827 -0.000838583,-0.00301969l0 -0.204043c0,-0.00108268 0.000307087,-0.00201181 0.000838583,-0.00294094 0.00046063,-0.000929134 0.00145669,-0.00170472 0.00290551,-0.00224409 0.00137795,-0.00061811 0.0032874,-0.00108268 0.00565748,-0.0013937 0.00244488,-0.000311024 0.00542913,-0.000464567 0.00894488,-0.000464567 0.00374409,0 0.00680315,0.000153543 0.00924803,0.000464567 0.00237008,0.000311024 0.00420472,0.000775591 0.00558268,0.0013937 0.00129921,0.00053937 0.00229134,0.00131496 0.00290551,0.00224409 0.000610236,0.000929134 0.000917323,0.00185827 0.000917323,0.00294094l0 0.204043zm0.00420079 -0.272988c0,0.00882283 -0.00160236,0.0147795 -0.00488976,0.0179528 -0.0032874,0.00316929 -0.00932677,0.00472047 -0.0181181,0.00472047 -0.00871654,0 -0.0146024,-0.00155118 -0.017815,-0.00464567 -0.00320866,-0.00309449 -0.00481496,-0.00889764 -0.00481496,-0.017563 0,-0.00874409 0.0016063,-0.0147008 0.0048937,-0.017874 0.0032874,-0.00317323 0.00932677,-0.00479921 0.0181181,-0.00479921 0.0087126,0 0.0146024,0.00154724 0.017811,0.00464173 0.0032126,0.00309843 0.00481496,0.00897638 0.00481496,0.0175669zm0.251516 0.168685c0,0.0166339 -0.00214173,0.0319567 -0.0065,0.0458819 -0.00427953,0.0140079 -0.0107756,0.0260787 -0.0193386,0.0362165 -0.00856299,0.0101339 -0.0193425,0.0180276 -0.0322598,0.0236772 -0.0129213,0.00564567 -0.0279055,0.00851181 -0.044874,0.00851181 -0.0165906,0 -0.0310394,-0.00255512 -0.0433465,-0.00750787 -0.0123071,-0.00495276 -0.0226299,-0.0122244 -0.030811,-0.0217441 -0.0081811,-0.00951575 -0.0142953,-0.021122 -0.0183465,-0.0347402 -0.00405118,-0.0135433 -0.00603543,-0.0290157 -0.00603543,-0.0461969 0,-0.0166339 0.0021378,-0.0319567 0.00634252,-0.0458819 0.00428346,-0.0140079 0.0107008,-0.0260787 0.0192638,-0.0362165 0.00856299,-0.0101339 0.0193386,-0.0179488 0.032185,-0.0235197 0.0128425,-0.00564961 0.0278268,-0.00843701 0.0449528,-0.00843701 0.0165866,0 0.0310354,0.00247638 0.0433425,0.00750787 0.012311,0.00495276 0.0226299,0.0122244 0.0308071,0.0217441 0.00825984,0.00951575 0.014374,0.021122 0.0185,0.0346654 0.00412992,0.0136181 0.00611811,0.028937 0.00611811,0.0460394zm-0.0389094 0.00247638c0,-0.0109882 -0.00107087,-0.021437 -0.00305906,-0.0312638 -0.00198819,-0.00982677 -0.00535039,-0.0184134 -0.00993701,-0.0258425 -0.00466535,-0.00742913 -0.0109331,-0.0132323 -0.0188071,-0.0175669 -0.00794882,-0.00433071 -0.017815,-0.00649606 -0.0295866,-0.00649606 -0.0109331,0 -0.0202598,0.00201181 -0.0281339,0.00595669 -0.00779528,0.00387008 -0.0142913,0.00944094 -0.0193425,0.0166378 -0.00511811,0.00719291 -0.0088622,0.0157047 -0.011311,0.0255315 -0.00244488,0.00982677 -0.00366929,0.0205079 -0.00366929,0.032189 0,0.0111457 0.000996063,0.0216693 0.00298031,0.0314961 0.00198819,0.00982677 0.00535433,0.0184134 0.0100906,0.025689 0.00466535,0.00735039 0.0110079,0.0131535 0.0188858,0.0174882 0.00794882,0.00433071 0.017811,0.00642126 0.0295827,0.00642126 0.0107795,0 0.0201063,-0.00193701 0.0279803,-0.00588189 0.00794882,-0.00394488 0.0144488,-0.00944094 0.0194921,-0.0165591 0.00512598,-0.00703937 0.00887008,-0.0155512 0.0112402,-0.025378 0.00236614,-0.00982677 0.00359449,-0.0205827 0.00359449,-0.0324213zm0.266949 0.101827c0,0.00116142 -0.00030315,0.00224409 -0.000917323,0.00301969 -0.000610236,0.000850394 -0.0015315,0.00154724 -0.00290157,0.00216535 -0.00137795,0.00061811 -0.0032126,0.00108268 -0.00558268,0.0013937 -0.00244488,0.000307087 -0.00542913,0.000464567 -0.00894488,0.000464567 -0.00374803,0 -0.00680315,-0.00015748 -0.00925197,-0.000464567 -0.00236614,-0.000311024 -0.00420472,-0.000775591 -0.00557874,-0.0013937 -0.00129921,-0.00061811 -0.00229134,-0.00131496 -0.00290551,-0.00216535 -0.000614173,-0.000775591 -0.000917323,-0.00185827 -0.000917323,-0.00301969l0 -0.119472c0,-0.0116811 -0.00084252,-0.0210433 -0.00267323,-0.0280866 -0.00175984,-0.00711811 -0.00435827,-0.0132323 -0.00779921,-0.0184173 -0.00344094,-0.0051063 -0.00787402,-0.00905118 -0.013378,-0.0117598 -0.00542913,-0.00270866 -0.0116969,-0.00410236 -0.0188819,-0.00410236 -0.00925197,0 -0.0185,0.00332677 -0.027752,0.00998425 -0.00932677,0.00665354 -0.0190354,0.0164016 -0.029126,0.029248l0 0.142606c0,0.00116142 -0.000307087,0.00224409 -0.000917323,0.00301969 -0.000614173,0.000850394 -0.0016063,0.00154724 -0.00290551,0.00216535 -0.00137402,0.00061811 -0.0032126,0.00108268 -0.00557874,0.0013937 -0.00244882,0.000307087 -0.00550394,0.000464567 -0.00925197,0.000464567 -0.00351575,0 -0.0065,-0.00015748 -0.00894488,-0.000464567 -0.00237008,-0.000311024 -0.00427953,-0.000775591 -0.00565748,-0.0013937 -0.00144882,-0.00061811 -0.00244488,-0.00131496 -0.00290551,-0.00216535 -0.000531496,-0.000775591 -0.000838583,-0.00185827 -0.000838583,-0.00301969l0 -0.204043c0,-0.00124016 0.000228346,-0.00224409 0.000688976,-0.00309843 0.000456693,-0.000771654 0.00137402,-0.00154724 0.00267323,-0.00224016 0.00137795,-0.00069685 0.00305906,-0.00108661 0.00519685,-0.0013189 0.00206693,-0.000232283 0.00481496,-0.000385827 0.00825984,-0.000385827 0.0032874,0 0.00603937,0.000153543 0.0081811,0.000385827 0.0021378,0.000232283 0.00382283,0.000622047 0.00504331,0.0013189 0.00114567,0.000692913 0.00206693,0.0014685 0.00259843,0.00224016 0.000456693,0.000854331 0.000767717,0.00185827 0.000767717,0.00309843l0 0.0270039c0.011315,-0.0128465 0.022626,-0.0222835 0.0339409,-0.0282441 0.0112362,-0.00595669 0.0226299,-0.00897638 0.0340945,-0.00897638 0.0134528,0 0.0247677,0.00232283 0.0339409,0.00696457 0.00917717,0.00456693 0.0166693,0.0107559 0.0223228,0.0184173 0.00566142,0.00773622 0.00970866,0.0167913 0.0121535,0.0270827 0.00252756,0.0103661 0.00374803,0.0228268 0.00374803,0.0372953l0 0.1245zm0.193945 -0.0555551c0,0.0104449 -0.00190945,0.0197283 -0.00573228,0.0278543 -0.00382283,0.00820079 -0.00925197,0.0150906 -0.0162835,0.0206614 -0.00695669,0.00557087 -0.0153661,0.00982677 -0.0250748,0.012689 -0.00970866,0.0028622 -0.0203346,0.00433465 -0.0320315,0.00433465 -0.00711024,0 -0.0139921,-0.000622047 -0.0204882,-0.00170472 -0.0065,-0.00116142 -0.0123071,-0.00262992 -0.0174291,-0.00433071 -0.00520079,-0.00170472 -0.00955512,-0.00355906 -0.0131496,-0.00541732 -0.00351575,-0.00193701 -0.00619291,-0.0036378 -0.00779528,-0.0051063 -0.00168504,-0.00154724 -0.00283071,-0.0036378 -0.00359449,-0.00634646 -0.000767717,-0.00270866 -0.00114961,-0.00642126 -0.00114961,-0.0111417 0,-0.0028622 0.000153543,-0.00526378 0.00046063,-0.00727559 0.000307087,-0.00193307 0.000688976,-0.00348031 0.00114567,-0.00472047 0.00046063,-0.00123622 0.00107087,-0.00208661 0.00191339,-0.00262992 0.00076378,-0.00053937 0.00175591,-0.000771654 0.00275197,-0.000771654 0.0016811,0 0.00412598,0.00100394 0.00733465,0.00309449 0.0032126,0.00201181 0.00711024,0.00425591 0.0118543,0.00665354 0.00466142,0.00239764 0.0102402,0.00464173 0.0166614,0.00665354 0.00642126,0.00209055 0.0138386,0.00309843 0.0221732,0.00309843 0.00626772,0 0.0119252,-0.00069685 0.0170472,-0.00201181 0.00504331,-0.0013937 0.00948031,-0.00340551 0.0132244,-0.00603543 0.00366929,-0.00263386 0.0065748,-0.00603937 0.00855906,-0.010063 0.00206693,-0.00409843 0.00305906,-0.00897244 0.00305906,-0.0145433 0,-0.00572835 -0.00144882,-0.0106024 -0.00435433,-0.0144724 -0.00290945,-0.00394488 -0.00680315,-0.00742913 -0.0115472,-0.0104449 -0.00481496,-0.00301969 -0.0101654,-0.00572441 -0.0161299,-0.00804724 -0.00596063,-0.00232283 -0.0121535,-0.00479921 -0.0185,-0.00735039 -0.00634252,-0.00262992 -0.0125354,-0.00549606 -0.0185748,-0.00874409 -0.00603937,-0.00325197 -0.0114685,-0.00719685 -0.0162047,-0.0119173 -0.0048189,-0.00472047 -0.0086378,-0.0102913 -0.0115433,-0.0167913 -0.00290551,-0.0065 -0.00435827,-0.0142362 -0.00435827,-0.0233661 0,-0.00797244 0.00152756,-0.0156299 0.00458661,-0.0229803 0.00305512,-0.00735433 0.00764173,-0.0137756 0.0137559,-0.0192677 0.00611811,-0.00549606 0.0137638,-0.00990551 0.022937,-0.0132323 0.00917323,-0.00332677 0.0199528,-0.0050315 0.032185,-0.0050315 0.00535039,0 0.0107047,0.000464567 0.0161299,0.0013937 0.00535039,0.000850394 0.0101693,0.00201181 0.0145236,0.00340551 0.0043622,0.00131496 0.00802756,0.00278346 0.0110866,0.00440945 0.00305512,0.00154724 0.00535039,0.00294094 0.00695669,0.00417717 0.0015315,0.00124016 0.00259843,0.00224409 0.00313386,0.00317323 0.000535433,0.000929134 0.000917323,0.00193701 0.00114567,0.00309449 0.000228346,0.00108661 0.00038189,0.00247638 0.000610236,0.0041811 0.000228346,0.00162205 0.000385827,0.0037126 0.000385827,0.00611024 0,0.00255512 -0.00015748,0.00479921 -0.000385827,0.00665748 -0.000228346,0.00193307 -0.000531496,0.00348031 -0.00107087,0.00464173 -0.000531496,0.00123622 -0.00114567,0.00209055 -0.00190945,0.00262992 -0.00076378,0.000543307 -0.0016063,0.000775591 -0.00244488,0.000775591 -0.00137795,0 -0.0032874,-0.000775591 -0.00588583,-0.00247638 -0.00252362,-0.00162598 -0.00581102,-0.00340551 -0.0097874,-0.00533858 -0.00405118,-0.00185827 -0.0087874,-0.0036378 -0.0142913,-0.00533858 -0.00543307,-0.00162598 -0.011622,-0.00247638 -0.0186575,-0.00247638 -0.00626772,0 -0.0117717,0.000692913 -0.0165866,0.00216535 -0.00474016,0.0014685 -0.0087126,0.00348031 -0.0117756,0.00611417 -0.00305906,0.00262992 -0.00534646,0.00580315 -0.00695276,0.00943701 -0.0015315,0.0036378 -0.00229528,0.00750787 -0.00229528,0.0117638 0,0.00587795 0.00145276,0.0108307 0.00443307,0.0148543 0.00298425,0.00402362 0.00688189,0.00750787 0.0116969,0.0105236 0.00474016,0.00301969 0.0101654,0.00572835 0.0162835,0.00820472 0.00619291,0.00239764 0.0123858,0.00487402 0.0187283,0.0074252 0.00634646,0.00263386 0.0126142,0.00549606 0.0188071,0.00866929 0.00619291,0.00316929 0.0116969,0.00696063 0.0165118,0.0115276 0.00474409,0.00456693 0.00856299,0.00998031 0.0114685,0.0163268 0.00290551,0.00634646 0.00443307,0.0139291 0.00443307,0.0226732z"/>
   </g>
  </g>
 </g>
</svg>
