<?xml version="1.0" encoding="UTF-8"?>
<svg width="9px" height="14px" viewBox="0 0 9 14" version="1.1" xmlns="http://www.w3.org/2000/svg" xmlns:xlink="http://www.w3.org/1999/xlink">
    <!-- Generator: sketchtool 40.1 (33804) - http://www.bohemiancoding.com/sketch -->
    <title>730195CF-5AD8-48C0-8D74-C48445FC63F4</title>
    <desc>Created with sketchtool.</desc>
    <defs></defs>
    <g id="Main" stroke="none" stroke-width="1" fill="none" fill-rule="evenodd">
        <g id="Home_1440" transform="translate(-346.000000, -1158.000000)">
            <g id="01" transform="translate(172.000000, 942.000000)"></g>
            <g id="01-hover" transform="translate(120.000000, 896.000000)">
                <rect id="Hover" x="0" y="0" width="600" height="336"></rect>
                <g id="Small_arrow" transform="translate(223.000000, 262.000000)" stroke-linecap="square" stroke-width="2" stroke="#FF9A00">
                    <polyline id="Line-Copy" transform="translate(5.000000, 7.000000) rotate(-315.000000) translate(-5.000000, -7.000000) " points="1.46446609 3.46446609 8.53553391 3.46446609 8.53553391 10.5355339"></polyline>
                </g>
            </g>
        </g>
    </g>
</svg>