<?xml version="1.0" encoding="UTF-8"?>
<svg width="80px" height="81px" viewBox="0 0 80 81" version="1.1" xmlns="http://www.w3.org/2000/svg" xmlns:xlink="http://www.w3.org/1999/xlink">
    <!-- Generator: Sketch 49 (51002) - http://www.bohemiancoding.com/sketch -->
    <title>Artboard Copy 12</title>
    <desc>Created with Sketch.</desc>
    <defs></defs>
    <g id="Artboard-Copy-12" stroke="none" stroke-width="1" fill="none" fill-rule="evenodd">
        <g id="laravel-1-logo-svg-vector" transform="translate(1.000000, 13.000000)" fill="#FB503B" fill-rule="nonzero">
            <path d="M77.8847059,26.0084746 C77.3270588,25.4491525 70.1705882,16.4067797 68.9623529,14.9152542 C67.6611765,13.4237288 67.1035294,13.7033898 66.2670588,13.7966102 C65.4305882,13.8898305 56.4152941,15.4745763 55.3929412,15.5677966 C54.3705882,15.7542373 53.72,16.1271186 54.3705882,17.059322 C54.9282353,17.8983051 60.8764706,26.2881356 62.1776471,28.2457627 L38.4776471,33.9322034 L19.7035294,2.33050847 C18.96,1.21186441 18.7741176,0.838983051 17.1011765,0.93220339 C15.4282353,1.02542373 2.32352941,2.1440678 1.39411765,2.1440678 C0.464705882,2.23728814 -0.557647059,2.61016949 0.371764706,4.84745763 C1.30117647,7.08474576 16.1717647,39.1525424 16.5435294,40.0847458 C16.9152941,41.0169492 18.0305882,42.5084746 20.54,41.9491525 C23.1423529,41.2966102 32.0647059,38.9661017 36.9905882,37.6610169 C39.5929412,42.3220339 44.7976471,51.8305085 45.82,53.2288136 C47.1211765,55.0932203 48.0505882,54.720339 50.0023529,54.1610169 C51.5823529,53.6949153 74.3529412,45.4915254 75.3752941,45.0254237 C76.3976471,44.559322 77.0482353,44.279661 76.3047059,43.2542373 C75.7470588,42.5084746 69.7988235,34.3983051 66.6388235,30.2033898 C68.7764706,29.6440678 76.4905882,27.5932203 77.3270588,27.3135593 C78.2564706,27.0338983 78.4423529,26.5677966 77.8847059,26.0084746 Z M34.8529412,34.8644068 C34.5741176,34.9576271 21.2835294,38.1271186 20.6329412,38.3135593 C19.8894118,38.5 19.8894118,38.4067797 19.8894118,38.1271186 C19.7035294,37.8474576 4.08941176,5.40677966 3.81058824,5.03389831 C3.62470588,4.66101695 3.62470588,4.28813559 3.81058824,4.28813559 C3.99647059,4.28813559 16.3576471,3.16949153 16.7294118,3.16949153 C17.1941176,3.16949153 17.1011765,3.26271186 17.2870588,3.54237288 C17.2870588,3.54237288 34.6670588,33.6525424 34.9458824,34.1186441 C35.3176471,34.5847458 35.1317647,34.7711864 34.8529412,34.8644068 Z M72.2152941,41.8559322 C72.4011765,42.2288136 72.68,42.4152542 71.9364706,42.6016949 C71.2858824,42.8813559 49.5376471,50.2457627 49.0729412,50.4322034 C48.6082353,50.6186441 48.3294118,50.7118644 47.7717647,49.8728814 C47.2141176,49.0338983 40.1505882,36.8220339 40.1505882,36.8220339 L63.2929412,30.7627119 C63.8505882,30.5762712 64.0364706,30.4830508 64.4082353,31.0423729 C64.78,31.6949153 72.0294118,41.5762712 72.2152941,41.8559322 Z M73.7023529,25.4491525 C73.1447059,25.5423729 64.6870588,27.6864407 64.6870588,27.6864407 L57.7164706,18.1779661 C57.5305882,17.8983051 57.3447059,17.6186441 57.8094118,17.5254237 C58.2741176,17.4322034 66.1741176,16.0338983 66.5458824,15.940678 C66.9176471,15.8474576 67.1964706,15.7542373 67.6611765,16.4067797 C68.1258824,16.9661017 74.0741176,24.6101695 74.3529412,24.8898305 C74.6317647,25.1694915 74.26,25.3559322 73.7023529,25.4491525 Z" id="Shape"></path>
        </g>
    </g>
</svg>